(kicad_sch (version 20211123) (generator eeschema)

  (uuid 1f550ade-b54e-4cbf-9327-8513f79ba7ca)

  (paper "A4")

  (title_block
    (title "16*16 LED matrix")
    (date "2021-04-24")
    (rev "1.1")
    (company "@hasecilu")
    (comment 1 "Four 8*8 LED matrix serially connected")
    (comment 2 "Intended to use for \"Bad Apple\" demo")
    (comment 3 "Mechanical support included")
    (comment 4 "Silkscreen art included")
  )

  (lib_symbols
    (symbol "Mechanical:MountingHole" (pin_names (offset 1.016)) (in_bom yes) (on_board yes)
      (property "Reference" "H" (id 0) (at 0 5.08 0)
        (effects (font (size 1.27 1.27)))
      )
      (property "Value" "MountingHole" (id 1) (at 0 3.175 0)
        (effects (font (size 1.27 1.27)))
      )
      (property "Footprint" "" (id 2) (at 0 0 0)
        (effects (font (size 1.27 1.27)) hide)
      )
      (property "Datasheet" "~" (id 3) (at 0 0 0)
        (effects (font (size 1.27 1.27)) hide)
      )
      (property "ki_keywords" "mounting hole" (id 4) (at 0 0 0)
        (effects (font (size 1.27 1.27)) hide)
      )
      (property "ki_description" "Mounting Hole without connection" (id 5) (at 0 0 0)
        (effects (font (size 1.27 1.27)) hide)
      )
      (property "ki_fp_filters" "MountingHole*" (id 6) (at 0 0 0)
        (effects (font (size 1.27 1.27)) hide)
      )
      (symbol "MountingHole_0_1"
        (circle (center 0 0) (radius 1.27)
          (stroke (width 1.27) (type default) (color 0 0 0 0))
          (fill (type none))
        )
      )
    )
  )


  (no_connect (at 54.61 93.345) (uuid 40e698f6-92fb-4047-9a22-a646b798f4f8))
  (no_connect (at 195.58 93.345) (uuid fb4718da-a9a4-4cb8-be65-53814d3b6368))

  (wire (pts (xy 85.09 93.345) (xy 91.44 93.345))
    (stroke (width 0) (type solid) (color 0 0 0 0))
    (uuid 30994256-9c8b-46e6-9f9f-2fb0fcab2d2f)
  )
  (wire (pts (xy 158.75 93.345) (xy 165.1 93.345))
    (stroke (width 0) (type solid) (color 0 0 0 0))
    (uuid 5a868748-22c4-447e-ab13-16d434e03ae3)
  )
  (wire (pts (xy 121.92 93.345) (xy 128.27 93.345))
    (stroke (width 0) (type solid) (color 0 0 0 0))
    (uuid df12bfb4-62aa-42af-8398-d8bbe25b8f7a)
  )

  (symbol (lib_id "Mechanical:MountingHole") (at 141.605 146.685 0) (unit 1)
    (in_bom yes) (on_board yes) (fields_autoplaced)
    (uuid 0e542252-9264-481a-b5a9-179e55679f9d)
    (property "Reference" "H4" (id 0) (at 144.78 146.0499 0)
      (effects (font (size 1.27 1.27)) (justify left))
    )
    (property "Value" "MountingHole" (id 1) (at 144.78 148.5899 0)
      (effects (font (size 1.27 1.27)) (justify left))
    )
    (property "Footprint" "MountingHole:MountingHole_2.2mm_M2" (id 2) (at 141.605 146.685 0)
      (effects (font (size 1.27 1.27)) hide)
    )
    (property "Datasheet" "~" (id 3) (at 141.605 146.685 0)
      (effects (font (size 1.27 1.27)) hide)
    )
  )

  (symbol (lib_id "Mechanical:MountingHole") (at 141.605 137.795 0) (unit 1)
    (in_bom yes) (on_board yes) (fields_autoplaced)
    (uuid 3c1067b0-8b45-48eb-b876-70a738dcbdb5)
    (property "Reference" "H3" (id 0) (at 144.78 137.1599 0)
      (effects (font (size 1.27 1.27)) (justify left))
    )
    (property "Value" "MountingHole" (id 1) (at 144.78 139.6999 0)
      (effects (font (size 1.27 1.27)) (justify left))
    )
    (property "Footprint" "MountingHole:MountingHole_2.2mm_M2" (id 2) (at 141.605 137.795 0)
      (effects (font (size 1.27 1.27)) hide)
    )
    (property "Datasheet" "~" (id 3) (at 141.605 137.795 0)
      (effects (font (size 1.27 1.27)) hide)
    )
  )

  (symbol (lib_id "Mechanical:MountingHole") (at 118.11 146.685 0) (unit 1)
    (in_bom yes) (on_board yes) (fields_autoplaced)
    (uuid 8f9f10e3-9ea5-4607-bc60-60c798557695)
    (property "Reference" "H2" (id 0) (at 121.92 146.0499 0)
      (effects (font (size 1.27 1.27)) (justify left))
    )
    (property "Value" "MountingHole" (id 1) (at 121.92 148.5899 0)
      (effects (font (size 1.27 1.27)) (justify left))
    )
    (property "Footprint" "MountingHole:MountingHole_2.2mm_M2" (id 2) (at 118.11 146.685 0)
      (effects (font (size 1.27 1.27)) hide)
    )
    (property "Datasheet" "~" (id 3) (at 118.11 146.685 0)
      (effects (font (size 1.27 1.27)) hide)
    )
  )

  (symbol (lib_id "Mechanical:MountingHole") (at 118.11 137.795 0) (unit 1)
    (in_bom yes) (on_board yes) (fields_autoplaced)
    (uuid b416f928-7394-403b-99f2-f96e5233d5e7)
    (property "Reference" "H1" (id 0) (at 121.92 137.1599 0)
      (effects (font (size 1.27 1.27)) (justify left))
    )
    (property "Value" "MountingHole" (id 1) (at 121.92 139.6999 0)
      (effects (font (size 1.27 1.27)) (justify left))
    )
    (property "Footprint" "MountingHole:MountingHole_2.2mm_M2" (id 2) (at 118.11 137.795 0)
      (effects (font (size 1.27 1.27)) hide)
    )
    (property "Datasheet" "~" (id 3) (at 118.11 137.795 0)
      (effects (font (size 1.27 1.27)) hide)
    )
  )

  (sheet (at 128.27 79.375) (size 30.48 27.94) (fields_autoplaced)
    (stroke (width 0.0006) (type solid) (color 0 0 0 0))
    (fill (color 0 0 0 0.0000))
    (uuid 08998e8a-1afc-4b2b-9f3f-db81ce7640e2)
    (property "Sheet name" "OneMatrix2" (id 0) (at 128.27 78.7393 0)
      (effects (font (size 1.27 1.27)) (justify left bottom))
    )
    (property "Sheet file" "OneMatrix.kicad_sch" (id 1) (at 128.27 107.8237 0)
      (effects (font (size 1.27 1.27)) (justify left top))
    )
    (pin "DIN" input (at 128.27 93.345 180)
      (effects (font (size 1.27 1.27)) (justify left))
      (uuid 338dea5d-152d-4ba7-9326-9c1f1f5b6bf8)
    )
    (pin "DOUT" output (at 158.75 93.345 0)
      (effects (font (size 1.27 1.27)) (justify right))
      (uuid 8b8c248d-86d7-462f-9c1c-25db289a1e3c)
    )
  )

  (sheet (at 91.44 79.375) (size 30.48 27.94) (fields_autoplaced)
    (stroke (width 0.0006) (type solid) (color 0 0 0 0))
    (fill (color 0 0 0 0.0000))
    (uuid 54e17ae4-797c-4174-80c8-011eb37c20c9)
    (property "Sheet name" "OneMatrix1" (id 0) (at 91.44 78.7393 0)
      (effects (font (size 1.27 1.27)) (justify left bottom))
    )
    (property "Sheet file" "OneMatrix.kicad_sch" (id 1) (at 91.44 107.8237 0)
      (effects (font (size 1.27 1.27)) (justify left top))
    )
    (pin "DIN" input (at 91.44 93.345 180)
      (effects (font (size 1.27 1.27)) (justify left))
      (uuid f8507744-3d0b-4716-baf6-958c9a643b61)
    )
    (pin "DOUT" output (at 121.92 93.345 0)
      (effects (font (size 1.27 1.27)) (justify right))
      (uuid 3b28b12c-55a9-4c6b-abe0-2495e3038700)
    )
  )

  (sheet (at 54.61 79.375) (size 30.48 27.94) (fields_autoplaced)
    (stroke (width 0.0006) (type solid) (color 0 0 0 0))
    (fill (color 0 0 0 0.0000))
    (uuid a57c664a-6dcc-4cd4-b22c-9334c92b2ad9)
    (property "Sheet name" "OneMatrix" (id 0) (at 54.61 78.7393 0)
      (effects (font (size 1.27 1.27)) (justify left bottom))
    )
    (property "Sheet file" "OneMatrix.kicad_sch" (id 1) (at 54.61 107.8237 0)
      (effects (font (size 1.27 1.27)) (justify left top))
    )
    (pin "DIN" input (at 54.61 93.345 180)
      (effects (font (size 1.27 1.27)) (justify left))
      (uuid 9f500533-a7a1-49eb-879b-015a642ec036)
    )
    (pin "DOUT" output (at 85.09 93.345 0)
      (effects (font (size 1.27 1.27)) (justify right))
      (uuid 4a7f7f76-7d3e-4fda-9ad7-effa4efac208)
    )
  )

  (sheet (at 165.1 79.375) (size 30.48 27.94) (fields_autoplaced)
    (stroke (width 0.0006) (type solid) (color 0 0 0 0))
    (fill (color 0 0 0 0.0000))
    (uuid f8be524c-c0f5-4d5a-99b1-5540af371f80)
    (property "Sheet name" "OneMatrix3" (id 0) (at 165.1 78.7393 0)
      (effects (font (size 1.27 1.27)) (justify left bottom))
    )
    (property "Sheet file" "OneMatrix.kicad_sch" (id 1) (at 165.1 107.8237 0)
      (effects (font (size 1.27 1.27)) (justify left top))
    )
    (pin "DIN" input (at 165.1 93.345 180)
      (effects (font (size 1.27 1.27)) (justify left))
      (uuid 4cc4fbe0-3540-4f6e-a452-a6614d58ae38)
    )
    (pin "DOUT" output (at 195.58 93.345 0)
      (effects (font (size 1.27 1.27)) (justify right))
      (uuid aafbbc4b-67d4-4872-9e2c-a9dd1354e570)
    )
  )

  (sheet_instances
    (path "/" (page "1"))
    (path "/a57c664a-6dcc-4cd4-b22c-9334c92b2ad9" (page "2"))
    (path "/54e17ae4-797c-4174-80c8-011eb37c20c9" (page "3"))
    (path "/08998e8a-1afc-4b2b-9f3f-db81ce7640e2" (page "4"))
    (path "/f8be524c-c0f5-4d5a-99b1-5540af371f80" (page "5"))
  )

  (symbol_instances
    (path "/a57c664a-6dcc-4cd4-b22c-9334c92b2ad9/17dfb65a-fba9-4b7c-9f00-8667dc3687fe"
      (reference "#FLG0101") (unit 1) (value "PWR_FLAG") (footprint "")
    )
    (path "/a57c664a-6dcc-4cd4-b22c-9334c92b2ad9/0ad8505f-9d8a-4e5f-9f11-039c271c1ca0"
      (reference "#FLG0102") (unit 1) (value "PWR_FLAG") (footprint "")
    )
    (path "/54e17ae4-797c-4174-80c8-011eb37c20c9/17dfb65a-fba9-4b7c-9f00-8667dc3687fe"
      (reference "#FLG0103") (unit 1) (value "PWR_FLAG") (footprint "")
    )
    (path "/54e17ae4-797c-4174-80c8-011eb37c20c9/0ad8505f-9d8a-4e5f-9f11-039c271c1ca0"
      (reference "#FLG0104") (unit 1) (value "PWR_FLAG") (footprint "")
    )
    (path "/08998e8a-1afc-4b2b-9f3f-db81ce7640e2/17dfb65a-fba9-4b7c-9f00-8667dc3687fe"
      (reference "#FLG0105") (unit 1) (value "PWR_FLAG") (footprint "")
    )
    (path "/08998e8a-1afc-4b2b-9f3f-db81ce7640e2/0ad8505f-9d8a-4e5f-9f11-039c271c1ca0"
      (reference "#FLG0106") (unit 1) (value "PWR_FLAG") (footprint "")
    )
    (path "/f8be524c-c0f5-4d5a-99b1-5540af371f80/17dfb65a-fba9-4b7c-9f00-8667dc3687fe"
      (reference "#FLG0107") (unit 1) (value "PWR_FLAG") (footprint "")
    )
    (path "/f8be524c-c0f5-4d5a-99b1-5540af371f80/0ad8505f-9d8a-4e5f-9f11-039c271c1ca0"
      (reference "#FLG0108") (unit 1) (value "PWR_FLAG") (footprint "")
    )
    (path "/a57c664a-6dcc-4cd4-b22c-9334c92b2ad9/90ed3cc8-f374-4eaf-9e8e-942022a6b9c9"
      (reference "#PWR0101") (unit 1) (value "+5V") (footprint "")
    )
    (path "/a57c664a-6dcc-4cd4-b22c-9334c92b2ad9/28ec5b04-708b-40b6-957c-fd20cfc07e07"
      (reference "#PWR0102") (unit 1) (value "GND") (footprint "")
    )
    (path "/a57c664a-6dcc-4cd4-b22c-9334c92b2ad9/db8b6609-fb20-402e-beb9-100c70d5abb8"
      (reference "#PWR0103") (unit 1) (value "+5V") (footprint "")
    )
    (path "/a57c664a-6dcc-4cd4-b22c-9334c92b2ad9/326b7625-c059-43f9-bfbd-2a0b3e1c4b27"
      (reference "#PWR0104") (unit 1) (value "+5V") (footprint "")
    )
    (path "/a57c664a-6dcc-4cd4-b22c-9334c92b2ad9/600d9e44-a3b2-4ee2-b1da-2b08a7d7d72b"
      (reference "#PWR0105") (unit 1) (value "+5V") (footprint "")
    )
    (path "/a57c664a-6dcc-4cd4-b22c-9334c92b2ad9/11b0d65d-08c7-4583-bc80-96e841b2b5a2"
      (reference "#PWR0106") (unit 1) (value "GND") (footprint "")
    )
    (path "/a57c664a-6dcc-4cd4-b22c-9334c92b2ad9/86dccdc2-5054-4766-b610-79668aeddd87"
      (reference "#PWR0107") (unit 1) (value "GND") (footprint "")
    )
    (path "/a57c664a-6dcc-4cd4-b22c-9334c92b2ad9/6d8d267b-adc3-4d73-8c33-92b9b76a9a1e"
      (reference "#PWR0108") (unit 1) (value "+5V") (footprint "")
    )
    (path "/a57c664a-6dcc-4cd4-b22c-9334c92b2ad9/218aff79-15e0-4157-9351-c283ecc44227"
      (reference "#PWR0109") (unit 1) (value "GND") (footprint "")
    )
    (path "/54e17ae4-797c-4174-80c8-011eb37c20c9/90ed3cc8-f374-4eaf-9e8e-942022a6b9c9"
      (reference "#PWR0110") (unit 1) (value "+5V") (footprint "")
    )
    (path "/54e17ae4-797c-4174-80c8-011eb37c20c9/28ec5b04-708b-40b6-957c-fd20cfc07e07"
      (reference "#PWR0111") (unit 1) (value "GND") (footprint "")
    )
    (path "/54e17ae4-797c-4174-80c8-011eb37c20c9/db8b6609-fb20-402e-beb9-100c70d5abb8"
      (reference "#PWR0112") (unit 1) (value "+5V") (footprint "")
    )
    (path "/54e17ae4-797c-4174-80c8-011eb37c20c9/326b7625-c059-43f9-bfbd-2a0b3e1c4b27"
      (reference "#PWR0113") (unit 1) (value "+5V") (footprint "")
    )
    (path "/54e17ae4-797c-4174-80c8-011eb37c20c9/600d9e44-a3b2-4ee2-b1da-2b08a7d7d72b"
      (reference "#PWR0114") (unit 1) (value "+5V") (footprint "")
    )
    (path "/54e17ae4-797c-4174-80c8-011eb37c20c9/11b0d65d-08c7-4583-bc80-96e841b2b5a2"
      (reference "#PWR0115") (unit 1) (value "GND") (footprint "")
    )
    (path "/54e17ae4-797c-4174-80c8-011eb37c20c9/86dccdc2-5054-4766-b610-79668aeddd87"
      (reference "#PWR0116") (unit 1) (value "GND") (footprint "")
    )
    (path "/54e17ae4-797c-4174-80c8-011eb37c20c9/6d8d267b-adc3-4d73-8c33-92b9b76a9a1e"
      (reference "#PWR0117") (unit 1) (value "+5V") (footprint "")
    )
    (path "/54e17ae4-797c-4174-80c8-011eb37c20c9/218aff79-15e0-4157-9351-c283ecc44227"
      (reference "#PWR0118") (unit 1) (value "GND") (footprint "")
    )
    (path "/08998e8a-1afc-4b2b-9f3f-db81ce7640e2/90ed3cc8-f374-4eaf-9e8e-942022a6b9c9"
      (reference "#PWR0119") (unit 1) (value "+5V") (footprint "")
    )
    (path "/08998e8a-1afc-4b2b-9f3f-db81ce7640e2/28ec5b04-708b-40b6-957c-fd20cfc07e07"
      (reference "#PWR0120") (unit 1) (value "GND") (footprint "")
    )
    (path "/08998e8a-1afc-4b2b-9f3f-db81ce7640e2/db8b6609-fb20-402e-beb9-100c70d5abb8"
      (reference "#PWR0121") (unit 1) (value "+5V") (footprint "")
    )
    (path "/08998e8a-1afc-4b2b-9f3f-db81ce7640e2/326b7625-c059-43f9-bfbd-2a0b3e1c4b27"
      (reference "#PWR0122") (unit 1) (value "+5V") (footprint "")
    )
    (path "/08998e8a-1afc-4b2b-9f3f-db81ce7640e2/600d9e44-a3b2-4ee2-b1da-2b08a7d7d72b"
      (reference "#PWR0123") (unit 1) (value "+5V") (footprint "")
    )
    (path "/08998e8a-1afc-4b2b-9f3f-db81ce7640e2/11b0d65d-08c7-4583-bc80-96e841b2b5a2"
      (reference "#PWR0124") (unit 1) (value "GND") (footprint "")
    )
    (path "/08998e8a-1afc-4b2b-9f3f-db81ce7640e2/86dccdc2-5054-4766-b610-79668aeddd87"
      (reference "#PWR0125") (unit 1) (value "GND") (footprint "")
    )
    (path "/08998e8a-1afc-4b2b-9f3f-db81ce7640e2/6d8d267b-adc3-4d73-8c33-92b9b76a9a1e"
      (reference "#PWR0126") (unit 1) (value "+5V") (footprint "")
    )
    (path "/08998e8a-1afc-4b2b-9f3f-db81ce7640e2/218aff79-15e0-4157-9351-c283ecc44227"
      (reference "#PWR0127") (unit 1) (value "GND") (footprint "")
    )
    (path "/f8be524c-c0f5-4d5a-99b1-5540af371f80/90ed3cc8-f374-4eaf-9e8e-942022a6b9c9"
      (reference "#PWR0128") (unit 1) (value "+5V") (footprint "")
    )
    (path "/f8be524c-c0f5-4d5a-99b1-5540af371f80/28ec5b04-708b-40b6-957c-fd20cfc07e07"
      (reference "#PWR0129") (unit 1) (value "GND") (footprint "")
    )
    (path "/f8be524c-c0f5-4d5a-99b1-5540af371f80/db8b6609-fb20-402e-beb9-100c70d5abb8"
      (reference "#PWR0130") (unit 1) (value "+5V") (footprint "")
    )
    (path "/f8be524c-c0f5-4d5a-99b1-5540af371f80/326b7625-c059-43f9-bfbd-2a0b3e1c4b27"
      (reference "#PWR0131") (unit 1) (value "+5V") (footprint "")
    )
    (path "/f8be524c-c0f5-4d5a-99b1-5540af371f80/600d9e44-a3b2-4ee2-b1da-2b08a7d7d72b"
      (reference "#PWR0132") (unit 1) (value "+5V") (footprint "")
    )
    (path "/f8be524c-c0f5-4d5a-99b1-5540af371f80/11b0d65d-08c7-4583-bc80-96e841b2b5a2"
      (reference "#PWR0133") (unit 1) (value "GND") (footprint "")
    )
    (path "/f8be524c-c0f5-4d5a-99b1-5540af371f80/86dccdc2-5054-4766-b610-79668aeddd87"
      (reference "#PWR0134") (unit 1) (value "GND") (footprint "")
    )
    (path "/f8be524c-c0f5-4d5a-99b1-5540af371f80/6d8d267b-adc3-4d73-8c33-92b9b76a9a1e"
      (reference "#PWR0135") (unit 1) (value "+5V") (footprint "")
    )
    (path "/f8be524c-c0f5-4d5a-99b1-5540af371f80/218aff79-15e0-4157-9351-c283ecc44227"
      (reference "#PWR0136") (unit 1) (value "GND") (footprint "")
    )
    (path "/a57c664a-6dcc-4cd4-b22c-9334c92b2ad9/1ace0531-7bbf-4d8f-aa25-0108e20b9476"
      (reference "C1") (unit 1) (value "0.1uF") (footprint "Capacitor_SMD:C_0603_1608Metric_Pad1.08x0.95mm_HandSolder")
    )
    (path "/54e17ae4-797c-4174-80c8-011eb37c20c9/1ace0531-7bbf-4d8f-aa25-0108e20b9476"
      (reference "C2") (unit 1) (value "0.1uF") (footprint "Capacitor_SMD:C_0603_1608Metric_Pad1.08x0.95mm_HandSolder")
    )
    (path "/08998e8a-1afc-4b2b-9f3f-db81ce7640e2/1ace0531-7bbf-4d8f-aa25-0108e20b9476"
      (reference "C3") (unit 1) (value "0.1uF") (footprint "Capacitor_SMD:C_0603_1608Metric_Pad1.08x0.95mm_HandSolder")
    )
    (path "/f8be524c-c0f5-4d5a-99b1-5540af371f80/1ace0531-7bbf-4d8f-aa25-0108e20b9476"
      (reference "C4") (unit 1) (value "0.1uF") (footprint "Capacitor_SMD:C_0603_1608Metric_Pad1.08x0.95mm_HandSolder")
    )
    (path "/a57c664a-6dcc-4cd4-b22c-9334c92b2ad9/4aa9a0fa-4c6e-44c9-938c-a88726378e78"
      (reference "D1") (unit 1) (value "DISP_LED_MAT_8x8_COM_CAT") (footprint "LED_MAT:1088AS")
    )
    (path "/54e17ae4-797c-4174-80c8-011eb37c20c9/4aa9a0fa-4c6e-44c9-938c-a88726378e78"
      (reference "D2") (unit 1) (value "DISP_LED_MAT_8x8_COM_CAT") (footprint "LED_MAT:1088AS")
    )
    (path "/08998e8a-1afc-4b2b-9f3f-db81ce7640e2/4aa9a0fa-4c6e-44c9-938c-a88726378e78"
      (reference "D3") (unit 1) (value "DISP_LED_MAT_8x8_COM_CAT") (footprint "LED_MAT:1088AS")
    )
    (path "/f8be524c-c0f5-4d5a-99b1-5540af371f80/4aa9a0fa-4c6e-44c9-938c-a88726378e78"
      (reference "D4") (unit 1) (value "DISP_LED_MAT_8x8_COM_CAT") (footprint "LED_MAT:1088AS")
    )
    (path "/b416f928-7394-403b-99f2-f96e5233d5e7"
      (reference "H1") (unit 1) (value "MountingHole") (footprint "MountingHole:MountingHole_2.2mm_M2")
    )
    (path "/8f9f10e3-9ea5-4607-bc60-60c798557695"
      (reference "H2") (unit 1) (value "MountingHole") (footprint "MountingHole:MountingHole_2.2mm_M2")
    )
    (path "/3c1067b0-8b45-48eb-b876-70a738dcbdb5"
      (reference "H3") (unit 1) (value "MountingHole") (footprint "MountingHole:MountingHole_2.2mm_M2")
    )
    (path "/0e542252-9264-481a-b5a9-179e55679f9d"
      (reference "H4") (unit 1) (value "MountingHole") (footprint "MountingHole:MountingHole_2.2mm_M2")
    )
    (path "/a57c664a-6dcc-4cd4-b22c-9334c92b2ad9/902b29b6-db0d-4b7c-9ce1-aadbc65ed51d"
      (reference "J1") (unit 1) (value "DATA_IN") (footprint "Connector_PinHeader_2.54mm:PinHeader_1x05_P2.54mm_Vertical")
    )
    (path "/a57c664a-6dcc-4cd4-b22c-9334c92b2ad9/a06c83cb-5012-4345-b99f-b72f6593fdd3"
      (reference "J2") (unit 1) (value "DATA_OUT") (footprint "Connector_PinHeader_2.54mm:PinHeader_1x05_P2.54mm_Vertical")
    )
    (path "/54e17ae4-797c-4174-80c8-011eb37c20c9/902b29b6-db0d-4b7c-9ce1-aadbc65ed51d"
      (reference "J3") (unit 1) (value "DATA_IN") (footprint "Connector_PinHeader_2.54mm:PinHeader_1x05_P2.54mm_Vertical")
    )
    (path "/54e17ae4-797c-4174-80c8-011eb37c20c9/a06c83cb-5012-4345-b99f-b72f6593fdd3"
      (reference "J4") (unit 1) (value "DATA_OUT") (footprint "Connector_PinHeader_2.54mm:PinHeader_1x05_P2.54mm_Vertical")
    )
    (path "/08998e8a-1afc-4b2b-9f3f-db81ce7640e2/902b29b6-db0d-4b7c-9ce1-aadbc65ed51d"
      (reference "J5") (unit 1) (value "DATA_IN") (footprint "Connector_PinHeader_2.54mm:PinHeader_1x05_P2.54mm_Vertical")
    )
    (path "/08998e8a-1afc-4b2b-9f3f-db81ce7640e2/a06c83cb-5012-4345-b99f-b72f6593fdd3"
      (reference "J6") (unit 1) (value "DATA_OUT") (footprint "Connector_PinHeader_2.54mm:PinHeader_1x05_P2.54mm_Vertical")
    )
    (path "/f8be524c-c0f5-4d5a-99b1-5540af371f80/902b29b6-db0d-4b7c-9ce1-aadbc65ed51d"
      (reference "J7") (unit 1) (value "DATA_IN") (footprint "Connector_PinHeader_2.54mm:PinHeader_1x05_P2.54mm_Vertical")
    )
    (path "/f8be524c-c0f5-4d5a-99b1-5540af371f80/a06c83cb-5012-4345-b99f-b72f6593fdd3"
      (reference "J8") (unit 1) (value "DATA_OUT") (footprint "Connector_PinHeader_2.54mm:PinHeader_1x05_P2.54mm_Vertical")
    )
    (path "/a57c664a-6dcc-4cd4-b22c-9334c92b2ad9/2600d6aa-fa11-4059-9ec0-4285b03a2439"
      (reference "R1") (unit 1) (value "9.53k") (footprint "LED_SMD:LED_0603_1608Metric_Pad1.05x0.95mm_HandSolder")
    )
    (path "/54e17ae4-797c-4174-80c8-011eb37c20c9/2600d6aa-fa11-4059-9ec0-4285b03a2439"
      (reference "R2") (unit 1) (value "9.53k") (footprint "LED_SMD:LED_0603_1608Metric_Pad1.05x0.95mm_HandSolder")
    )
    (path "/08998e8a-1afc-4b2b-9f3f-db81ce7640e2/2600d6aa-fa11-4059-9ec0-4285b03a2439"
      (reference "R3") (unit 1) (value "9.53k") (footprint "LED_SMD:LED_0603_1608Metric_Pad1.05x0.95mm_HandSolder")
    )
    (path "/f8be524c-c0f5-4d5a-99b1-5540af371f80/2600d6aa-fa11-4059-9ec0-4285b03a2439"
      (reference "R4") (unit 1) (value "9.53k") (footprint "LED_SMD:LED_0603_1608Metric_Pad1.05x0.95mm_HandSolder")
    )
    (path "/a57c664a-6dcc-4cd4-b22c-9334c92b2ad9/32209599-9f86-429c-94d1-b6d35f9d65b3"
      (reference "U1") (unit 1) (value "MAX7219") (footprint "Package_SO:SOP-24_7.5x15.4mm_P1.27mm")
    )
    (path "/54e17ae4-797c-4174-80c8-011eb37c20c9/32209599-9f86-429c-94d1-b6d35f9d65b3"
      (reference "U2") (unit 1) (value "MAX7219") (footprint "Package_SO:SOP-24_7.5x15.4mm_P1.27mm")
    )
    (path "/08998e8a-1afc-4b2b-9f3f-db81ce7640e2/32209599-9f86-429c-94d1-b6d35f9d65b3"
      (reference "U3") (unit 1) (value "MAX7219") (footprint "Package_SO:SOP-24_7.5x15.4mm_P1.27mm")
    )
    (path "/f8be524c-c0f5-4d5a-99b1-5540af371f80/32209599-9f86-429c-94d1-b6d35f9d65b3"
      (reference "U4") (unit 1) (value "MAX7219") (footprint "Package_SO:SOP-24_7.5x15.4mm_P1.27mm")
    )
  )
)
