(kicad_sch (version 20211123) (generator eeschema)

  (uuid ff6c30c0-ac10-4e31-8fa4-b6641c440903)

  (paper "A4")

  (title_block
    (title "8x8 LED matrix")
    (date "2021-04-24")
    (rev "1.1")
    (company "@hasecilu")
    (comment 1 "Common cathode")
    (comment 2 "Minimal circuit")
    (comment 3 "Input port + Output port")
    (comment 4 "This version has the same connections as 8*32 matrix modules, take a look on C0")
  )

  (lib_symbols
    (symbol "Connector_Generic:Conn_01x05" (pin_names (offset 1.016) hide) (in_bom yes) (on_board yes)
      (property "Reference" "J" (id 0) (at 0 7.62 0)
        (effects (font (size 1.27 1.27)))
      )
      (property "Value" "Conn_01x05" (id 1) (at 0 -7.62 0)
        (effects (font (size 1.27 1.27)))
      )
      (property "Footprint" "" (id 2) (at 0 0 0)
        (effects (font (size 1.27 1.27)) hide)
      )
      (property "Datasheet" "~" (id 3) (at 0 0 0)
        (effects (font (size 1.27 1.27)) hide)
      )
      (property "ki_keywords" "connector" (id 4) (at 0 0 0)
        (effects (font (size 1.27 1.27)) hide)
      )
      (property "ki_description" "Generic connector, single row, 01x05, script generated (kicad-library-utils/schlib/autogen/connector/)" (id 5) (at 0 0 0)
        (effects (font (size 1.27 1.27)) hide)
      )
      (property "ki_fp_filters" "Connector*:*_1x??_*" (id 6) (at 0 0 0)
        (effects (font (size 1.27 1.27)) hide)
      )
      (symbol "Conn_01x05_1_1"
        (rectangle (start -1.27 -4.953) (end 0 -5.207)
          (stroke (width 0.1524) (type default) (color 0 0 0 0))
          (fill (type none))
        )
        (rectangle (start -1.27 -2.413) (end 0 -2.667)
          (stroke (width 0.1524) (type default) (color 0 0 0 0))
          (fill (type none))
        )
        (rectangle (start -1.27 0.127) (end 0 -0.127)
          (stroke (width 0.1524) (type default) (color 0 0 0 0))
          (fill (type none))
        )
        (rectangle (start -1.27 2.667) (end 0 2.413)
          (stroke (width 0.1524) (type default) (color 0 0 0 0))
          (fill (type none))
        )
        (rectangle (start -1.27 5.207) (end 0 4.953)
          (stroke (width 0.1524) (type default) (color 0 0 0 0))
          (fill (type none))
        )
        (rectangle (start -1.27 6.35) (end 1.27 -6.35)
          (stroke (width 0.254) (type default) (color 0 0 0 0))
          (fill (type background))
        )
        (pin passive line (at -5.08 5.08 0) (length 3.81)
          (name "Pin_1" (effects (font (size 1.27 1.27))))
          (number "1" (effects (font (size 1.27 1.27))))
        )
        (pin passive line (at -5.08 2.54 0) (length 3.81)
          (name "Pin_2" (effects (font (size 1.27 1.27))))
          (number "2" (effects (font (size 1.27 1.27))))
        )
        (pin passive line (at -5.08 0 0) (length 3.81)
          (name "Pin_3" (effects (font (size 1.27 1.27))))
          (number "3" (effects (font (size 1.27 1.27))))
        )
        (pin passive line (at -5.08 -2.54 0) (length 3.81)
          (name "Pin_4" (effects (font (size 1.27 1.27))))
          (number "4" (effects (font (size 1.27 1.27))))
        )
        (pin passive line (at -5.08 -5.08 0) (length 3.81)
          (name "Pin_5" (effects (font (size 1.27 1.27))))
          (number "5" (effects (font (size 1.27 1.27))))
        )
      )
    )
    (symbol "Device:C" (pin_numbers hide) (pin_names (offset 0.254)) (in_bom yes) (on_board yes)
      (property "Reference" "C" (id 0) (at 0.635 2.54 0)
        (effects (font (size 1.27 1.27)) (justify left))
      )
      (property "Value" "C" (id 1) (at 0.635 -2.54 0)
        (effects (font (size 1.27 1.27)) (justify left))
      )
      (property "Footprint" "" (id 2) (at 0.9652 -3.81 0)
        (effects (font (size 1.27 1.27)) hide)
      )
      (property "Datasheet" "~" (id 3) (at 0 0 0)
        (effects (font (size 1.27 1.27)) hide)
      )
      (property "ki_keywords" "cap capacitor" (id 4) (at 0 0 0)
        (effects (font (size 1.27 1.27)) hide)
      )
      (property "ki_description" "Unpolarized capacitor" (id 5) (at 0 0 0)
        (effects (font (size 1.27 1.27)) hide)
      )
      (property "ki_fp_filters" "C_*" (id 6) (at 0 0 0)
        (effects (font (size 1.27 1.27)) hide)
      )
      (symbol "C_0_1"
        (polyline
          (pts
            (xy -2.032 -0.762)
            (xy 2.032 -0.762)
          )
          (stroke (width 0.508) (type default) (color 0 0 0 0))
          (fill (type none))
        )
        (polyline
          (pts
            (xy -2.032 0.762)
            (xy 2.032 0.762)
          )
          (stroke (width 0.508) (type default) (color 0 0 0 0))
          (fill (type none))
        )
      )
      (symbol "C_1_1"
        (pin passive line (at 0 3.81 270) (length 2.794)
          (name "~" (effects (font (size 1.27 1.27))))
          (number "1" (effects (font (size 1.27 1.27))))
        )
        (pin passive line (at 0 -3.81 90) (length 2.794)
          (name "~" (effects (font (size 1.27 1.27))))
          (number "2" (effects (font (size 1.27 1.27))))
        )
      )
    )
    (symbol "Device:R" (pin_numbers hide) (pin_names (offset 0)) (in_bom yes) (on_board yes)
      (property "Reference" "R" (id 0) (at 2.032 0 90)
        (effects (font (size 1.27 1.27)))
      )
      (property "Value" "R" (id 1) (at 0 0 90)
        (effects (font (size 1.27 1.27)))
      )
      (property "Footprint" "" (id 2) (at -1.778 0 90)
        (effects (font (size 1.27 1.27)) hide)
      )
      (property "Datasheet" "~" (id 3) (at 0 0 0)
        (effects (font (size 1.27 1.27)) hide)
      )
      (property "ki_keywords" "R res resistor" (id 4) (at 0 0 0)
        (effects (font (size 1.27 1.27)) hide)
      )
      (property "ki_description" "Resistor" (id 5) (at 0 0 0)
        (effects (font (size 1.27 1.27)) hide)
      )
      (property "ki_fp_filters" "R_*" (id 6) (at 0 0 0)
        (effects (font (size 1.27 1.27)) hide)
      )
      (symbol "R_0_1"
        (rectangle (start -1.016 -2.54) (end 1.016 2.54)
          (stroke (width 0.254) (type default) (color 0 0 0 0))
          (fill (type none))
        )
      )
      (symbol "R_1_1"
        (pin passive line (at 0 3.81 270) (length 1.27)
          (name "~" (effects (font (size 1.27 1.27))))
          (number "1" (effects (font (size 1.27 1.27))))
        )
        (pin passive line (at 0 -3.81 90) (length 1.27)
          (name "~" (effects (font (size 1.27 1.27))))
          (number "2" (effects (font (size 1.27 1.27))))
        )
      )
    )
    (symbol "Driver_LED:MAX7219" (in_bom yes) (on_board yes)
      (property "Reference" "U" (id 0) (at -6.35 24.13 0)
        (effects (font (size 1.27 1.27)) (justify left bottom))
      )
      (property "Value" "MAX7219" (id 1) (at 1.27 25.4 0)
        (effects (font (size 1.27 1.27)) (justify left top))
      )
      (property "Footprint" "" (id 2) (at -1.27 1.27 0)
        (effects (font (size 1.27 1.27)) hide)
      )
      (property "Datasheet" "https://datasheets.maximintegrated.com/en/ds/MAX7219-MAX7221.pdf" (id 3) (at 1.27 -3.81 0)
        (effects (font (size 1.27 1.27)) hide)
      )
      (property "ki_keywords" "LED 8-Digit Display Driver" (id 4) (at 0 0 0)
        (effects (font (size 1.27 1.27)) hide)
      )
      (property "ki_description" "8-Digit LED Display Driver" (id 5) (at 0 0 0)
        (effects (font (size 1.27 1.27)) hide)
      )
      (property "ki_fp_filters" "SOIC*7.5x15.4mm*P1.27mm* DIP*7.62mm*" (id 6) (at 0 0 0)
        (effects (font (size 1.27 1.27)) hide)
      )
      (symbol "MAX7219_0_1"
        (rectangle (start -7.62 22.86) (end 7.62 -22.86)
          (stroke (width 0.254) (type default) (color 0 0 0 0))
          (fill (type background))
        )
      )
      (symbol "MAX7219_1_1"
        (pin input line (at -10.16 -20.32 0) (length 2.54)
          (name "DIN" (effects (font (size 1.27 1.27))))
          (number "1" (effects (font (size 1.27 1.27))))
        )
        (pin output line (at 10.16 -12.7 180) (length 2.54)
          (name "DIG_5" (effects (font (size 1.27 1.27))))
          (number "10" (effects (font (size 1.27 1.27))))
        )
        (pin output line (at 10.16 -2.54 180) (length 2.54)
          (name "DIG_1" (effects (font (size 1.27 1.27))))
          (number "11" (effects (font (size 1.27 1.27))))
        )
        (pin input line (at -10.16 -15.24 0) (length 2.54)
          (name "LOAD" (effects (font (size 1.27 1.27))))
          (number "12" (effects (font (size 1.27 1.27))))
        )
        (pin input line (at -10.16 -17.78 0) (length 2.54)
          (name "CLK" (effects (font (size 1.27 1.27))))
          (number "13" (effects (font (size 1.27 1.27))))
        )
        (pin output line (at 10.16 20.32 180) (length 2.54)
          (name "SEG_A" (effects (font (size 1.27 1.27))))
          (number "14" (effects (font (size 1.27 1.27))))
        )
        (pin output line (at 10.16 7.62 180) (length 2.54)
          (name "SEG_F" (effects (font (size 1.27 1.27))))
          (number "15" (effects (font (size 1.27 1.27))))
        )
        (pin output line (at 10.16 17.78 180) (length 2.54)
          (name "SEG_B" (effects (font (size 1.27 1.27))))
          (number "16" (effects (font (size 1.27 1.27))))
        )
        (pin output line (at 10.16 5.08 180) (length 2.54)
          (name "SEG_G" (effects (font (size 1.27 1.27))))
          (number "17" (effects (font (size 1.27 1.27))))
        )
        (pin input line (at -10.16 20.32 0) (length 2.54)
          (name "ISET" (effects (font (size 1.27 1.27))))
          (number "18" (effects (font (size 1.27 1.27))))
        )
        (pin power_in line (at 0 25.4 270) (length 2.54)
          (name "V+" (effects (font (size 1.27 1.27))))
          (number "19" (effects (font (size 1.27 1.27))))
        )
        (pin output line (at 10.16 0 180) (length 2.54)
          (name "DIG_0" (effects (font (size 1.27 1.27))))
          (number "2" (effects (font (size 1.27 1.27))))
        )
        (pin output line (at 10.16 15.24 180) (length 2.54)
          (name "SEG_C" (effects (font (size 1.27 1.27))))
          (number "20" (effects (font (size 1.27 1.27))))
        )
        (pin output line (at 10.16 10.16 180) (length 2.54)
          (name "SEG_E" (effects (font (size 1.27 1.27))))
          (number "21" (effects (font (size 1.27 1.27))))
        )
        (pin output line (at 10.16 2.54 180) (length 2.54)
          (name "SEG_DP" (effects (font (size 1.27 1.27))))
          (number "22" (effects (font (size 1.27 1.27))))
        )
        (pin output line (at 10.16 12.7 180) (length 2.54)
          (name "SEG_D" (effects (font (size 1.27 1.27))))
          (number "23" (effects (font (size 1.27 1.27))))
        )
        (pin output line (at 10.16 -20.32 180) (length 2.54)
          (name "DOUT" (effects (font (size 1.27 1.27))))
          (number "24" (effects (font (size 1.27 1.27))))
        )
        (pin output line (at 10.16 -10.16 180) (length 2.54)
          (name "DIG_4" (effects (font (size 1.27 1.27))))
          (number "3" (effects (font (size 1.27 1.27))))
        )
        (pin power_in line (at 0 -25.4 90) (length 2.54)
          (name "GND" (effects (font (size 1.27 1.27))))
          (number "4" (effects (font (size 1.27 1.27))))
        )
        (pin output line (at 10.16 -15.24 180) (length 2.54)
          (name "DIG_6" (effects (font (size 1.27 1.27))))
          (number "5" (effects (font (size 1.27 1.27))))
        )
        (pin output line (at 10.16 -5.08 180) (length 2.54)
          (name "DIG_2" (effects (font (size 1.27 1.27))))
          (number "6" (effects (font (size 1.27 1.27))))
        )
        (pin output line (at 10.16 -7.62 180) (length 2.54)
          (name "DIG_3" (effects (font (size 1.27 1.27))))
          (number "7" (effects (font (size 1.27 1.27))))
        )
        (pin output line (at 10.16 -17.78 180) (length 2.54)
          (name "DIG_7" (effects (font (size 1.27 1.27))))
          (number "8" (effects (font (size 1.27 1.27))))
        )
        (pin passive line (at 0 -25.4 90) (length 2.54) hide
          (name "GND" (effects (font (size 1.27 1.27))))
          (number "9" (effects (font (size 1.27 1.27))))
        )
      )
    )
    (symbol "akn_misc:DISP_LED_MAT_8x8_COM_CAT" (pin_names (offset 1.016)) (in_bom yes) (on_board yes)
      (property "Reference" "D" (id 0) (at 5.08 -1.27 0)
        (effects (font (size 1.524 1.524)))
      )
      (property "Value" "DISP_LED_MAT_8x8_COM_CAT" (id 1) (at 16.51 24.13 0)
        (effects (font (size 1.524 1.524)))
      )
      (property "Footprint" "" (id 2) (at 2.54 -1.27 0)
        (effects (font (size 1.524 1.524)))
      )
      (property "Datasheet" "" (id 3) (at 2.54 -1.27 0)
        (effects (font (size 1.524 1.524)))
      )
      (property "ki_keywords" "8x8 LED Display" (id 4) (at 0 0 0)
        (effects (font (size 1.27 1.27)) hide)
      )
      (property "ki_description" "8x8 LED Dot Matrix Common Cathode display" (id 5) (at 0 0 0)
        (effects (font (size 1.27 1.27)) hide)
      )
      (symbol "DISP_LED_MAT_8x8_COM_CAT_0_1"
        (polyline
          (pts
            (xy 21.59 11.43)
            (xy 12.7 11.43)
          )
          (stroke (width 0) (type default) (color 0 0 0 0))
          (fill (type none))
        )
        (polyline
          (pts
            (xy 16.51 11.43)
            (xy 18.415 12.7)
            (xy 18.415 10.16)
            (xy 16.51 11.43)
          )
          (stroke (width 0) (type default) (color 0 0 0 0))
          (fill (type outline))
        )
        (polyline
          (pts
            (xy 15.875 12.7)
            (xy 15.875 10.16)
            (xy 16.51 10.16)
            (xy 16.51 12.7)
            (xy 15.875 12.7)
          )
          (stroke (width 0) (type default) (color 0 0 0 0))
          (fill (type outline))
        )
        (rectangle (start 3.81 0) (end 30.48 22.86)
          (stroke (width 0) (type default) (color 0 0 0 0))
          (fill (type background))
        )
        (circle (center 8.255 2.54) (radius 0.635)
          (stroke (width 0) (type default) (color 0 0 0 0))
          (fill (type none))
        )
        (circle (center 8.255 5.08) (radius 0.635)
          (stroke (width 0) (type default) (color 0 0 0 0))
          (fill (type none))
        )
        (circle (center 8.255 7.62) (radius 0.635)
          (stroke (width 0) (type default) (color 0 0 0 0))
          (fill (type none))
        )
        (circle (center 8.255 10.16) (radius 0.635)
          (stroke (width 0) (type default) (color 0 0 0 0))
          (fill (type none))
        )
        (circle (center 8.255 12.7) (radius 0.635)
          (stroke (width 0) (type default) (color 0 0 0 0))
          (fill (type none))
        )
        (circle (center 8.255 15.24) (radius 0.635)
          (stroke (width 0) (type default) (color 0 0 0 0))
          (fill (type none))
        )
        (circle (center 8.255 17.78) (radius 0.635)
          (stroke (width 0) (type default) (color 0 0 0 0))
          (fill (type none))
        )
        (circle (center 8.255 20.32) (radius 0.635)
          (stroke (width 0) (type default) (color 0 0 0 0))
          (fill (type none))
        )
        (circle (center 10.795 2.54) (radius 0.635)
          (stroke (width 0) (type default) (color 0 0 0 0))
          (fill (type none))
        )
        (circle (center 10.795 5.08) (radius 0.635)
          (stroke (width 0) (type default) (color 0 0 0 0))
          (fill (type none))
        )
        (circle (center 10.795 7.62) (radius 0.635)
          (stroke (width 0) (type default) (color 0 0 0 0))
          (fill (type none))
        )
        (circle (center 10.795 10.16) (radius 0.635)
          (stroke (width 0) (type default) (color 0 0 0 0))
          (fill (type none))
        )
        (circle (center 10.795 12.7) (radius 0.635)
          (stroke (width 0) (type default) (color 0 0 0 0))
          (fill (type none))
        )
        (circle (center 10.795 15.24) (radius 0.635)
          (stroke (width 0) (type default) (color 0 0 0 0))
          (fill (type none))
        )
        (circle (center 10.795 17.78) (radius 0.635)
          (stroke (width 0) (type default) (color 0 0 0 0))
          (fill (type none))
        )
        (circle (center 10.795 20.32) (radius 0.635)
          (stroke (width 0) (type default) (color 0 0 0 0))
          (fill (type none))
        )
        (circle (center 13.335 2.54) (radius 0.635)
          (stroke (width 0) (type default) (color 0 0 0 0))
          (fill (type none))
        )
        (circle (center 13.335 5.08) (radius 0.635)
          (stroke (width 0) (type default) (color 0 0 0 0))
          (fill (type none))
        )
        (circle (center 13.335 7.62) (radius 0.635)
          (stroke (width 0) (type default) (color 0 0 0 0))
          (fill (type none))
        )
        (circle (center 13.335 15.24) (radius 0.635)
          (stroke (width 0) (type default) (color 0 0 0 0))
          (fill (type none))
        )
        (circle (center 13.335 17.78) (radius 0.635)
          (stroke (width 0) (type default) (color 0 0 0 0))
          (fill (type none))
        )
        (circle (center 13.335 20.32) (radius 0.635)
          (stroke (width 0) (type default) (color 0 0 0 0))
          (fill (type none))
        )
        (circle (center 15.875 2.54) (radius 0.635)
          (stroke (width 0) (type default) (color 0 0 0 0))
          (fill (type none))
        )
        (circle (center 15.875 5.08) (radius 0.635)
          (stroke (width 0) (type default) (color 0 0 0 0))
          (fill (type none))
        )
        (circle (center 15.875 7.62) (radius 0.635)
          (stroke (width 0) (type default) (color 0 0 0 0))
          (fill (type none))
        )
        (circle (center 15.875 15.24) (radius 0.635)
          (stroke (width 0) (type default) (color 0 0 0 0))
          (fill (type none))
        )
        (circle (center 15.875 17.78) (radius 0.635)
          (stroke (width 0) (type default) (color 0 0 0 0))
          (fill (type none))
        )
        (circle (center 15.875 20.32) (radius 0.635)
          (stroke (width 0) (type default) (color 0 0 0 0))
          (fill (type none))
        )
        (circle (center 18.415 2.54) (radius 0.635)
          (stroke (width 0) (type default) (color 0 0 0 0))
          (fill (type none))
        )
        (circle (center 18.415 5.08) (radius 0.635)
          (stroke (width 0) (type default) (color 0 0 0 0))
          (fill (type none))
        )
        (circle (center 18.415 7.62) (radius 0.635)
          (stroke (width 0) (type default) (color 0 0 0 0))
          (fill (type none))
        )
        (circle (center 18.415 15.24) (radius 0.635)
          (stroke (width 0) (type default) (color 0 0 0 0))
          (fill (type none))
        )
        (circle (center 18.415 17.78) (radius 0.635)
          (stroke (width 0) (type default) (color 0 0 0 0))
          (fill (type none))
        )
        (circle (center 18.415 20.32) (radius 0.635)
          (stroke (width 0) (type default) (color 0 0 0 0))
          (fill (type none))
        )
        (circle (center 20.955 2.54) (radius 0.635)
          (stroke (width 0) (type default) (color 0 0 0 0))
          (fill (type none))
        )
        (circle (center 20.955 5.08) (radius 0.635)
          (stroke (width 0) (type default) (color 0 0 0 0))
          (fill (type none))
        )
        (circle (center 20.955 7.62) (radius 0.635)
          (stroke (width 0) (type default) (color 0 0 0 0))
          (fill (type none))
        )
        (circle (center 20.955 15.24) (radius 0.635)
          (stroke (width 0) (type default) (color 0 0 0 0))
          (fill (type none))
        )
        (circle (center 20.955 17.78) (radius 0.635)
          (stroke (width 0) (type default) (color 0 0 0 0))
          (fill (type none))
        )
        (circle (center 20.955 20.32) (radius 0.635)
          (stroke (width 0) (type default) (color 0 0 0 0))
          (fill (type none))
        )
        (circle (center 23.495 2.54) (radius 0.635)
          (stroke (width 0) (type default) (color 0 0 0 0))
          (fill (type none))
        )
        (circle (center 23.495 5.08) (radius 0.635)
          (stroke (width 0) (type default) (color 0 0 0 0))
          (fill (type none))
        )
        (circle (center 23.495 7.62) (radius 0.635)
          (stroke (width 0) (type default) (color 0 0 0 0))
          (fill (type none))
        )
        (circle (center 23.495 10.16) (radius 0.635)
          (stroke (width 0) (type default) (color 0 0 0 0))
          (fill (type none))
        )
        (circle (center 23.495 12.7) (radius 0.635)
          (stroke (width 0) (type default) (color 0 0 0 0))
          (fill (type none))
        )
        (circle (center 23.495 15.24) (radius 0.635)
          (stroke (width 0) (type default) (color 0 0 0 0))
          (fill (type none))
        )
        (circle (center 23.495 17.78) (radius 0.635)
          (stroke (width 0) (type default) (color 0 0 0 0))
          (fill (type none))
        )
        (circle (center 23.495 20.32) (radius 0.635)
          (stroke (width 0) (type default) (color 0 0 0 0))
          (fill (type none))
        )
        (circle (center 26.035 2.54) (radius 0.635)
          (stroke (width 0) (type default) (color 0 0 0 0))
          (fill (type none))
        )
        (circle (center 26.035 5.08) (radius 0.635)
          (stroke (width 0) (type default) (color 0 0 0 0))
          (fill (type none))
        )
        (circle (center 26.035 7.62) (radius 0.635)
          (stroke (width 0) (type default) (color 0 0 0 0))
          (fill (type none))
        )
        (circle (center 26.035 10.16) (radius 0.635)
          (stroke (width 0) (type default) (color 0 0 0 0))
          (fill (type none))
        )
        (circle (center 26.035 12.7) (radius 0.635)
          (stroke (width 0) (type default) (color 0 0 0 0))
          (fill (type none))
        )
        (circle (center 26.035 15.24) (radius 0.635)
          (stroke (width 0) (type default) (color 0 0 0 0))
          (fill (type none))
        )
        (circle (center 26.035 17.78) (radius 0.635)
          (stroke (width 0) (type default) (color 0 0 0 0))
          (fill (type none))
        )
        (circle (center 26.035 20.32) (radius 0.635)
          (stroke (width 0) (type default) (color 0 0 0 0))
          (fill (type none))
        )
        (pin output line (at 0 20.32 0) (length 3.81)
          (name "R1" (effects (font (size 0.8636 0.8636))))
          (number "9" (effects (font (size 0.8636 0.8636))))
        )
      )
      (symbol "DISP_LED_MAT_8x8_COM_CAT_1_1"
        (pin output line (at 0 10.16 0) (length 3.81)
          (name "R5" (effects (font (size 0.8636 0.8636))))
          (number "1" (effects (font (size 0.8636 0.8636))))
        )
        (pin input line (at 34.29 12.7 180) (length 3.81)
          (name "C4" (effects (font (size 0.8636 0.8636))))
          (number "10" (effects (font (size 0.8636 0.8636))))
        )
        (pin input line (at 34.29 7.62 180) (length 3.81)
          (name "C6" (effects (font (size 0.8636 0.8636))))
          (number "11" (effects (font (size 0.8636 0.8636))))
        )
        (pin output line (at 0 12.7 0) (length 3.81)
          (name "R4" (effects (font (size 0.8636 0.8636))))
          (number "12" (effects (font (size 0.8636 0.8636))))
        )
        (pin input line (at 34.29 20.32 180) (length 3.81)
          (name "C1" (effects (font (size 0.8636 0.8636))))
          (number "13" (effects (font (size 0.8636 0.8636))))
        )
        (pin output line (at 0 17.78 0) (length 3.81)
          (name "R2" (effects (font (size 0.8636 0.8636))))
          (number "14" (effects (font (size 0.8636 0.8636))))
        )
        (pin input line (at 34.29 5.08 180) (length 3.81)
          (name "C7" (effects (font (size 0.8636 0.8636))))
          (number "15" (effects (font (size 0.8636 0.8636))))
        )
        (pin input line (at 34.29 2.54 180) (length 3.81)
          (name "C8" (effects (font (size 0.8636 0.8636))))
          (number "16" (effects (font (size 0.8636 0.8636))))
        )
        (pin output line (at 0 5.08 0) (length 3.81)
          (name "R7" (effects (font (size 0.8636 0.8636))))
          (number "2" (effects (font (size 0.8636 0.8636))))
        )
        (pin input line (at 34.29 17.78 180) (length 3.81)
          (name "C2" (effects (font (size 0.8636 0.8636))))
          (number "3" (effects (font (size 0.8636 0.8636))))
        )
        (pin input line (at 34.29 15.24 180) (length 3.81)
          (name "C3" (effects (font (size 0.8636 0.8636))))
          (number "4" (effects (font (size 0.8636 0.8636))))
        )
        (pin output line (at 0 2.54 0) (length 3.81)
          (name "R8" (effects (font (size 0.8636 0.8636))))
          (number "5" (effects (font (size 0.8636 0.8636))))
        )
        (pin input line (at 34.29 10.16 180) (length 3.81)
          (name "C5" (effects (font (size 0.8636 0.8636))))
          (number "6" (effects (font (size 0.8636 0.8636))))
        )
        (pin output line (at 0 7.62 0) (length 3.81)
          (name "R6" (effects (font (size 0.8636 0.8636))))
          (number "7" (effects (font (size 0.8636 0.8636))))
        )
        (pin output line (at 0 15.24 0) (length 3.81)
          (name "R3" (effects (font (size 0.8636 0.8636))))
          (number "8" (effects (font (size 0.8636 0.8636))))
        )
      )
    )
    (symbol "power:+5V" (power) (pin_names (offset 0)) (in_bom yes) (on_board yes)
      (property "Reference" "#PWR" (id 0) (at 0 -3.81 0)
        (effects (font (size 1.27 1.27)) hide)
      )
      (property "Value" "+5V" (id 1) (at 0 3.556 0)
        (effects (font (size 1.27 1.27)))
      )
      (property "Footprint" "" (id 2) (at 0 0 0)
        (effects (font (size 1.27 1.27)) hide)
      )
      (property "Datasheet" "" (id 3) (at 0 0 0)
        (effects (font (size 1.27 1.27)) hide)
      )
      (property "ki_keywords" "power-flag" (id 4) (at 0 0 0)
        (effects (font (size 1.27 1.27)) hide)
      )
      (property "ki_description" "Power symbol creates a global label with name \"+5V\"" (id 5) (at 0 0 0)
        (effects (font (size 1.27 1.27)) hide)
      )
      (symbol "+5V_0_1"
        (polyline
          (pts
            (xy -0.762 1.27)
            (xy 0 2.54)
          )
          (stroke (width 0) (type default) (color 0 0 0 0))
          (fill (type none))
        )
        (polyline
          (pts
            (xy 0 0)
            (xy 0 2.54)
          )
          (stroke (width 0) (type default) (color 0 0 0 0))
          (fill (type none))
        )
        (polyline
          (pts
            (xy 0 2.54)
            (xy 0.762 1.27)
          )
          (stroke (width 0) (type default) (color 0 0 0 0))
          (fill (type none))
        )
      )
      (symbol "+5V_1_1"
        (pin power_in line (at 0 0 90) (length 0) hide
          (name "+5V" (effects (font (size 1.27 1.27))))
          (number "1" (effects (font (size 1.27 1.27))))
        )
      )
    )
    (symbol "power:GND" (power) (pin_names (offset 0)) (in_bom yes) (on_board yes)
      (property "Reference" "#PWR" (id 0) (at 0 -6.35 0)
        (effects (font (size 1.27 1.27)) hide)
      )
      (property "Value" "GND" (id 1) (at 0 -3.81 0)
        (effects (font (size 1.27 1.27)))
      )
      (property "Footprint" "" (id 2) (at 0 0 0)
        (effects (font (size 1.27 1.27)) hide)
      )
      (property "Datasheet" "" (id 3) (at 0 0 0)
        (effects (font (size 1.27 1.27)) hide)
      )
      (property "ki_keywords" "power-flag" (id 4) (at 0 0 0)
        (effects (font (size 1.27 1.27)) hide)
      )
      (property "ki_description" "Power symbol creates a global label with name \"GND\" , ground" (id 5) (at 0 0 0)
        (effects (font (size 1.27 1.27)) hide)
      )
      (symbol "GND_0_1"
        (polyline
          (pts
            (xy 0 0)
            (xy 0 -1.27)
            (xy 1.27 -1.27)
            (xy 0 -2.54)
            (xy -1.27 -1.27)
            (xy 0 -1.27)
          )
          (stroke (width 0) (type default) (color 0 0 0 0))
          (fill (type none))
        )
      )
      (symbol "GND_1_1"
        (pin power_in line (at 0 0 270) (length 0) hide
          (name "GND" (effects (font (size 1.27 1.27))))
          (number "1" (effects (font (size 1.27 1.27))))
        )
      )
    )
    (symbol "power:PWR_FLAG" (power) (pin_numbers hide) (pin_names (offset 0) hide) (in_bom yes) (on_board yes)
      (property "Reference" "#FLG" (id 0) (at 0 1.905 0)
        (effects (font (size 1.27 1.27)) hide)
      )
      (property "Value" "PWR_FLAG" (id 1) (at 0 3.81 0)
        (effects (font (size 1.27 1.27)))
      )
      (property "Footprint" "" (id 2) (at 0 0 0)
        (effects (font (size 1.27 1.27)) hide)
      )
      (property "Datasheet" "~" (id 3) (at 0 0 0)
        (effects (font (size 1.27 1.27)) hide)
      )
      (property "ki_keywords" "power-flag" (id 4) (at 0 0 0)
        (effects (font (size 1.27 1.27)) hide)
      )
      (property "ki_description" "Special symbol for telling ERC where power comes from" (id 5) (at 0 0 0)
        (effects (font (size 1.27 1.27)) hide)
      )
      (symbol "PWR_FLAG_0_0"
        (pin power_out line (at 0 0 90) (length 0)
          (name "pwr" (effects (font (size 1.27 1.27))))
          (number "1" (effects (font (size 1.27 1.27))))
        )
      )
      (symbol "PWR_FLAG_0_1"
        (polyline
          (pts
            (xy 0 0)
            (xy 0 1.27)
            (xy -1.016 1.905)
            (xy 0 2.54)
            (xy 1.016 1.905)
            (xy 0 1.27)
          )
          (stroke (width 0) (type default) (color 0 0 0 0))
          (fill (type none))
        )
      )
    )
  )

  (junction (at 149.86 68.58) (diameter 0.9144) (color 0 0 0 0)
    (uuid 6d26d68f-1ca7-4ff3-b058-272f1c399047)
  )
  (junction (at 66.675 105.41) (diameter 0.9144) (color 0 0 0 0)
    (uuid 911bdcbe-493f-4e21-a506-7cbc636e2c17)
  )
  (junction (at 64.135 87.63) (diameter 0.9144) (color 0 0 0 0)
    (uuid 9f8381e9-3077-4453-a480-a01ad9c1a940)
  )

  (bus_entry (at 136.525 96.52) (size 2.54 -2.54)
    (stroke (width 0.1524) (type solid) (color 0 0 0 0))
    (uuid 04ff1f4f-a30d-4bc6-879e-e92b2a6cf3ee)
  )
  (bus_entry (at 136.525 93.98) (size 2.54 -2.54)
    (stroke (width 0.1524) (type solid) (color 0 0 0 0))
    (uuid 06d15f2b-9875-4300-a5d9-fd9feaec8ed7)
  )
  (bus_entry (at 196.85 93.98) (size 2.54 -2.54)
    (stroke (width 0.1524) (type solid) (color 0 0 0 0))
    (uuid 28e5bc2a-8441-441a-ae54-3ba077561e5d)
  )
  (bus_entry (at 136.525 106.68) (size 2.54 -2.54)
    (stroke (width 0.1524) (type solid) (color 0 0 0 0))
    (uuid 2f0751b3-34d3-4409-a76f-d35e63c7ab5c)
  )
  (bus_entry (at 196.85 86.36) (size 2.54 -2.54)
    (stroke (width 0.1524) (type solid) (color 0 0 0 0))
    (uuid 4c3846b7-a3d0-4960-a06c-93c9c6ba2ce6)
  )
  (bus_entry (at 136.525 99.06) (size 2.54 -2.54)
    (stroke (width 0.1524) (type solid) (color 0 0 0 0))
    (uuid 588eaa62-bcc1-4481-9d30-d962185aaad2)
  )
  (bus_entry (at 136.525 119.38) (size 2.54 -2.54)
    (stroke (width 0.1524) (type solid) (color 0 0 0 0))
    (uuid 58bb7214-430c-4ff2-bf73-51916da90d68)
  )
  (bus_entry (at 196.85 81.28) (size 2.54 -2.54)
    (stroke (width 0.1524) (type solid) (color 0 0 0 0))
    (uuid 5defe06d-50ea-4327-8e9c-ad805629ae61)
  )
  (bus_entry (at 136.525 101.6) (size 2.54 -2.54)
    (stroke (width 0.1524) (type solid) (color 0 0 0 0))
    (uuid 60972e90-9b66-4b47-90cd-83fc9516c8d7)
  )
  (bus_entry (at 196.85 88.9) (size 2.54 -2.54)
    (stroke (width 0.1524) (type solid) (color 0 0 0 0))
    (uuid 6e1218c9-ea90-4488-96e0-70d563baddf3)
  )
  (bus_entry (at 136.525 91.44) (size 2.54 -2.54)
    (stroke (width 0.1524) (type solid) (color 0 0 0 0))
    (uuid 7fe785fb-ad69-425d-82d9-06ad61c25c3e)
  )
  (bus_entry (at 152.4 86.36) (size -2.54 -2.54)
    (stroke (width 0.1524) (type solid) (color 0 0 0 0))
    (uuid 8aaa62a7-baee-4930-ba8d-b2dfd7313473)
  )
  (bus_entry (at 136.525 81.28) (size 2.54 -2.54)
    (stroke (width 0.1524) (type solid) (color 0 0 0 0))
    (uuid 8b02f16d-d5ca-40fa-aef4-b2d859ddee4c)
  )
  (bus_entry (at 152.4 81.28) (size -2.54 -2.54)
    (stroke (width 0.1524) (type solid) (color 0 0 0 0))
    (uuid 96a52898-4695-44a9-9001-01da24156be8)
  )
  (bus_entry (at 136.525 83.82) (size 2.54 -2.54)
    (stroke (width 0.1524) (type solid) (color 0 0 0 0))
    (uuid 9e2d0f18-f470-4208-b1e4-15d47bdc7cbb)
  )
  (bus_entry (at 152.4 99.06) (size -2.54 -2.54)
    (stroke (width 0.1524) (type solid) (color 0 0 0 0))
    (uuid a4561e49-e230-4854-b0b5-1cbb79238f93)
  )
  (bus_entry (at 196.85 91.44) (size 2.54 -2.54)
    (stroke (width 0.1524) (type solid) (color 0 0 0 0))
    (uuid bba4f749-aab3-49fd-8185-0c6cfea63ee6)
  )
  (bus_entry (at 136.525 104.14) (size 2.54 -2.54)
    (stroke (width 0.1524) (type solid) (color 0 0 0 0))
    (uuid bd5ba306-4579-449e-b81e-bd7ecd53bdee)
  )
  (bus_entry (at 152.4 93.98) (size -2.54 -2.54)
    (stroke (width 0.1524) (type solid) (color 0 0 0 0))
    (uuid c4a692fc-a611-4877-ac2e-2e5e6dc2aeb8)
  )
  (bus_entry (at 196.85 96.52) (size 2.54 -2.54)
    (stroke (width 0.1524) (type solid) (color 0 0 0 0))
    (uuid c99e59de-2581-47ea-a210-a6bc99092e62)
  )
  (bus_entry (at 136.525 111.76) (size 2.54 -2.54)
    (stroke (width 0.1524) (type solid) (color 0 0 0 0))
    (uuid caba0479-ae28-4e07-9066-5c2fd42ffebb)
  )
  (bus_entry (at 136.525 114.3) (size 2.54 -2.54)
    (stroke (width 0.1524) (type solid) (color 0 0 0 0))
    (uuid ceb7b523-d68f-4952-9f9d-25d066c98d41)
  )
  (bus_entry (at 196.85 99.06) (size 2.54 -2.54)
    (stroke (width 0.1524) (type solid) (color 0 0 0 0))
    (uuid d4649176-debd-4be4-bc39-fd18c0015fab)
  )
  (bus_entry (at 136.525 116.84) (size 2.54 -2.54)
    (stroke (width 0.1524) (type solid) (color 0 0 0 0))
    (uuid d534ede3-8404-41d9-bbac-1d13bc8a8335)
  )
  (bus_entry (at 136.525 88.9) (size 2.54 -2.54)
    (stroke (width 0.1524) (type solid) (color 0 0 0 0))
    (uuid d6555054-2032-49f5-980f-913c7ed3147b)
  )
  (bus_entry (at 152.4 88.9) (size -2.54 -2.54)
    (stroke (width 0.1524) (type solid) (color 0 0 0 0))
    (uuid da4936a7-1fc6-4a66-8358-4390a3b12f38)
  )
  (bus_entry (at 152.4 91.44) (size -2.54 -2.54)
    (stroke (width 0.1524) (type solid) (color 0 0 0 0))
    (uuid dd95caae-7cf3-4d17-bd46-699b35cdb91e)
  )
  (bus_entry (at 152.4 83.82) (size -2.54 -2.54)
    (stroke (width 0.1524) (type solid) (color 0 0 0 0))
    (uuid e6dc58f6-db4d-4312-9abd-973879b45eef)
  )
  (bus_entry (at 196.85 83.82) (size 2.54 -2.54)
    (stroke (width 0.1524) (type solid) (color 0 0 0 0))
    (uuid f3cba082-7911-465c-b20a-1fc198c13dc1)
  )
  (bus_entry (at 136.525 109.22) (size 2.54 -2.54)
    (stroke (width 0.1524) (type solid) (color 0 0 0 0))
    (uuid f4fd8478-bda8-485e-a240-5849f083d67b)
  )
  (bus_entry (at 136.525 86.36) (size 2.54 -2.54)
    (stroke (width 0.1524) (type solid) (color 0 0 0 0))
    (uuid fce65de1-04b2-4611-8923-d79f61c8e158)
  )
  (bus_entry (at 152.4 96.52) (size -2.54 -2.54)
    (stroke (width 0.1524) (type solid) (color 0 0 0 0))
    (uuid fd0afa9e-24bb-41c5-88e3-f24f05f4badf)
  )

  (wire (pts (xy 191.77 96.52) (xy 196.85 96.52))
    (stroke (width 0) (type solid) (color 0 0 0 0))
    (uuid 01389355-f30d-43a5-b2e1-7b1f4ec7ab97)
  )
  (wire (pts (xy 98.425 77.47) (xy 98.425 81.28))
    (stroke (width 0) (type solid) (color 0 0 0 0))
    (uuid 01755551-620e-4c54-a0db-4c54146e81e5)
  )
  (wire (pts (xy 100.965 81.28) (xy 98.425 81.28))
    (stroke (width 0) (type solid) (color 0 0 0 0))
    (uuid 01755551-620e-4c54-a0db-4c54146e81e6)
  )
  (wire (pts (xy 131.445 93.98) (xy 136.525 93.98))
    (stroke (width 0) (type solid) (color 0 0 0 0))
    (uuid 061ef626-78d5-4860-91ee-9224cd881e3f)
  )
  (bus (pts (xy 199.39 88.9) (xy 199.39 91.44))
    (stroke (width 0) (type solid) (color 0 0 0 0))
    (uuid 099473f1-6598-46ff-a50f-4c520832170d)
  )

  (wire (pts (xy 131.445 114.3) (xy 136.525 114.3))
    (stroke (width 0) (type solid) (color 0 0 0 0))
    (uuid 113a28d9-21a1-4cf8-8365-44a8f32675c8)
  )
  (bus (pts (xy 139.065 83.82) (xy 139.065 86.36))
    (stroke (width 0) (type solid) (color 0 0 0 0))
    (uuid 13ac70df-e9b9-44e5-96e6-20f0b0dc6a3a)
  )
  (bus (pts (xy 199.39 86.36) (xy 199.39 88.9))
    (stroke (width 0) (type solid) (color 0 0 0 0))
    (uuid 1876c30c-72b2-4a8d-9f32-bf8b213530b4)
  )
  (bus (pts (xy 199.39 93.98) (xy 199.39 96.52))
    (stroke (width 0) (type solid) (color 0 0 0 0))
    (uuid 199124ca-dd64-45cf-a063-97cc545cbea7)
  )

  (wire (pts (xy 191.77 86.36) (xy 196.85 86.36))
    (stroke (width 0) (type solid) (color 0 0 0 0))
    (uuid 1c5eb9e6-05fe-44cc-b9ad-009d7f099b89)
  )
  (wire (pts (xy 131.445 109.22) (xy 136.525 109.22))
    (stroke (width 0) (type solid) (color 0 0 0 0))
    (uuid 2281d3f3-15e4-4836-8d3b-cd7fb8f94c4c)
  )
  (bus (pts (xy 139.065 86.36) (xy 139.065 88.9))
    (stroke (width 0) (type solid) (color 0 0 0 0))
    (uuid 24adc223-60f0-4497-98a3-d664c5a13280)
  )
  (bus (pts (xy 139.065 81.28) (xy 139.065 83.82))
    (stroke (width 0) (type solid) (color 0 0 0 0))
    (uuid 278a91dc-d57d-4a5c-a045-34b6bd84131f)
  )

  (wire (pts (xy 131.445 83.82) (xy 136.525 83.82))
    (stroke (width 0) (type solid) (color 0 0 0 0))
    (uuid 28033fef-eb6b-4fc6-bb45-f7705f2d7f32)
  )
  (wire (pts (xy 191.77 93.98) (xy 196.85 93.98))
    (stroke (width 0) (type solid) (color 0 0 0 0))
    (uuid 340956cc-57ec-41d8-92bf-dbfd15eab88f)
  )
  (wire (pts (xy 66.675 99.06) (xy 66.675 105.41))
    (stroke (width 0) (type solid) (color 0 0 0 0))
    (uuid 3fcb2caa-a4f5-4bd1-8387-720ec86036d7)
  )
  (wire (pts (xy 66.675 99.06) (xy 69.215 99.06))
    (stroke (width 0) (type solid) (color 0 0 0 0))
    (uuid 3fcb2caa-a4f5-4bd1-8387-720ec86036d8)
  )
  (wire (pts (xy 66.675 105.41) (xy 66.675 107.315))
    (stroke (width 0) (type solid) (color 0 0 0 0))
    (uuid 3fcb2caa-a4f5-4bd1-8387-720ec86036d9)
  )
  (bus (pts (xy 149.86 68.58) (xy 149.86 78.74))
    (stroke (width 0) (type solid) (color 0 0 0 0))
    (uuid 41f58457-8240-41e1-a377-c0328ae555e5)
  )

  (wire (pts (xy 66.675 105.41) (xy 74.295 105.41))
    (stroke (width 0) (type solid) (color 0 0 0 0))
    (uuid 44daf07e-8a8c-4817-94a8-9a65abdcb3da)
  )
  (wire (pts (xy 74.295 107.315) (xy 74.295 105.41))
    (stroke (width 0) (type solid) (color 0 0 0 0))
    (uuid 44daf07e-8a8c-4817-94a8-9a65abdcb3db)
  )
  (wire (pts (xy 191.77 83.82) (xy 196.85 83.82))
    (stroke (width 0) (type solid) (color 0 0 0 0))
    (uuid 46636b54-13af-4cee-851f-a404b99e1f6d)
  )
  (wire (pts (xy 152.4 88.9) (xy 157.48 88.9))
    (stroke (width 0) (type solid) (color 0 0 0 0))
    (uuid 46b32fe9-eb34-46e4-b963-4a5c26050407)
  )
  (wire (pts (xy 223.52 99.695) (xy 240.665 99.695))
    (stroke (width 0) (type solid) (color 0 0 0 0))
    (uuid 47680b38-39a4-4ef0-8af5-9a115bdfc5cf)
  )
  (bus (pts (xy 149.86 93.98) (xy 149.86 96.52))
    (stroke (width 0) (type solid) (color 0 0 0 0))
    (uuid 4bbde53d-6894-4e18-9480-84a6a26d5f6b)
  )

  (wire (pts (xy 64.135 87.63) (xy 64.135 101.6))
    (stroke (width 0) (type solid) (color 0 0 0 0))
    (uuid 4c694ef5-2564-45f5-b4d0-72e12e004a53)
  )
  (bus (pts (xy 139.065 106.68) (xy 139.065 109.22))
    (stroke (width 0) (type solid) (color 0 0 0 0))
    (uuid 4cfd9a02-97ef-4af4-a6b8-db9be1a8fda5)
  )

  (wire (pts (xy 61.595 93.98) (xy 69.215 93.98))
    (stroke (width 0) (type solid) (color 0 0 0 0))
    (uuid 4e821aeb-6371-48cd-97e2-2b45b3598a47)
  )
  (wire (pts (xy 228.6 92.075) (xy 228.6 104.775))
    (stroke (width 0) (type solid) (color 0 0 0 0))
    (uuid 521af794-b7a5-4e47-aced-8363594e8df6)
  )
  (wire (pts (xy 152.4 96.52) (xy 157.48 96.52))
    (stroke (width 0) (type solid) (color 0 0 0 0))
    (uuid 52adc81d-016f-4ad1-a887-d96ee28f2907)
  )
  (wire (pts (xy 131.445 88.9) (xy 136.525 88.9))
    (stroke (width 0) (type solid) (color 0 0 0 0))
    (uuid 53771c2a-94c5-45a3-9006-aa72214d61d6)
  )
  (bus (pts (xy 149.86 81.28) (xy 149.86 83.82))
    (stroke (width 0) (type solid) (color 0 0 0 0))
    (uuid 54ed3ee1-891b-418e-ab9c-6a18747d7388)
  )

  (wire (pts (xy 191.77 88.9) (xy 196.85 88.9))
    (stroke (width 0) (type solid) (color 0 0 0 0))
    (uuid 56aacfb0-4870-4594-9d76-100107db643e)
  )
  (wire (pts (xy 152.4 93.98) (xy 157.48 93.98))
    (stroke (width 0) (type solid) (color 0 0 0 0))
    (uuid 594cf461-b204-4b4c-97cd-28d4191c2761)
  )
  (wire (pts (xy 131.445 99.06) (xy 136.525 99.06))
    (stroke (width 0) (type solid) (color 0 0 0 0))
    (uuid 594d0fe6-511d-48ed-b665-e66324e972be)
  )
  (wire (pts (xy 61.595 91.44) (xy 69.215 91.44))
    (stroke (width 0) (type solid) (color 0 0 0 0))
    (uuid 5b832a8d-a6f7-4a87-87df-6e45eaf21076)
  )
  (wire (pts (xy 131.445 104.14) (xy 136.525 104.14))
    (stroke (width 0) (type solid) (color 0 0 0 0))
    (uuid 5d0699f8-7aec-4b9e-a3e8-d830746553cb)
  )
  (wire (pts (xy 131.445 86.36) (xy 136.525 86.36))
    (stroke (width 0) (type solid) (color 0 0 0 0))
    (uuid 610e607a-0c35-482d-8e94-01689c41ac82)
  )
  (wire (pts (xy 152.4 86.36) (xy 157.48 86.36))
    (stroke (width 0) (type solid) (color 0 0 0 0))
    (uuid 61f0653a-d19d-4dbc-95a3-5c73f76fdd76)
  )
  (bus (pts (xy 139.065 91.44) (xy 139.065 93.98))
    (stroke (width 0) (type solid) (color 0 0 0 0))
    (uuid 631c7be5-8dc2-4df4-ab73-737bb928e763)
  )

  (wire (pts (xy 231.14 97.155) (xy 223.52 97.155))
    (stroke (width 0) (type solid) (color 0 0 0 0))
    (uuid 661a24db-3371-4a55-8cee-2d6b1e895282)
  )
  (wire (pts (xy 64.135 101.6) (xy 69.215 101.6))
    (stroke (width 0) (type solid) (color 0 0 0 0))
    (uuid 6a99cd06-c439-4456-836d-84cd9df9b5ac)
  )
  (bus (pts (xy 139.065 88.9) (xy 139.065 91.44))
    (stroke (width 0) (type solid) (color 0 0 0 0))
    (uuid 6d2a06fb-0b1e-452a-ab38-11a5f45e1b32)
  )

  (wire (pts (xy 64.135 86.995) (xy 64.135 87.63))
    (stroke (width 0) (type solid) (color 0 0 0 0))
    (uuid 6ff08b28-a4b6-4688-95c7-2715f3a700b8)
  )
  (wire (pts (xy 74.295 86.995) (xy 74.295 87.63))
    (stroke (width 0) (type solid) (color 0 0 0 0))
    (uuid 6ff08b28-a4b6-4688-95c7-2715f3a700b9)
  )
  (wire (pts (xy 74.295 87.63) (xy 64.135 87.63))
    (stroke (width 0) (type solid) (color 0 0 0 0))
    (uuid 6ff08b28-a4b6-4688-95c7-2715f3a700ba)
  )
  (bus (pts (xy 149.86 78.74) (xy 149.86 81.28))
    (stroke (width 0) (type solid) (color 0 0 0 0))
    (uuid 749d9ed0-2ff2-4b55-abc5-f7231ec3aa28)
  )

  (wire (pts (xy 131.445 111.76) (xy 136.525 111.76))
    (stroke (width 0) (type solid) (color 0 0 0 0))
    (uuid 74db10c5-4f5a-4189-9ee1-3cf2043dd23a)
  )
  (wire (pts (xy 231.14 94.615) (xy 223.52 94.615))
    (stroke (width 0) (type solid) (color 0 0 0 0))
    (uuid 75042d66-78a9-4dec-92c2-8c5ae218191b)
  )
  (bus (pts (xy 139.065 104.14) (xy 139.065 106.68))
    (stroke (width 0) (type solid) (color 0 0 0 0))
    (uuid 751d823e-1d7b-4501-9658-d06d459b0e16)
  )

  (wire (pts (xy 191.77 91.44) (xy 196.85 91.44))
    (stroke (width 0) (type solid) (color 0 0 0 0))
    (uuid 787dd993-68c6-4195-8a38-fab299e0b6d1)
  )
  (wire (pts (xy 131.445 106.68) (xy 136.525 106.68))
    (stroke (width 0) (type solid) (color 0 0 0 0))
    (uuid 8089d92f-37a3-4050-bb3b-da2d99169caa)
  )
  (wire (pts (xy 131.445 91.44) (xy 136.525 91.44))
    (stroke (width 0) (type solid) (color 0 0 0 0))
    (uuid 8194ca7b-8a63-4e58-8e4a-d40bb14822eb)
  )
  (wire (pts (xy 152.4 83.82) (xy 157.48 83.82))
    (stroke (width 0) (type solid) (color 0 0 0 0))
    (uuid 87fa33e4-fae6-4539-817a-08f7345c3500)
  )
  (wire (pts (xy 228.6 104.775) (xy 223.52 104.775))
    (stroke (width 0) (type solid) (color 0 0 0 0))
    (uuid 89bc5ea7-9728-4945-86a8-8757e4b3804b)
  )
  (bus (pts (xy 139.065 114.3) (xy 139.065 116.84))
    (stroke (width 0) (type solid) (color 0 0 0 0))
    (uuid 8a8c373f-9bc3-4cf7-8f41-4802da916698)
  )

  (wire (pts (xy 131.445 96.52) (xy 136.525 96.52))
    (stroke (width 0) (type solid) (color 0 0 0 0))
    (uuid 8b0782e3-3a2f-46ab-956b-229427b0ba0f)
  )
  (wire (pts (xy 226.06 107.95) (xy 226.06 102.235))
    (stroke (width 0) (type solid) (color 0 0 0 0))
    (uuid 8d6330bc-c414-48f6-ab2f-c6b28a616cd5)
  )
  (bus (pts (xy 139.065 68.58) (xy 139.065 78.74))
    (stroke (width 0) (type solid) (color 0 0 0 0))
    (uuid 8e305b71-ba9a-469e-a4bf-bc67bf66e253)
  )
  (bus (pts (xy 139.065 68.58) (xy 149.86 68.58))
    (stroke (width 0) (type solid) (color 0 0 0 0))
    (uuid 8e305b71-ba9a-469e-a4bf-bc67bf66e254)
  )
  (bus (pts (xy 149.86 68.58) (xy 199.39 68.58))
    (stroke (width 0) (type solid) (color 0 0 0 0))
    (uuid 8e305b71-ba9a-469e-a4bf-bc67bf66e255)
  )
  (bus (pts (xy 199.39 68.58) (xy 199.39 78.74))
    (stroke (width 0) (type solid) (color 0 0 0 0))
    (uuid 8e305b71-ba9a-469e-a4bf-bc67bf66e256)
  )

  (wire (pts (xy 131.445 101.6) (xy 136.525 101.6))
    (stroke (width 0) (type solid) (color 0 0 0 0))
    (uuid 8f043289-ffe5-44b1-a324-9f5a77b8a56a)
  )
  (bus (pts (xy 199.39 83.82) (xy 199.39 86.36))
    (stroke (width 0) (type solid) (color 0 0 0 0))
    (uuid 9112ddd5-10d5-48b8-954f-f1d5adcacbd9)
  )
  (bus (pts (xy 139.065 111.76) (xy 139.065 114.3))
    (stroke (width 0) (type solid) (color 0 0 0 0))
    (uuid 92761c09-a591-4c8e-af4d-e0e2262cb01d)
  )
  (bus (pts (xy 139.065 93.98) (xy 139.065 96.52))
    (stroke (width 0) (type solid) (color 0 0 0 0))
    (uuid 929a9b03-e99e-4b88-8e16-759f8c6b59a5)
  )
  (bus (pts (xy 139.065 78.74) (xy 139.065 81.28))
    (stroke (width 0) (type solid) (color 0 0 0 0))
    (uuid 98966de3-2364-43d8-a2e0-b03bb9487b03)
  )

  (wire (pts (xy 52.705 96.52) (xy 69.215 96.52))
    (stroke (width 0) (type solid) (color 0 0 0 0))
    (uuid a1227183-4ff6-4dbd-8135-84d190fd662b)
  )
  (wire (pts (xy 226.06 102.235) (xy 223.52 102.235))
    (stroke (width 0) (type solid) (color 0 0 0 0))
    (uuid a1a62843-10ab-4573-8b9c-3bde600748ad)
  )
  (wire (pts (xy 152.4 81.28) (xy 157.48 81.28))
    (stroke (width 0) (type solid) (color 0 0 0 0))
    (uuid a8e2d9d0-f885-4b73-8f5c-6eb23c6c8322)
  )
  (bus (pts (xy 139.065 109.22) (xy 139.065 111.76))
    (stroke (width 0) (type solid) (color 0 0 0 0))
    (uuid aadc3df5-0e2d-4f3d-b72e-6f184da74c89)
  )
  (bus (pts (xy 149.86 86.36) (xy 149.86 88.9))
    (stroke (width 0) (type solid) (color 0 0 0 0))
    (uuid af76ce95-feca-41fb-bf31-edaa26d6766a)
  )

  (wire (pts (xy 191.77 99.06) (xy 196.85 99.06))
    (stroke (width 0) (type solid) (color 0 0 0 0))
    (uuid b17f34a6-4259-454c-8c16-51b5fbc76865)
  )
  (bus (pts (xy 139.065 99.06) (xy 139.065 101.6))
    (stroke (width 0) (type solid) (color 0 0 0 0))
    (uuid b21299b9-3c4d-43df-b399-7f9b08eb5470)
  )

  (wire (pts (xy 152.4 91.44) (xy 157.48 91.44))
    (stroke (width 0) (type solid) (color 0 0 0 0))
    (uuid b439fbba-d25d-4f2d-9e0a-1d8576d58fd6)
  )
  (bus (pts (xy 139.065 96.52) (xy 139.065 99.06))
    (stroke (width 0) (type solid) (color 0 0 0 0))
    (uuid c210293b-1d7a-4e96-92e9-058784106727)
  )
  (bus (pts (xy 199.39 81.28) (xy 199.39 83.82))
    (stroke (width 0) (type solid) (color 0 0 0 0))
    (uuid c3d5daf8-d359-42b2-a7c2-0d080ba7e212)
  )

  (wire (pts (xy 131.445 81.28) (xy 136.525 81.28))
    (stroke (width 0) (type solid) (color 0 0 0 0))
    (uuid c9627669-e078-4dde-a618-7d31d13a7d76)
  )
  (bus (pts (xy 199.39 91.44) (xy 199.39 93.98))
    (stroke (width 0) (type solid) (color 0 0 0 0))
    (uuid ca9b74ce-0dee-401c-9544-f599f4cf538d)
  )

  (wire (pts (xy 108.585 81.28) (xy 111.125 81.28))
    (stroke (width 0) (type solid) (color 0 0 0 0))
    (uuid cca5621e-8251-4a8b-bae4-d035815eab3d)
  )
  (bus (pts (xy 199.39 78.74) (xy 199.39 81.28))
    (stroke (width 0) (type solid) (color 0 0 0 0))
    (uuid d3dd7cdb-b730-487d-804d-99150ba318ef)
  )

  (wire (pts (xy 131.445 116.84) (xy 136.525 116.84))
    (stroke (width 0) (type solid) (color 0 0 0 0))
    (uuid d97214c9-e2cb-4870-bea7-9d654497c454)
  )
  (wire (pts (xy 152.4 99.06) (xy 157.48 99.06))
    (stroke (width 0) (type solid) (color 0 0 0 0))
    (uuid daee32c6-b1f6-4fb1-a358-1f51e68e4202)
  )
  (bus (pts (xy 149.86 88.9) (xy 149.86 91.44))
    (stroke (width 0) (type solid) (color 0 0 0 0))
    (uuid e11ae5a5-aa10-4f10-b346-f16e33c7899a)
  )

  (wire (pts (xy 131.445 119.38) (xy 136.525 119.38))
    (stroke (width 0) (type solid) (color 0 0 0 0))
    (uuid eeabc467-a5ff-4fa8-adbc-2d45a3c5575f)
  )
  (bus (pts (xy 149.86 91.44) (xy 149.86 93.98))
    (stroke (width 0) (type solid) (color 0 0 0 0))
    (uuid f23ac723-a36d-491d-9473-7ec0ffed332d)
  )

  (wire (pts (xy 191.77 81.28) (xy 196.85 81.28))
    (stroke (width 0) (type solid) (color 0 0 0 0))
    (uuid f3af6776-6e97-4123-b81d-88a63af79da5)
  )
  (bus (pts (xy 139.065 101.6) (xy 139.065 104.14))
    (stroke (width 0) (type solid) (color 0 0 0 0))
    (uuid fc2e9f96-3bed-4896-b995-f56e799f1c77)
  )
  (bus (pts (xy 149.86 83.82) (xy 149.86 86.36))
    (stroke (width 0) (type solid) (color 0 0 0 0))
    (uuid fd60415a-f01a-46c5-9369-ea970e435e5b)
  )

  (label "R2" (at 135.255 106.68 180)
    (effects (font (size 1.27 1.27)) (justify right bottom))
    (uuid 0101ecf5-64f7-4e31-bd97-a76e210f0c72)
  )
  (label "C2" (at 193.04 86.36 0)
    (effects (font (size 1.27 1.27)) (justify left bottom))
    (uuid 02ebc3ed-1bf1-4df0-8eeb-1d991d3d69ce)
  )
  (label "C6" (at 193.04 96.52 0)
    (effects (font (size 1.27 1.27)) (justify left bottom))
    (uuid 02f8e250-87bc-45e7-9bf1-a49e59178c78)
  )
  (label "CLK" (at 231.14 94.615 0)
    (effects (font (size 1.27 1.27)) (justify left bottom))
    (uuid 03b6b7ca-f07d-4755-b8c5-674cb0333bb1)
  )
  (label "C2" (at 135.255 83.82 180)
    (effects (font (size 1.27 1.27)) (justify right bottom))
    (uuid 115d3ce0-1519-476e-a175-575b6462165d)
  )
  (label "C0" (at 193.04 81.28 0)
    (effects (font (size 1.27 1.27)) (justify left bottom))
    (uuid 118be693-2101-4e9d-8881-cc74df819581)
  )
  (label "DOUT" (at 131.445 121.92 0)
    (effects (font (size 1.27 1.27)) (justify left bottom))
    (uuid 145581e5-10ce-4e24-aad9-76ea3ebe6c56)
  )
  (label "C7" (at 135.255 96.52 180)
    (effects (font (size 1.27 1.27)) (justify right bottom))
    (uuid 1be04064-1f89-4434-828b-2c3d7f30cbe8)
  )
  (label "R3" (at 153.67 88.9 0)
    (effects (font (size 1.27 1.27)) (justify left bottom))
    (uuid 1e237490-8343-4731-93d4-196c869c5ac5)
  )
  (label "R4" (at 135.255 111.76 180)
    (effects (font (size 1.27 1.27)) (justify right bottom))
    (uuid 2ceebb26-8e1a-49de-a0cd-164da44d0bec)
  )
  (label "R0" (at 135.255 101.6 180)
    (effects (font (size 1.27 1.27)) (justify right bottom))
    (uuid 34988663-4578-4b00-bcde-91fc91147968)
  )
  (label "R5" (at 153.67 93.98 0)
    (effects (font (size 1.27 1.27)) (justify left bottom))
    (uuid 4746e87b-eb16-42a7-9ddb-3949c90e6b85)
  )
  (label "R4" (at 153.67 91.44 0)
    (effects (font (size 1.27 1.27)) (justify left bottom))
    (uuid 4acb7dfe-87ca-4f59-87e6-a14a09ee6ff4)
  )
  (label "CS" (at 61.595 93.98 180)
    (effects (font (size 1.27 1.27)) (justify right bottom))
    (uuid 5222f479-ace9-4b75-a7a8-a363da1ebada)
  )
  (label "C3" (at 135.255 86.36 180)
    (effects (font (size 1.27 1.27)) (justify right bottom))
    (uuid 579e4412-3357-4000-aeb2-37b7bedfd190)
  )
  (label "R6" (at 153.67 96.52 0)
    (effects (font (size 1.27 1.27)) (justify left bottom))
    (uuid 5c79bd1f-4a2f-420f-b852-4349c392a762)
  )
  (label "C1" (at 135.255 81.28 180)
    (effects (font (size 1.27 1.27)) (justify right bottom))
    (uuid 615c40c1-7aff-4a13-ad68-e7cd956f4e10)
  )
  (label "R1" (at 153.67 83.82 0)
    (effects (font (size 1.27 1.27)) (justify left bottom))
    (uuid 61614eb4-7b7d-4592-9ab9-8579a1db7bdc)
  )
  (label "C5" (at 135.255 91.44 180)
    (effects (font (size 1.27 1.27)) (justify right bottom))
    (uuid 6502b2a9-8617-4eda-8503-e8b69e55bd80)
  )
  (label "CS" (at 231.14 97.155 0)
    (effects (font (size 1.27 1.27)) (justify left bottom))
    (uuid 7014ba44-993d-44ac-b2a7-6c05c8564010)
  )
  (label "C4" (at 193.04 91.44 0)
    (effects (font (size 1.27 1.27)) (justify left bottom))
    (uuid 70dd5ca4-c2c2-477d-8728-5f54c485b13c)
  )
  (label "R6" (at 135.255 116.84 180)
    (effects (font (size 1.27 1.27)) (justify right bottom))
    (uuid 79a4095d-30e5-4102-b8c5-4eec628df133)
  )
  (label "DOUT" (at 231.14 99.695 0)
    (effects (font (size 1.27 1.27)) (justify left bottom))
    (uuid 82115a5a-83d3-47f6-9ae0-6fac2fdcbb2c)
  )
  (label "R7" (at 153.67 99.06 0)
    (effects (font (size 1.27 1.27)) (justify left bottom))
    (uuid 8409aea6-f68d-4cf3-a9b7-83aec8a77a3c)
  )
  (label "R5" (at 135.255 114.3 180)
    (effects (font (size 1.27 1.27)) (justify right bottom))
    (uuid 8f71c599-b5af-4f33-ac45-2989c38dce9f)
  )
  (label "DIN" (at 111.125 121.92 180)
    (effects (font (size 1.27 1.27)) (justify right bottom))
    (uuid 90b8d6ff-ed9b-45bd-a17e-760400c58b91)
  )
  (label "C0" (at 135.255 99.06 180)
    (effects (font (size 1.27 1.27)) (justify right bottom))
    (uuid a22feac1-4b08-4ae6-b0fd-d35650ff3669)
  )
  (label "C4" (at 135.255 88.9 180)
    (effects (font (size 1.27 1.27)) (justify right bottom))
    (uuid a9d4ae85-0121-4824-b1d4-defb08a6af15)
  )
  (label "C1" (at 193.04 83.82 0)
    (effects (font (size 1.27 1.27)) (justify left bottom))
    (uuid ba369cf3-8dfe-45bd-ad29-ef37051c5d8d)
  )
  (label "C3" (at 193.04 88.9 0)
    (effects (font (size 1.27 1.27)) (justify left bottom))
    (uuid bcc8bcd7-b483-46fe-8f5d-32accd42bfb8)
  )
  (label "C7" (at 193.04 99.06 0)
    (effects (font (size 1.27 1.27)) (justify left bottom))
    (uuid bf723b0e-0f29-4a83-9fda-b3c97295cf2d)
  )
  (label "CLK" (at 111.125 119.38 180)
    (effects (font (size 1.27 1.27)) (justify right bottom))
    (uuid c8b7f339-0d7a-4e0f-bc04-3b190db0251e)
  )
  (label "CS" (at 111.125 116.84 180)
    (effects (font (size 1.27 1.27)) (justify right bottom))
    (uuid d55447ca-0767-4a9b-8c49-d5db1a977980)
  )
  (label "R1" (at 135.255 104.14 180)
    (effects (font (size 1.27 1.27)) (justify right bottom))
    (uuid dfd340c7-3583-45e8-8f34-037ce04331ef)
  )
  (label "R7" (at 135.255 119.38 180)
    (effects (font (size 1.27 1.27)) (justify right bottom))
    (uuid e474ded2-32e6-4d48-9a43-d03d245f1f65)
  )
  (label "C5" (at 193.04 93.98 0)
    (effects (font (size 1.27 1.27)) (justify left bottom))
    (uuid e8908b30-727e-4512-b172-2365f84f729b)
  )
  (label "CLK" (at 61.595 91.44 180)
    (effects (font (size 1.27 1.27)) (justify right bottom))
    (uuid eace1752-18c6-4c7e-b3ad-884c82c194e6)
  )
  (label "DIN" (at 61.595 96.52 180)
    (effects (font (size 1.27 1.27)) (justify right bottom))
    (uuid eb5c37bb-8a95-40a9-9424-ebec29ee0019)
  )
  (label "C6" (at 135.255 93.98 180)
    (effects (font (size 1.27 1.27)) (justify right bottom))
    (uuid f79af716-bc48-4980-83e0-3cb48d94e8ae)
  )
  (label "R0" (at 153.67 81.28 0)
    (effects (font (size 1.27 1.27)) (justify left bottom))
    (uuid f7cb3d9b-1fce-4163-88c9-02e06403c3fe)
  )
  (label "R3" (at 135.255 109.22 180)
    (effects (font (size 1.27 1.27)) (justify right bottom))
    (uuid fe3cea77-a57f-4bb2-9413-bf8e75fbf063)
  )
  (label "R2" (at 153.67 86.36 0)
    (effects (font (size 1.27 1.27)) (justify left bottom))
    (uuid ffd2c439-2851-4fe5-85cc-768b77b3699e)
  )

  (hierarchical_label "DOUT" (shape output) (at 240.665 99.695 0)
    (effects (font (size 1.27 1.27)) (justify left))
    (uuid 2434bd36-7464-4ac8-99f0-45a159a973ce)
  )
  (hierarchical_label "DIN" (shape input) (at 52.705 96.52 180)
    (effects (font (size 1.27 1.27)) (justify right))
    (uuid ebd5876c-eaa3-42ec-bff1-86380d59ea44)
  )

  (symbol (lib_id "power:PWR_FLAG") (at 74.295 107.315 180)
    (in_bom yes) (on_board yes) (fields_autoplaced)
    (uuid 0ad8505f-9d8a-4e5f-9f11-039c271c1ca0)
    (property "Reference" "#FLG0108" (id 0) (at 73.025 108.585 0)
      (effects (font (size 1.27 1.27)) hide)
    )
    (property "Value" "PWR_FLAG" (id 1) (at 74.295 112.395 0))
    (property "Footprint" "" (id 2) (at 74.295 107.315 0)
      (effects (font (size 1.27 1.27)) hide)
    )
    (property "Datasheet" "~" (id 3) (at 74.295 107.315 0)
      (effects (font (size 1.27 1.27)) hide)
    )
    (pin "1" (uuid 3fef8946-c544-4784-a6ba-e831f9d1a5d7))
  )

  (symbol (lib_id "power:GND") (at 121.285 127 0)
    (in_bom yes) (on_board yes) (fields_autoplaced)
    (uuid 11b0d65d-08c7-4583-bc80-96e841b2b5a2)
    (property "Reference" "#PWR0133" (id 0) (at 122.555 125.73 0)
      (effects (font (size 1.27 1.27)) hide)
    )
    (property "Value" "GND" (id 1) (at 121.285 132.08 0))
    (property "Footprint" "" (id 2) (at 121.285 127 0)
      (effects (font (size 1.27 1.27)) hide)
    )
    (property "Datasheet" "" (id 3) (at 121.285 127 0)
      (effects (font (size 1.27 1.27)) hide)
    )
    (pin "1" (uuid 12b432ae-18b0-45d4-9e37-6c7ca9bffeca))
  )

  (symbol (lib_id "power:PWR_FLAG") (at 74.295 86.995 0)
    (in_bom yes) (on_board yes) (fields_autoplaced)
    (uuid 17dfb65a-fba9-4b7c-9f00-8667dc3687fe)
    (property "Reference" "#FLG0107" (id 0) (at 75.565 85.725 0)
      (effects (font (size 1.27 1.27)) hide)
    )
    (property "Value" "PWR_FLAG" (id 1) (at 74.295 83.185 0))
    (property "Footprint" "" (id 2) (at 74.295 86.995 0)
      (effects (font (size 1.27 1.27)) hide)
    )
    (property "Datasheet" "~" (id 3) (at 74.295 86.995 0)
      (effects (font (size 1.27 1.27)) hide)
    )
    (pin "1" (uuid bc945bf6-bee4-45d9-adf6-f0f0d1992298))
  )

  (symbol (lib_id "Device:C") (at 98.425 96.52 0)
    (in_bom yes) (on_board yes) (fields_autoplaced)
    (uuid 1ace0531-7bbf-4d8f-aa25-0108e20b9476)
    (property "Reference" "C4" (id 0) (at 102.235 95.8849 0)
      (effects (font (size 1.27 1.27)) (justify left))
    )
    (property "Value" "0.1uF" (id 1) (at 102.235 98.4249 0)
      (effects (font (size 1.27 1.27)) (justify left))
    )
    (property "Footprint" "Capacitor_SMD:C_0603_1608Metric_Pad1.08x0.95mm_HandSolder" (id 2) (at 99.3902 100.33 0)
      (effects (font (size 1.27 1.27)) hide)
    )
    (property "Datasheet" "~" (id 3) (at 98.425 96.52 0)
      (effects (font (size 1.27 1.27)) hide)
    )
    (pin "1" (uuid b3264081-6940-42a4-9668-b7be88e5974f))
    (pin "2" (uuid eb789d4e-e012-45d3-ae02-c81bcebdb22b))
  )

  (symbol (lib_id "power:GND") (at 226.06 107.95 0) (mirror y)
    (in_bom yes) (on_board yes) (fields_autoplaced)
    (uuid 218aff79-15e0-4157-9351-c283ecc44227)
    (property "Reference" "#PWR0136" (id 0) (at 224.79 106.68 0)
      (effects (font (size 1.27 1.27)) hide)
    )
    (property "Value" "GND" (id 1) (at 226.06 113.03 0))
    (property "Footprint" "" (id 2) (at 226.06 107.95 0)
      (effects (font (size 1.27 1.27)) hide)
    )
    (property "Datasheet" "" (id 3) (at 226.06 107.95 0)
      (effects (font (size 1.27 1.27)) hide)
    )
    (pin "1" (uuid a650c797-f59c-4e45-a26f-c7cdad29ca8a))
  )

  (symbol (lib_id "Device:R") (at 104.775 81.28 90)
    (in_bom yes) (on_board yes) (fields_autoplaced)
    (uuid 2600d6aa-fa11-4059-9ec0-4285b03a2439)
    (property "Reference" "R4" (id 0) (at 104.775 76.2 90))
    (property "Value" "9.53k" (id 1) (at 104.775 78.74 90))
    (property "Footprint" "LED_SMD:LED_0603_1608Metric_Pad1.05x0.95mm_HandSolder" (id 2) (at 104.775 83.058 90)
      (effects (font (size 1.27 1.27)) hide)
    )
    (property "Datasheet" "~" (id 3) (at 104.775 81.28 0)
      (effects (font (size 1.27 1.27)) hide)
    )
    (pin "1" (uuid c7a8b859-39bd-41f1-aa40-6a8645b3369c))
    (pin "2" (uuid 612c9cc2-5ba4-4fa8-a490-09ece5578f98))
  )

  (symbol (lib_id "power:GND") (at 66.675 107.315 0)
    (in_bom yes) (on_board yes) (fields_autoplaced)
    (uuid 28ec5b04-708b-40b6-957c-fd20cfc07e07)
    (property "Reference" "#PWR0129" (id 0) (at 67.945 106.045 0)
      (effects (font (size 1.27 1.27)) hide)
    )
    (property "Value" "GND" (id 1) (at 66.675 112.395 0))
    (property "Footprint" "" (id 2) (at 66.675 107.315 0)
      (effects (font (size 1.27 1.27)) hide)
    )
    (property "Datasheet" "" (id 3) (at 66.675 107.315 0)
      (effects (font (size 1.27 1.27)) hide)
    )
    (pin "1" (uuid a650c797-f59c-4e45-a26f-c7cdad29ca89))
  )

  (symbol (lib_id "Driver_LED:MAX7219") (at 121.285 101.6 0)
    (in_bom yes) (on_board yes)
    (uuid 32209599-9f86-429c-94d1-b6d35f9d65b3)
    (property "Reference" "U4" (id 0) (at 127.635 74.93 0))
    (property "Value" "MAX7219" (id 1) (at 127.635 77.47 0))
    (property "Footprint" "Package_SO:SOP-24_7.5x15.4mm_P1.27mm" (id 2) (at 120.015 100.33 0)
      (effects (font (size 1.27 1.27)) hide)
    )
    (property "Datasheet" "https://datasheets.maximintegrated.com/en/ds/MAX7219-MAX7221.pdf" (id 3) (at 122.555 105.41 0)
      (effects (font (size 1.27 1.27)) hide)
    )
    (pin "1" (uuid 27d214cc-6ccf-44b1-87c7-ac0652f741c3))
    (pin "10" (uuid 8c97de9a-49f3-4eff-ab8c-3cb6f8a22948))
    (pin "11" (uuid d2e60c91-c49d-4778-997c-997ac8d75c99))
    (pin "12" (uuid 6d563ee4-7a66-4e96-ad90-3c52ee7652f7))
    (pin "13" (uuid 9f7fd5f6-e194-4937-b8a1-c5e567eb4d70))
    (pin "14" (uuid db1eab86-a03c-4df3-bda1-d92c20141f37))
    (pin "15" (uuid c6ceb68c-3c77-48c1-8901-e7282340ad41))
    (pin "16" (uuid 6474f26a-8b0b-4d1f-9a6b-9455bebfc42c))
    (pin "17" (uuid cac810b4-355d-42e5-b98e-cffb80bbd7e0))
    (pin "18" (uuid 57df77c1-23d0-4985-9942-e12874a57f75))
    (pin "19" (uuid 3cf3e71e-66bf-421f-a064-28d022d94527))
    (pin "2" (uuid 982b7003-5176-46d5-a9fa-4c18e498b04b))
    (pin "20" (uuid 4ecd5d1b-1d93-4572-a65e-81d5477e8118))
    (pin "21" (uuid cbcd8970-d32d-44bd-82f9-168e016c2327))
    (pin "22" (uuid 7dc35a28-89a3-48e6-9be5-f68e609c9a82))
    (pin "23" (uuid 9ee272d5-318b-4b53-8fbe-a54a95da6074))
    (pin "24" (uuid dae28556-be3b-460d-865e-af0d96c5f6c3))
    (pin "3" (uuid dc06b50a-1a50-4d14-ac26-140b8f2e9d23))
    (pin "4" (uuid 288fc029-8a6a-4741-ab7f-40fe2815e7ac))
    (pin "5" (uuid 6d2e125b-0064-4033-bd53-457b46e51675))
    (pin "6" (uuid 1c3db71d-1616-4d46-9a5d-39d1ac0f3f1b))
    (pin "7" (uuid ed4dd492-e1f6-4a77-8b5d-f87446178397))
    (pin "8" (uuid 72075b72-6caf-4e90-8f11-e94889b617f8))
    (pin "9" (uuid 924570bb-f220-4b4e-8c89-a0f6ebf47d3b))
  )

  (symbol (lib_id "power:+5V") (at 121.285 76.2 0)
    (in_bom yes) (on_board yes) (fields_autoplaced)
    (uuid 326b7625-c059-43f9-bfbd-2a0b3e1c4b27)
    (property "Reference" "#PWR0131" (id 0) (at 122.555 74.93 0)
      (effects (font (size 1.27 1.27)) hide)
    )
    (property "Value" "+5V" (id 1) (at 121.285 72.39 0))
    (property "Footprint" "" (id 2) (at 121.285 76.2 0)
      (effects (font (size 1.27 1.27)) hide)
    )
    (property "Datasheet" "" (id 3) (at 121.285 76.2 0)
      (effects (font (size 1.27 1.27)) hide)
    )
    (pin "1" (uuid 99693a4e-959a-4089-862f-c6e50fcc194a))
  )

  (symbol (lib_id "akn_misc:DISP_LED_MAT_8x8_COM_CAT") (at 157.48 101.6 0)
    (in_bom yes) (on_board yes) (fields_autoplaced)
    (uuid 4aa9a0fa-4c6e-44c9-938c-a88726378e78)
    (property "Reference" "D4" (id 0) (at 174.625 73.025 0)
      (effects (font (size 1.524 1.524)))
    )
    (property "Value" "DISP_LED_MAT_8x8_COM_CAT" (id 1) (at 174.625 75.565 0)
      (effects (font (size 1.524 1.524)))
    )
    (property "Footprint" "LED_MAT:1088AS" (id 2) (at 160.02 102.87 0)
      (effects (font (size 1.524 1.524)))
    )
    (property "Datasheet" "" (id 3) (at 160.02 102.87 0)
      (effects (font (size 1.524 1.524)))
    )
    (pin "9" (uuid 6dff8dc1-d1c7-4ac9-a004-f6a0ec2ee8f9))
    (pin "1" (uuid c19fb32a-1d93-4522-ba07-4987d0b479f6))
    (pin "10" (uuid 836447f3-75f1-485c-927c-14d3432f5c87))
    (pin "11" (uuid 54ae6a59-7ae5-48fc-a470-7589d2c520ad))
    (pin "12" (uuid 9f15a131-2127-477a-98c6-a66630da1058))
    (pin "13" (uuid efd59c24-23cb-418c-8a36-9db520d8f2a2))
    (pin "14" (uuid 9559f66c-a02f-406f-9ca1-f9590e36ad2c))
    (pin "15" (uuid 68beaddf-ba25-407f-933e-b59ffc0a3b58))
    (pin "16" (uuid 1920067c-72ed-4785-9636-adf8a87d4188))
    (pin "2" (uuid 96f0436d-49bc-4a6a-ad4b-09a6490099ca))
    (pin "3" (uuid 4e1f0a2d-435e-4711-bedc-bb9fbfdedae0))
    (pin "4" (uuid 3af5f4fb-9b5a-4561-bf5f-1a6bc1c4b4c5))
    (pin "5" (uuid 1054aa2e-a4c5-4025-bfea-b07c83f69fc4))
    (pin "6" (uuid 6d945a33-183c-45d8-aa51-53167920e13d))
    (pin "7" (uuid 033fce85-b2eb-46a0-ade2-f274cc57511f))
    (pin "8" (uuid bb54d61d-aaa5-448c-9eb5-f682469e13b9))
  )

  (symbol (lib_id "power:+5V") (at 98.425 77.47 0)
    (in_bom yes) (on_board yes) (fields_autoplaced)
    (uuid 600d9e44-a3b2-4ee2-b1da-2b08a7d7d72b)
    (property "Reference" "#PWR0132" (id 0) (at 99.695 76.2 0)
      (effects (font (size 1.27 1.27)) hide)
    )
    (property "Value" "+5V" (id 1) (at 98.425 73.66 0))
    (property "Footprint" "" (id 2) (at 98.425 77.47 0)
      (effects (font (size 1.27 1.27)) hide)
    )
    (property "Datasheet" "" (id 3) (at 98.425 77.47 0)
      (effects (font (size 1.27 1.27)) hide)
    )
    (pin "1" (uuid 4a38158c-2a85-4fd2-8cd1-d3a6f8454582))
  )

  (symbol (lib_id "power:+5V") (at 228.6 92.075 0) (mirror y)
    (in_bom yes) (on_board yes) (fields_autoplaced)
    (uuid 6d8d267b-adc3-4d73-8c33-92b9b76a9a1e)
    (property "Reference" "#PWR0135" (id 0) (at 227.33 90.805 0)
      (effects (font (size 1.27 1.27)) hide)
    )
    (property "Value" "+5V" (id 1) (at 228.6 88.265 0))
    (property "Footprint" "" (id 2) (at 228.6 92.075 0)
      (effects (font (size 1.27 1.27)) hide)
    )
    (property "Datasheet" "" (id 3) (at 228.6 92.075 0)
      (effects (font (size 1.27 1.27)) hide)
    )
    (pin "1" (uuid e81e7f0d-ac7d-40bb-b8ec-61f69173693a))
  )

  (symbol (lib_id "power:GND") (at 98.425 100.33 0)
    (in_bom yes) (on_board yes) (fields_autoplaced)
    (uuid 86dccdc2-5054-4766-b610-79668aeddd87)
    (property "Reference" "#PWR0134" (id 0) (at 99.695 99.06 0)
      (effects (font (size 1.27 1.27)) hide)
    )
    (property "Value" "GND" (id 1) (at 98.425 105.41 0))
    (property "Footprint" "" (id 2) (at 98.425 100.33 0)
      (effects (font (size 1.27 1.27)) hide)
    )
    (property "Datasheet" "" (id 3) (at 98.425 100.33 0)
      (effects (font (size 1.27 1.27)) hide)
    )
    (pin "1" (uuid 31b32588-0ef6-438e-864f-d7f03a7d6c00))
  )

  (symbol (lib_id "Connector_Generic:Conn_01x05") (at 74.295 96.52 0)
    (in_bom yes) (on_board yes) (fields_autoplaced)
    (uuid 902b29b6-db0d-4b7c-9ce1-aadbc65ed51d)
    (property "Reference" "J7" (id 0) (at 77.47 95.8849 0)
      (effects (font (size 1.27 1.27)) (justify left))
    )
    (property "Value" "DATA_IN" (id 1) (at 77.47 98.4249 0)
      (effects (font (size 1.27 1.27)) (justify left))
    )
    (property "Footprint" "Connector_PinHeader_2.54mm:PinHeader_1x05_P2.54mm_Vertical" (id 2) (at 74.295 96.52 0)
      (effects (font (size 1.27 1.27)) hide)
    )
    (property "Datasheet" "~" (id 3) (at 74.295 96.52 0)
      (effects (font (size 1.27 1.27)) hide)
    )
    (pin "1" (uuid f257f527-dbd9-41ff-afc0-7582e8c72a62))
    (pin "2" (uuid 2dcd4a48-4b78-4959-bf5c-5ca043141efd))
    (pin "3" (uuid 58365758-37bf-4438-b843-5311ea7f52c2))
    (pin "4" (uuid 799e2c7e-55cd-44be-b164-22aa310cef88))
    (pin "5" (uuid cdbfa642-9e80-43bb-8eeb-ad2688e9677f))
  )

  (symbol (lib_id "power:+5V") (at 64.135 86.995 0)
    (in_bom yes) (on_board yes) (fields_autoplaced)
    (uuid 90ed3cc8-f374-4eaf-9e8e-942022a6b9c9)
    (property "Reference" "#PWR0128" (id 0) (at 65.405 85.725 0)
      (effects (font (size 1.27 1.27)) hide)
    )
    (property "Value" "+5V" (id 1) (at 64.135 83.185 0))
    (property "Footprint" "" (id 2) (at 64.135 86.995 0)
      (effects (font (size 1.27 1.27)) hide)
    )
    (property "Datasheet" "" (id 3) (at 64.135 86.995 0)
      (effects (font (size 1.27 1.27)) hide)
    )
    (pin "1" (uuid e81e7f0d-ac7d-40bb-b8ec-61f691736939))
  )

  (symbol (lib_id "Connector_Generic:Conn_01x05") (at 218.44 99.695 0) (mirror y)
    (in_bom yes) (on_board yes) (fields_autoplaced)
    (uuid a06c83cb-5012-4345-b99f-b72f6593fdd3)
    (property "Reference" "J8" (id 0) (at 220.472 89.535 0))
    (property "Value" "DATA_OUT" (id 1) (at 220.472 92.075 0))
    (property "Footprint" "Connector_PinHeader_2.54mm:PinHeader_1x05_P2.54mm_Vertical" (id 2) (at 218.44 99.695 0)
      (effects (font (size 1.27 1.27)) hide)
    )
    (property "Datasheet" "~" (id 3) (at 218.44 99.695 0)
      (effects (font (size 1.27 1.27)) hide)
    )
    (pin "1" (uuid f257f527-dbd9-41ff-afc0-7582e8c72a63))
    (pin "2" (uuid 2dcd4a48-4b78-4959-bf5c-5ca043141efe))
    (pin "3" (uuid 58365758-37bf-4438-b843-5311ea7f52c3))
    (pin "4" (uuid 799e2c7e-55cd-44be-b164-22aa310cef89))
    (pin "5" (uuid cdbfa642-9e80-43bb-8eeb-ad2688e96780))
  )

  (symbol (lib_id "power:+5V") (at 98.425 92.71 0)
    (in_bom yes) (on_board yes) (fields_autoplaced)
    (uuid db8b6609-fb20-402e-beb9-100c70d5abb8)
    (property "Reference" "#PWR0130" (id 0) (at 99.695 91.44 0)
      (effects (font (size 1.27 1.27)) hide)
    )
    (property "Value" "+5V" (id 1) (at 98.425 88.9 0))
    (property "Footprint" "" (id 2) (at 98.425 92.71 0)
      (effects (font (size 1.27 1.27)) hide)
    )
    (property "Datasheet" "" (id 3) (at 98.425 92.71 0)
      (effects (font (size 1.27 1.27)) hide)
    )
    (pin "1" (uuid 55de6497-74b2-4ca4-97c2-6f43c8983014))
  )
)
