%!PS-Adobe-3.0
%%Creator: PCBNEW
%%CreationDate: Tue Apr 27 14:56:52 2021
%%Title: ()
%%Pages: 1
%%PageOrder: Ascend
%%BoundingBox: 0 0 596 842
%%DocumentMedia: A4 595 842 0 () ()
%%Orientation: Landscape
%%EndComments
%%BeginProlog
/line { newpath moveto lineto stroke } bind def
/cir0 { newpath 0 360 arc stroke } bind def
/cir1 { newpath 0 360 arc gsave fill grestore stroke } bind def
/cir2 { newpath 0 360 arc gsave fill grestore stroke } bind def
/arc0 { newpath arc stroke } bind def
/arc1 { newpath 4 index 4 index moveto arc closepath gsave fill
    grestore stroke } bind def
/arc2 { newpath 4 index 4 index moveto arc closepath gsave fill
    grestore stroke } bind def
/poly0 { stroke } bind def
/poly1 { closepath gsave fill grestore stroke } bind def
/poly2 { closepath gsave fill grestore stroke } bind def
/rect0 { rectstroke } bind def
/rect1 { rectfill } bind def
/rect2 { rectfill } bind def
/linemode0 { 0 setlinecap 0 setlinejoin 0 setlinewidth } bind def
/linemode1 { 1 setlinecap 1 setlinejoin } bind def
/dashedline { [200] 100 setdash } bind def
/solidline { [] 0 setdash } bind def
/phantomshow { moveto
    /KicadFont findfont 0.000001 scalefont setfont
    show } bind def
/textshow { gsave
    findfont exch scalefont setfont concat 1 scale 0 0 moveto show
    } bind def
/reencodefont {
  findfont dup length dict begin
  { 1 index /FID ne
    { def }
    { pop pop } ifelse
  } forall
  /Encoding ISOLatin1Encoding def
  currentdict
  end } bind def
/KicadFont /Helvetica reencodefont definefont pop
/KicadFont-Bold /Helvetica-Bold reencodefont definefont pop
/KicadFont-Oblique /Helvetica-Oblique reencodefont definefont pop
/KicadFont-BoldOblique /Helvetica-BoldOblique reencodefont definefont pop
%%EndProlog
%%Page: 1 1
%%BeginPageSetup
gsave
0.0072 0.0072 scale
linemode1
82680 0 translate 90 rotate
141.178 setlinewidth
%%EndPageSetup
0 0 0 setrgbcolor
70.5889 setlinewidth
newpath
81265.2 35075.8 moveto
35664.8 35075.8 lineto
stroke
0 0 0 setrgbcolor
newpath
81265.2 80676.2 moveto
81265.2 35075.8 lineto
stroke
0 0 0 setrgbcolor
newpath
35664.8 80676.2 moveto
81265.2 80676.2 lineto
stroke
0 0 0 setrgbcolor
newpath
35664.8 35075.8 moveto
35664.8 80676.2 lineto
stroke
141.178 setlinewidth
155.295 setlinewidth
newpath
36930.2 78541.9 moveto
38483.1 76988.9 lineto
stroke
newpath
38483.1 78541.9 moveto
36930.2 76988.9 lineto
stroke
newpath
36930.2 38800.3 moveto
38483.1 37247.4 lineto
stroke
newpath
38483.1 38800.3 moveto
36930.2 37247.4 lineto
stroke
newpath
78365.8 78541.9 moveto
79918.8 76988.9 lineto
stroke
newpath
79918.8 78541.9 moveto
78365.8 76988.9 lineto
stroke
newpath
78365.8 38800.3 moveto
79918.8 37247.4 lineto
stroke
newpath
79918.8 38800.3 moveto
78365.8 37247.4 lineto
stroke
141.178 setlinewidth
78.7405 setlinewidth
0 0 0 setrgbcolor
0 0 0 setrgbcolor
newpath
36643.8 33818.2 moveto
36643.8 34605.6 lineto
36831.2 34605.6 lineto
36943.7 34568.1 lineto
37018.7 34493.1 lineto
37056.2 34418.1 lineto
37093.7 34268.1 lineto
37093.7 34155.6 lineto
37056.2 34005.6 lineto
37018.7 33930.6 lineto
36943.7 33855.7 lineto
36831.2 33818.2 lineto
36643.8 33818.2 lineto
stroke
newpath
37431.2 33818.2 moveto
37431.2 34343.1 lineto
stroke
newpath
37431.2 34193.1 moveto
37468.6 34268.1 lineto
37506.1 34305.6 lineto
37581.1 34343.1 lineto
37656.1 34343.1 lineto
stroke
newpath
37918.6 33818.2 moveto
37918.6 34343.1 lineto
stroke
newpath
37918.6 34605.6 moveto
37881.1 34568.1 lineto
37918.6 34530.6 lineto
37956.1 34568.1 lineto
37918.6 34605.6 lineto
37918.6 34530.6 lineto
stroke
newpath
38406 33818.2 moveto
38331 33855.7 lineto
38293.5 33930.6 lineto
38293.5 34605.6 lineto
stroke
newpath
38818.5 33818.2 moveto
38743.5 33855.7 lineto
38706 33930.6 lineto
38706 34605.6 lineto
stroke
newpath
39718.4 33818.2 moveto
39718.4 34605.6 lineto
39980.8 34043.1 lineto
40243.3 34605.6 lineto
40243.3 33818.2 lineto
stroke
newpath
40955.7 33818.2 moveto
40955.7 34230.6 lineto
40918.2 34305.6 lineto
40843.2 34343.1 lineto
40693.2 34343.1 lineto
40618.3 34305.6 lineto
stroke
newpath
40955.7 33855.7 moveto
40880.7 33818.2 lineto
40693.2 33818.2 lineto
40618.3 33855.7 lineto
40580.8 33930.6 lineto
40580.8 34005.6 lineto
40618.3 34080.6 lineto
40693.2 34118.1 lineto
40880.7 34118.1 lineto
40955.7 34155.6 lineto
stroke
newpath
41330.7 34343.1 moveto
41330.7 33555.7 lineto
stroke
newpath
41330.7 34305.6 moveto
41405.7 34343.1 lineto
41555.6 34343.1 lineto
41630.6 34305.6 lineto
41668.1 34268.1 lineto
41705.6 34193.1 lineto
41705.6 33968.1 lineto
41668.1 33893.1 lineto
41630.6 33855.7 lineto
41555.6 33818.2 lineto
41405.7 33818.2 lineto
41330.7 33855.7 lineto
stroke
newpath
42043.1 33893.1 moveto
42080.6 33855.7 lineto
42043.1 33818.2 lineto
42005.6 33855.7 lineto
42043.1 33893.1 lineto
42043.1 33818.2 lineto
stroke
newpath
42043.1 34305.6 moveto
42080.6 34268.1 lineto
42043.1 34230.6 lineto
42005.6 34268.1 lineto
42043.1 34305.6 lineto
42043.1 34230.6 lineto
stroke
78.7398 setlinewidth
newpath
34842.1 32914.5 moveto
35629.5 32127.1 lineto
stroke
newpath
35629.5 32914.5 moveto
34842.1 32127.1 lineto
stroke
141.178 setlinewidth
78.7405 setlinewidth
0 0 0 setrgbcolor
0 0 0 setrgbcolor
newpath
36606.3 32877 moveto
36643.8 32914.5 lineto
36718.7 32952 lineto
36906.2 32952 lineto
36981.2 32914.5 lineto
37018.7 32877 lineto
37056.2 32802 lineto
37056.2 32727 lineto
37018.7 32614.6 lineto
36568.8 32164.6 lineto
37056.2 32164.6 lineto
stroke
newpath
37393.7 32239.6 moveto
37431.2 32202.1 lineto
37393.7 32164.6 lineto
37356.2 32202.1 lineto
37393.7 32239.6 lineto
37393.7 32164.6 lineto
stroke
newpath
37731.1 32877 moveto
37768.6 32914.5 lineto
37843.6 32952 lineto
38031.1 32952 lineto
38106.1 32914.5 lineto
38143.6 32877 lineto
38181.1 32802 lineto
38181.1 32727 lineto
38143.6 32614.6 lineto
37693.6 32164.6 lineto
38181.1 32164.6 lineto
stroke
newpath
38668.5 32952 moveto
38743.5 32952 lineto
38818.5 32914.5 lineto
38856 32877 lineto
38893.5 32802 lineto
38931 32652.1 lineto
38931 32464.6 lineto
38893.5 32314.6 lineto
38856 32239.6 lineto
38818.5 32202.1 lineto
38743.5 32164.6 lineto
38668.5 32164.6 lineto
38593.5 32202.1 lineto
38556 32239.6 lineto
38518.5 32314.6 lineto
38481 32464.6 lineto
38481 32652.1 lineto
38518.5 32802 lineto
38556 32877 lineto
38593.5 32914.5 lineto
38668.5 32952 lineto
stroke
newpath
39418.4 32952 moveto
39493.4 32952 lineto
39568.4 32914.5 lineto
39605.9 32877 lineto
39643.4 32802 lineto
39680.9 32652.1 lineto
39680.9 32464.6 lineto
39643.4 32314.6 lineto
39605.9 32239.6 lineto
39568.4 32202.1 lineto
39493.4 32164.6 lineto
39418.4 32164.6 lineto
39343.4 32202.1 lineto
39305.9 32239.6 lineto
39268.4 32314.6 lineto
39230.9 32464.6 lineto
39230.9 32652.1 lineto
39268.4 32802 lineto
39305.9 32877 lineto
39343.4 32914.5 lineto
39418.4 32952 lineto
stroke
newpath
40018.3 32164.6 moveto
40018.3 32689.5 lineto
stroke
newpath
40018.3 32614.6 moveto
40055.8 32652.1 lineto
40130.8 32689.5 lineto
40243.3 32689.5 lineto
40318.3 32652.1 lineto
40355.8 32577.1 lineto
40355.8 32164.6 lineto
stroke
newpath
40355.8 32577.1 moveto
40393.3 32652.1 lineto
40468.3 32689.5 lineto
40580.8 32689.5 lineto
40655.8 32652.1 lineto
40693.2 32577.1 lineto
40693.2 32164.6 lineto
stroke
newpath
41068.2 32164.6 moveto
41068.2 32689.5 lineto
stroke
newpath
41068.2 32614.6 moveto
41105.7 32652.1 lineto
41180.7 32689.5 lineto
41293.2 32689.5 lineto
41368.2 32652.1 lineto
41405.7 32577.1 lineto
41405.7 32164.6 lineto
stroke
newpath
41405.7 32577.1 moveto
41443.2 32652.1 lineto
41518.1 32689.5 lineto
41630.6 32689.5 lineto
41705.6 32652.1 lineto
41743.1 32577.1 lineto
41743.1 32164.6 lineto
stroke
newpath
43280.4 32989.5 moveto
42605.5 31977.1 lineto
stroke
newpath
44292.8 32952 moveto
44367.8 32952 lineto
44442.8 32914.5 lineto
44480.3 32877 lineto
44517.8 32802 lineto
44555.3 32652.1 lineto
44555.3 32464.6 lineto
44517.8 32314.6 lineto
44480.3 32239.6 lineto
44442.8 32202.1 lineto
44367.8 32164.6 lineto
44292.8 32164.6 lineto
44217.8 32202.1 lineto
44180.3 32239.6 lineto
44142.8 32314.6 lineto
44105.3 32464.6 lineto
44105.3 32652.1 lineto
44142.8 32802 lineto
44180.3 32877 lineto
44217.8 32914.5 lineto
44292.8 32952 lineto
stroke
newpath
44892.7 32239.6 moveto
44930.2 32202.1 lineto
44892.7 32164.6 lineto
44855.2 32202.1 lineto
44892.7 32239.6 lineto
44892.7 32164.6 lineto
stroke
newpath
45417.7 32952 moveto
45492.6 32952 lineto
45567.6 32914.5 lineto
45605.1 32877 lineto
45642.6 32802 lineto
45680.1 32652.1 lineto
45680.1 32464.6 lineto
45642.6 32314.6 lineto
45605.1 32239.6 lineto
45567.6 32202.1 lineto
45492.6 32164.6 lineto
45417.7 32164.6 lineto
45342.7 32202.1 lineto
45305.2 32239.6 lineto
45267.7 32314.6 lineto
45230.2 32464.6 lineto
45230.2 32652.1 lineto
45267.7 32802 lineto
45305.2 32877 lineto
45342.7 32914.5 lineto
45417.7 32952 lineto
stroke
newpath
46130.1 32614.6 moveto
46055.1 32652.1 lineto
46017.6 32689.5 lineto
45980.1 32764.5 lineto
45980.1 32802 lineto
46017.6 32877 lineto
46055.1 32914.5 lineto
46130.1 32952 lineto
46280.1 32952 lineto
46355 32914.5 lineto
46392.5 32877 lineto
46430 32802 lineto
46430 32764.5 lineto
46392.5 32689.5 lineto
46355 32652.1 lineto
46280.1 32614.6 lineto
46130.1 32614.6 lineto
46055.1 32577.1 lineto
46017.6 32539.6 lineto
45980.1 32464.6 lineto
45980.1 32314.6 lineto
46017.6 32239.6 lineto
46055.1 32202.1 lineto
46130.1 32164.6 lineto
46280.1 32164.6 lineto
46355 32202.1 lineto
46392.5 32239.6 lineto
46430 32314.6 lineto
46430 32464.6 lineto
46392.5 32539.6 lineto
46355 32577.1 lineto
46280.1 32614.6 lineto
stroke
newpath
47104.9 32952 moveto
46955 32952 lineto
46880 32914.5 lineto
46842.5 32877 lineto
46767.5 32764.5 lineto
46730 32614.6 lineto
46730 32314.6 lineto
46767.5 32239.6 lineto
46805 32202.1 lineto
46880 32164.6 lineto
47030 32164.6 lineto
47104.9 32202.1 lineto
47142.4 32239.6 lineto
47179.9 32314.6 lineto
47179.9 32502.1 lineto
47142.4 32577.1 lineto
47104.9 32614.6 lineto
47030 32652.1 lineto
46880 32652.1 lineto
46805 32614.6 lineto
46767.5 32577.1 lineto
46730 32502.1 lineto
stroke
newpath
47854.9 32952 moveto
47704.9 32952 lineto
47629.9 32914.5 lineto
47592.4 32877 lineto
47517.4 32764.5 lineto
47479.9 32614.6 lineto
47479.9 32314.6 lineto
47517.4 32239.6 lineto
47554.9 32202.1 lineto
47629.9 32164.6 lineto
47779.9 32164.6 lineto
47854.9 32202.1 lineto
47892.3 32239.6 lineto
47929.8 32314.6 lineto
47929.8 32502.1 lineto
47892.3 32577.1 lineto
47854.9 32614.6 lineto
47779.9 32652.1 lineto
47629.9 32652.1 lineto
47554.9 32614.6 lineto
47517.4 32577.1 lineto
47479.9 32502.1 lineto
stroke
newpath
48229.8 32952 moveto
48229.8 32802 lineto
stroke
newpath
48529.8 32952 moveto
48529.8 32802 lineto
stroke
newpath
49692.1 31864.6 moveto
49654.6 31902.1 lineto
49579.6 32014.6 lineto
49542.1 32089.6 lineto
49504.6 32202.1 lineto
49467.2 32389.6 lineto
49467.2 32539.6 lineto
49504.6 32727 lineto
49542.1 32839.5 lineto
49579.6 32914.5 lineto
49654.6 33027 lineto
49692.1 33064.5 lineto
stroke
newpath
50329.5 32689.5 moveto
50329.5 32164.6 lineto
stroke
newpath
50142.1 32989.5 moveto
49954.6 32427.1 lineto
50442 32427.1 lineto
stroke
newpath
51341.9 32164.6 moveto
51341.9 32952 lineto
stroke
newpath
51679.4 32164.6 moveto
51679.4 32577.1 lineto
51641.9 32652.1 lineto
51566.9 32689.5 lineto
51454.4 32689.5 lineto
51379.4 32652.1 lineto
51341.9 32614.6 lineto
stroke
newpath
52166.8 32164.6 moveto
52091.8 32202.1 lineto
52054.3 32239.6 lineto
52016.8 32314.6 lineto
52016.8 32539.6 lineto
52054.3 32614.6 lineto
52091.8 32652.1 lineto
52166.8 32689.5 lineto
52279.3 32689.5 lineto
52354.3 32652.1 lineto
52391.8 32614.6 lineto
52429.3 32539.6 lineto
52429.3 32314.6 lineto
52391.8 32239.6 lineto
52354.3 32202.1 lineto
52279.3 32164.6 lineto
52166.8 32164.6 lineto
stroke
newpath
52879.2 32164.6 moveto
52804.2 32202.1 lineto
52766.7 32277.1 lineto
52766.7 32952 lineto
stroke
newpath
53479.2 32202.1 moveto
53404.2 32164.6 lineto
53254.2 32164.6 lineto
53179.2 32202.1 lineto
53141.7 32277.1 lineto
53141.7 32577.1 lineto
53179.2 32652.1 lineto
53254.2 32689.5 lineto
53404.2 32689.5 lineto
53479.2 32652.1 lineto
53516.6 32577.1 lineto
53516.6 32502.1 lineto
53141.7 32427.1 lineto
stroke
newpath
53816.6 32202.1 moveto
53891.6 32164.6 lineto
54041.6 32164.6 lineto
54116.6 32202.1 lineto
54154.1 32277.1 lineto
54154.1 32314.6 lineto
54116.6 32389.6 lineto
54041.6 32427.1 lineto
53929.1 32427.1 lineto
53854.1 32464.6 lineto
53816.6 32539.6 lineto
53816.6 32577.1 lineto
53854.1 32652.1 lineto
53929.1 32689.5 lineto
54041.6 32689.5 lineto
54116.6 32652.1 lineto
stroke
newpath
54416.5 31864.6 moveto
54454 31902.1 lineto
54529 32014.6 lineto
54566.5 32089.6 lineto
54604 32202.1 lineto
54641.5 32389.6 lineto
54641.5 32539.6 lineto
54604 32727 lineto
54566.5 32839.5 lineto
54529 32914.5 lineto
54454 33027 lineto
54416.5 33064.5 lineto
stroke
newpath
55841.4 31864.6 moveto
55803.9 31902.1 lineto
55728.9 32014.6 lineto
55691.4 32089.6 lineto
55653.9 32202.1 lineto
55616.4 32389.6 lineto
55616.4 32539.6 lineto
55653.9 32727 lineto
55691.4 32839.5 lineto
55728.9 32914.5 lineto
55803.9 33027 lineto
55841.4 33064.5 lineto
stroke
newpath
56141.3 32689.5 moveto
56141.3 32164.6 lineto
stroke
newpath
56141.3 32614.6 moveto
56178.8 32652.1 lineto
56253.8 32689.5 lineto
56366.3 32689.5 lineto
56441.3 32652.1 lineto
56478.8 32577.1 lineto
56478.8 32164.6 lineto
stroke
newpath
56966.2 32164.6 moveto
56891.2 32202.1 lineto
56853.7 32239.6 lineto
56816.2 32314.6 lineto
56816.2 32539.6 lineto
56853.7 32614.6 lineto
56891.2 32652.1 lineto
56966.2 32689.5 lineto
57078.7 32689.5 lineto
57153.7 32652.1 lineto
57191.2 32614.6 lineto
57228.7 32539.6 lineto
57228.7 32314.6 lineto
57191.2 32239.6 lineto
57153.7 32202.1 lineto
57078.7 32164.6 lineto
56966.2 32164.6 lineto
stroke
newpath
57453.7 32689.5 moveto
57753.6 32689.5 lineto
stroke
newpath
57566.1 32952 moveto
57566.1 32277.1 lineto
57603.6 32202.1 lineto
57678.6 32164.6 lineto
57753.6 32164.6 lineto
stroke
newpath
58616 32689.5 moveto
58616 31902.1 lineto
stroke
newpath
58616 32652.1 moveto
58691 32689.5 lineto
58841 32689.5 lineto
58916 32652.1 lineto
58953.5 32614.6 lineto
58991 32539.6 lineto
58991 32314.6 lineto
58953.5 32239.6 lineto
58916 32202.1 lineto
58841 32164.6 lineto
58691 32164.6 lineto
58616 32202.1 lineto
stroke
newpath
59440.9 32164.6 moveto
59365.9 32202.1 lineto
59328.4 32277.1 lineto
59328.4 32952 lineto
stroke
newpath
60078.3 32164.6 moveto
60078.3 32577.1 lineto
60040.8 32652.1 lineto
59965.8 32689.5 lineto
59815.9 32689.5 lineto
59740.9 32652.1 lineto
stroke
newpath
60078.3 32202.1 moveto
60003.3 32164.6 lineto
59815.9 32164.6 lineto
59740.9 32202.1 lineto
59703.4 32277.1 lineto
59703.4 32352.1 lineto
59740.9 32427.1 lineto
59815.9 32464.6 lineto
60003.3 32464.6 lineto
60078.3 32502.1 lineto
stroke
newpath
60340.8 32689.5 moveto
60640.8 32689.5 lineto
stroke
newpath
60453.3 32952 moveto
60453.3 32277.1 lineto
60490.8 32202.1 lineto
60565.8 32164.6 lineto
60640.8 32164.6 lineto
stroke
newpath
61203.2 32202.1 moveto
61128.2 32164.6 lineto
60978.2 32164.6 lineto
60903.2 32202.1 lineto
60865.7 32277.1 lineto
60865.7 32577.1 lineto
60903.2 32652.1 lineto
60978.2 32689.5 lineto
61128.2 32689.5 lineto
61203.2 32652.1 lineto
61240.7 32577.1 lineto
61240.7 32502.1 lineto
60865.7 32427.1 lineto
stroke
newpath
61915.6 32164.6 moveto
61915.6 32952 lineto
stroke
newpath
61915.6 32202.1 moveto
61840.6 32164.6 lineto
61690.6 32164.6 lineto
61615.6 32202.1 lineto
61578.1 32239.6 lineto
61540.6 32314.6 lineto
61540.6 32539.6 lineto
61578.1 32614.6 lineto
61615.6 32652.1 lineto
61690.6 32689.5 lineto
61840.6 32689.5 lineto
61915.6 32652.1 lineto
stroke
newpath
62215.6 31864.6 moveto
62253.1 31902.1 lineto
62328 32014.6 lineto
62365.5 32089.6 lineto
62403 32202.1 lineto
62440.5 32389.6 lineto
62440.5 32539.6 lineto
62403 32727 lineto
62365.5 32839.5 lineto
62328 32914.5 lineto
62253.1 33027 lineto
62215.6 33064.5 lineto
stroke
showpage
grestore
%%EOF
