G04 #@! TF.GenerationSoftware,KiCad,Pcbnew,5.99.0-unknown-1e8b23402c~127~ubuntu20.04.1*
G04 #@! TF.CreationDate,2021-04-27T14:56:56-05:00*
G04 #@! TF.ProjectId,16x16matrix,31367831-366d-4617-9472-69782e6b6963,1.0*
G04 #@! TF.SameCoordinates,Original*
G04 #@! TF.FileFunction,Paste,Top*
G04 #@! TF.FilePolarity,Positive*
%FSLAX46Y46*%
G04 Gerber Fmt 4.6, Leading zero omitted, Abs format (unit mm)*
G04 Created by KiCad (PCBNEW 5.99.0-unknown-1e8b23402c~127~ubuntu20.04.1) date 2021-04-27 14:56:56*
%MOMM*%
%LPD*%
G01*
G04 APERTURE LIST*
G04 APERTURE END LIST*
G36*
G01*
X169162500Y-113800000D02*
X169637500Y-113800000D01*
G75*
G02*
X169875000Y-114037500I0J-237500D01*
G01*
X169875000Y-114612500D01*
G75*
G02*
X169637500Y-114850000I-237500J0D01*
G01*
X169162500Y-114850000D01*
G75*
G02*
X168925000Y-114612500I0J237500D01*
G01*
X168925000Y-114037500D01*
G75*
G02*
X169162500Y-113800000I237500J0D01*
G01*
G37*
G36*
G01*
X169162500Y-115550000D02*
X169637500Y-115550000D01*
G75*
G02*
X169875000Y-115787500I0J-237500D01*
G01*
X169875000Y-116362500D01*
G75*
G02*
X169637500Y-116600000I-237500J0D01*
G01*
X169162500Y-116600000D01*
G75*
G02*
X168925000Y-116362500I0J237500D01*
G01*
X168925000Y-115787500D01*
G75*
G02*
X169162500Y-115550000I237500J0D01*
G01*
G37*
G36*
G01*
X151512500Y-77600000D02*
X151987500Y-77600000D01*
G75*
G02*
X152225000Y-77837500I0J-237500D01*
G01*
X152225000Y-78437500D01*
G75*
G02*
X151987500Y-78675000I-237500J0D01*
G01*
X151512500Y-78675000D01*
G75*
G02*
X151275000Y-78437500I0J237500D01*
G01*
X151275000Y-77837500D01*
G75*
G02*
X151512500Y-77600000I237500J0D01*
G01*
G37*
G36*
G01*
X151512500Y-79325000D02*
X151987500Y-79325000D01*
G75*
G02*
X152225000Y-79562500I0J-237500D01*
G01*
X152225000Y-80162500D01*
G75*
G02*
X151987500Y-80400000I-237500J0D01*
G01*
X151512500Y-80400000D01*
G75*
G02*
X151275000Y-80162500I0J237500D01*
G01*
X151275000Y-79562500D01*
G75*
G02*
X151512500Y-79325000I237500J0D01*
G01*
G37*
G36*
G01*
X151512500Y-110100000D02*
X151987500Y-110100000D01*
G75*
G02*
X152225000Y-110337500I0J-237500D01*
G01*
X152225000Y-110937500D01*
G75*
G02*
X151987500Y-111175000I-237500J0D01*
G01*
X151512500Y-111175000D01*
G75*
G02*
X151275000Y-110937500I0J237500D01*
G01*
X151275000Y-110337500D01*
G75*
G02*
X151512500Y-110100000I237500J0D01*
G01*
G37*
G36*
G01*
X151512500Y-111825000D02*
X151987500Y-111825000D01*
G75*
G02*
X152225000Y-112062500I0J-237500D01*
G01*
X152225000Y-112662500D01*
G75*
G02*
X151987500Y-112900000I-237500J0D01*
G01*
X151512500Y-112900000D01*
G75*
G02*
X151275000Y-112662500I0J237500D01*
G01*
X151275000Y-112062500D01*
G75*
G02*
X151512500Y-111825000I237500J0D01*
G01*
G37*
G36*
G01*
X137162500Y-81575000D02*
X137637500Y-81575000D01*
G75*
G02*
X137875000Y-81812500I0J-237500D01*
G01*
X137875000Y-82387500D01*
G75*
G02*
X137637500Y-82625000I-237500J0D01*
G01*
X137162500Y-82625000D01*
G75*
G02*
X136925000Y-82387500I0J237500D01*
G01*
X136925000Y-81812500D01*
G75*
G02*
X137162500Y-81575000I237500J0D01*
G01*
G37*
G36*
G01*
X137162500Y-83325000D02*
X137637500Y-83325000D01*
G75*
G02*
X137875000Y-83562500I0J-237500D01*
G01*
X137875000Y-84137500D01*
G75*
G02*
X137637500Y-84375000I-237500J0D01*
G01*
X137162500Y-84375000D01*
G75*
G02*
X136925000Y-84137500I0J237500D01*
G01*
X136925000Y-83562500D01*
G75*
G02*
X137162500Y-83325000I237500J0D01*
G01*
G37*
G36*
G01*
X124357400Y-76028900D02*
X124357400Y-75753900D01*
G75*
G02*
X124494900Y-75616400I137500J0D01*
G01*
X126219900Y-75616400D01*
G75*
G02*
X126357400Y-75753900I0J-137500D01*
G01*
X126357400Y-76028900D01*
G75*
G02*
X126219900Y-76166400I-137500J0D01*
G01*
X124494900Y-76166400D01*
G75*
G02*
X124357400Y-76028900I0J137500D01*
G01*
G37*
G36*
G01*
X124357400Y-77298900D02*
X124357400Y-77023900D01*
G75*
G02*
X124494900Y-76886400I137500J0D01*
G01*
X126219900Y-76886400D01*
G75*
G02*
X126357400Y-77023900I0J-137500D01*
G01*
X126357400Y-77298900D01*
G75*
G02*
X126219900Y-77436400I-137500J0D01*
G01*
X124494900Y-77436400D01*
G75*
G02*
X124357400Y-77298900I0J137500D01*
G01*
G37*
G36*
G01*
X124357400Y-78568900D02*
X124357400Y-78293900D01*
G75*
G02*
X124494900Y-78156400I137500J0D01*
G01*
X126219900Y-78156400D01*
G75*
G02*
X126357400Y-78293900I0J-137500D01*
G01*
X126357400Y-78568900D01*
G75*
G02*
X126219900Y-78706400I-137500J0D01*
G01*
X124494900Y-78706400D01*
G75*
G02*
X124357400Y-78568900I0J137500D01*
G01*
G37*
G36*
G01*
X124357400Y-79838900D02*
X124357400Y-79563900D01*
G75*
G02*
X124494900Y-79426400I137500J0D01*
G01*
X126219900Y-79426400D01*
G75*
G02*
X126357400Y-79563900I0J-137500D01*
G01*
X126357400Y-79838900D01*
G75*
G02*
X126219900Y-79976400I-137500J0D01*
G01*
X124494900Y-79976400D01*
G75*
G02*
X124357400Y-79838900I0J137500D01*
G01*
G37*
G36*
G01*
X124357400Y-81108900D02*
X124357400Y-80833900D01*
G75*
G02*
X124494900Y-80696400I137500J0D01*
G01*
X126219900Y-80696400D01*
G75*
G02*
X126357400Y-80833900I0J-137500D01*
G01*
X126357400Y-81108900D01*
G75*
G02*
X126219900Y-81246400I-137500J0D01*
G01*
X124494900Y-81246400D01*
G75*
G02*
X124357400Y-81108900I0J137500D01*
G01*
G37*
G36*
G01*
X124357400Y-82378900D02*
X124357400Y-82103900D01*
G75*
G02*
X124494900Y-81966400I137500J0D01*
G01*
X126219900Y-81966400D01*
G75*
G02*
X126357400Y-82103900I0J-137500D01*
G01*
X126357400Y-82378900D01*
G75*
G02*
X126219900Y-82516400I-137500J0D01*
G01*
X124494900Y-82516400D01*
G75*
G02*
X124357400Y-82378900I0J137500D01*
G01*
G37*
G36*
G01*
X124357400Y-83648900D02*
X124357400Y-83373900D01*
G75*
G02*
X124494900Y-83236400I137500J0D01*
G01*
X126219900Y-83236400D01*
G75*
G02*
X126357400Y-83373900I0J-137500D01*
G01*
X126357400Y-83648900D01*
G75*
G02*
X126219900Y-83786400I-137500J0D01*
G01*
X124494900Y-83786400D01*
G75*
G02*
X124357400Y-83648900I0J137500D01*
G01*
G37*
G36*
G01*
X124357400Y-84918900D02*
X124357400Y-84643900D01*
G75*
G02*
X124494900Y-84506400I137500J0D01*
G01*
X126219900Y-84506400D01*
G75*
G02*
X126357400Y-84643900I0J-137500D01*
G01*
X126357400Y-84918900D01*
G75*
G02*
X126219900Y-85056400I-137500J0D01*
G01*
X124494900Y-85056400D01*
G75*
G02*
X124357400Y-84918900I0J137500D01*
G01*
G37*
G36*
G01*
X124357400Y-86188900D02*
X124357400Y-85913900D01*
G75*
G02*
X124494900Y-85776400I137500J0D01*
G01*
X126219900Y-85776400D01*
G75*
G02*
X126357400Y-85913900I0J-137500D01*
G01*
X126357400Y-86188900D01*
G75*
G02*
X126219900Y-86326400I-137500J0D01*
G01*
X124494900Y-86326400D01*
G75*
G02*
X124357400Y-86188900I0J137500D01*
G01*
G37*
G36*
G01*
X124357400Y-87458900D02*
X124357400Y-87183900D01*
G75*
G02*
X124494900Y-87046400I137500J0D01*
G01*
X126219900Y-87046400D01*
G75*
G02*
X126357400Y-87183900I0J-137500D01*
G01*
X126357400Y-87458900D01*
G75*
G02*
X126219900Y-87596400I-137500J0D01*
G01*
X124494900Y-87596400D01*
G75*
G02*
X124357400Y-87458900I0J137500D01*
G01*
G37*
G36*
G01*
X124357400Y-88728900D02*
X124357400Y-88453900D01*
G75*
G02*
X124494900Y-88316400I137500J0D01*
G01*
X126219900Y-88316400D01*
G75*
G02*
X126357400Y-88453900I0J-137500D01*
G01*
X126357400Y-88728900D01*
G75*
G02*
X126219900Y-88866400I-137500J0D01*
G01*
X124494900Y-88866400D01*
G75*
G02*
X124357400Y-88728900I0J137500D01*
G01*
G37*
G36*
G01*
X124357400Y-89998900D02*
X124357400Y-89723900D01*
G75*
G02*
X124494900Y-89586400I137500J0D01*
G01*
X126219900Y-89586400D01*
G75*
G02*
X126357400Y-89723900I0J-137500D01*
G01*
X126357400Y-89998900D01*
G75*
G02*
X126219900Y-90136400I-137500J0D01*
G01*
X124494900Y-90136400D01*
G75*
G02*
X124357400Y-89998900I0J137500D01*
G01*
G37*
G36*
G01*
X133657400Y-89998900D02*
X133657400Y-89723900D01*
G75*
G02*
X133794900Y-89586400I137500J0D01*
G01*
X135519900Y-89586400D01*
G75*
G02*
X135657400Y-89723900I0J-137500D01*
G01*
X135657400Y-89998900D01*
G75*
G02*
X135519900Y-90136400I-137500J0D01*
G01*
X133794900Y-90136400D01*
G75*
G02*
X133657400Y-89998900I0J137500D01*
G01*
G37*
G36*
G01*
X133657400Y-88728900D02*
X133657400Y-88453900D01*
G75*
G02*
X133794900Y-88316400I137500J0D01*
G01*
X135519900Y-88316400D01*
G75*
G02*
X135657400Y-88453900I0J-137500D01*
G01*
X135657400Y-88728900D01*
G75*
G02*
X135519900Y-88866400I-137500J0D01*
G01*
X133794900Y-88866400D01*
G75*
G02*
X133657400Y-88728900I0J137500D01*
G01*
G37*
G36*
G01*
X133657400Y-87458900D02*
X133657400Y-87183900D01*
G75*
G02*
X133794900Y-87046400I137500J0D01*
G01*
X135519900Y-87046400D01*
G75*
G02*
X135657400Y-87183900I0J-137500D01*
G01*
X135657400Y-87458900D01*
G75*
G02*
X135519900Y-87596400I-137500J0D01*
G01*
X133794900Y-87596400D01*
G75*
G02*
X133657400Y-87458900I0J137500D01*
G01*
G37*
G36*
G01*
X133657400Y-86188900D02*
X133657400Y-85913900D01*
G75*
G02*
X133794900Y-85776400I137500J0D01*
G01*
X135519900Y-85776400D01*
G75*
G02*
X135657400Y-85913900I0J-137500D01*
G01*
X135657400Y-86188900D01*
G75*
G02*
X135519900Y-86326400I-137500J0D01*
G01*
X133794900Y-86326400D01*
G75*
G02*
X133657400Y-86188900I0J137500D01*
G01*
G37*
G36*
G01*
X133657400Y-84918900D02*
X133657400Y-84643900D01*
G75*
G02*
X133794900Y-84506400I137500J0D01*
G01*
X135519900Y-84506400D01*
G75*
G02*
X135657400Y-84643900I0J-137500D01*
G01*
X135657400Y-84918900D01*
G75*
G02*
X135519900Y-85056400I-137500J0D01*
G01*
X133794900Y-85056400D01*
G75*
G02*
X133657400Y-84918900I0J137500D01*
G01*
G37*
G36*
G01*
X133657400Y-83648900D02*
X133657400Y-83373900D01*
G75*
G02*
X133794900Y-83236400I137500J0D01*
G01*
X135519900Y-83236400D01*
G75*
G02*
X135657400Y-83373900I0J-137500D01*
G01*
X135657400Y-83648900D01*
G75*
G02*
X135519900Y-83786400I-137500J0D01*
G01*
X133794900Y-83786400D01*
G75*
G02*
X133657400Y-83648900I0J137500D01*
G01*
G37*
G36*
G01*
X133657400Y-82378900D02*
X133657400Y-82103900D01*
G75*
G02*
X133794900Y-81966400I137500J0D01*
G01*
X135519900Y-81966400D01*
G75*
G02*
X135657400Y-82103900I0J-137500D01*
G01*
X135657400Y-82378900D01*
G75*
G02*
X135519900Y-82516400I-137500J0D01*
G01*
X133794900Y-82516400D01*
G75*
G02*
X133657400Y-82378900I0J137500D01*
G01*
G37*
G36*
G01*
X133657400Y-81108900D02*
X133657400Y-80833900D01*
G75*
G02*
X133794900Y-80696400I137500J0D01*
G01*
X135519900Y-80696400D01*
G75*
G02*
X135657400Y-80833900I0J-137500D01*
G01*
X135657400Y-81108900D01*
G75*
G02*
X135519900Y-81246400I-137500J0D01*
G01*
X133794900Y-81246400D01*
G75*
G02*
X133657400Y-81108900I0J137500D01*
G01*
G37*
G36*
G01*
X133657400Y-79838900D02*
X133657400Y-79563900D01*
G75*
G02*
X133794900Y-79426400I137500J0D01*
G01*
X135519900Y-79426400D01*
G75*
G02*
X135657400Y-79563900I0J-137500D01*
G01*
X135657400Y-79838900D01*
G75*
G02*
X135519900Y-79976400I-137500J0D01*
G01*
X133794900Y-79976400D01*
G75*
G02*
X133657400Y-79838900I0J137500D01*
G01*
G37*
G36*
G01*
X133657400Y-78568900D02*
X133657400Y-78293900D01*
G75*
G02*
X133794900Y-78156400I137500J0D01*
G01*
X135519900Y-78156400D01*
G75*
G02*
X135657400Y-78293900I0J-137500D01*
G01*
X135657400Y-78568900D01*
G75*
G02*
X135519900Y-78706400I-137500J0D01*
G01*
X133794900Y-78706400D01*
G75*
G02*
X133657400Y-78568900I0J137500D01*
G01*
G37*
G36*
G01*
X133657400Y-77298900D02*
X133657400Y-77023900D01*
G75*
G02*
X133794900Y-76886400I137500J0D01*
G01*
X135519900Y-76886400D01*
G75*
G02*
X135657400Y-77023900I0J-137500D01*
G01*
X135657400Y-77298900D01*
G75*
G02*
X135519900Y-77436400I-137500J0D01*
G01*
X133794900Y-77436400D01*
G75*
G02*
X133657400Y-77298900I0J137500D01*
G01*
G37*
G36*
G01*
X133657400Y-76028900D02*
X133657400Y-75753900D01*
G75*
G02*
X133794900Y-75616400I137500J0D01*
G01*
X135519900Y-75616400D01*
G75*
G02*
X135657400Y-75753900I0J-137500D01*
G01*
X135657400Y-76028900D01*
G75*
G02*
X135519900Y-76166400I-137500J0D01*
G01*
X133794900Y-76166400D01*
G75*
G02*
X133657400Y-76028900I0J137500D01*
G01*
G37*
G36*
G01*
X156357400Y-108328900D02*
X156357400Y-108053900D01*
G75*
G02*
X156494900Y-107916400I137500J0D01*
G01*
X158219900Y-107916400D01*
G75*
G02*
X158357400Y-108053900I0J-137500D01*
G01*
X158357400Y-108328900D01*
G75*
G02*
X158219900Y-108466400I-137500J0D01*
G01*
X156494900Y-108466400D01*
G75*
G02*
X156357400Y-108328900I0J137500D01*
G01*
G37*
G36*
G01*
X156357400Y-109598900D02*
X156357400Y-109323900D01*
G75*
G02*
X156494900Y-109186400I137500J0D01*
G01*
X158219900Y-109186400D01*
G75*
G02*
X158357400Y-109323900I0J-137500D01*
G01*
X158357400Y-109598900D01*
G75*
G02*
X158219900Y-109736400I-137500J0D01*
G01*
X156494900Y-109736400D01*
G75*
G02*
X156357400Y-109598900I0J137500D01*
G01*
G37*
G36*
G01*
X156357400Y-110868900D02*
X156357400Y-110593900D01*
G75*
G02*
X156494900Y-110456400I137500J0D01*
G01*
X158219900Y-110456400D01*
G75*
G02*
X158357400Y-110593900I0J-137500D01*
G01*
X158357400Y-110868900D01*
G75*
G02*
X158219900Y-111006400I-137500J0D01*
G01*
X156494900Y-111006400D01*
G75*
G02*
X156357400Y-110868900I0J137500D01*
G01*
G37*
G36*
G01*
X156357400Y-112138900D02*
X156357400Y-111863900D01*
G75*
G02*
X156494900Y-111726400I137500J0D01*
G01*
X158219900Y-111726400D01*
G75*
G02*
X158357400Y-111863900I0J-137500D01*
G01*
X158357400Y-112138900D01*
G75*
G02*
X158219900Y-112276400I-137500J0D01*
G01*
X156494900Y-112276400D01*
G75*
G02*
X156357400Y-112138900I0J137500D01*
G01*
G37*
G36*
G01*
X156357400Y-113408900D02*
X156357400Y-113133900D01*
G75*
G02*
X156494900Y-112996400I137500J0D01*
G01*
X158219900Y-112996400D01*
G75*
G02*
X158357400Y-113133900I0J-137500D01*
G01*
X158357400Y-113408900D01*
G75*
G02*
X158219900Y-113546400I-137500J0D01*
G01*
X156494900Y-113546400D01*
G75*
G02*
X156357400Y-113408900I0J137500D01*
G01*
G37*
G36*
G01*
X156357400Y-114678900D02*
X156357400Y-114403900D01*
G75*
G02*
X156494900Y-114266400I137500J0D01*
G01*
X158219900Y-114266400D01*
G75*
G02*
X158357400Y-114403900I0J-137500D01*
G01*
X158357400Y-114678900D01*
G75*
G02*
X158219900Y-114816400I-137500J0D01*
G01*
X156494900Y-114816400D01*
G75*
G02*
X156357400Y-114678900I0J137500D01*
G01*
G37*
G36*
G01*
X156357400Y-115948900D02*
X156357400Y-115673900D01*
G75*
G02*
X156494900Y-115536400I137500J0D01*
G01*
X158219900Y-115536400D01*
G75*
G02*
X158357400Y-115673900I0J-137500D01*
G01*
X158357400Y-115948900D01*
G75*
G02*
X158219900Y-116086400I-137500J0D01*
G01*
X156494900Y-116086400D01*
G75*
G02*
X156357400Y-115948900I0J137500D01*
G01*
G37*
G36*
G01*
X156357400Y-117218900D02*
X156357400Y-116943900D01*
G75*
G02*
X156494900Y-116806400I137500J0D01*
G01*
X158219900Y-116806400D01*
G75*
G02*
X158357400Y-116943900I0J-137500D01*
G01*
X158357400Y-117218900D01*
G75*
G02*
X158219900Y-117356400I-137500J0D01*
G01*
X156494900Y-117356400D01*
G75*
G02*
X156357400Y-117218900I0J137500D01*
G01*
G37*
G36*
G01*
X156357400Y-118488900D02*
X156357400Y-118213900D01*
G75*
G02*
X156494900Y-118076400I137500J0D01*
G01*
X158219900Y-118076400D01*
G75*
G02*
X158357400Y-118213900I0J-137500D01*
G01*
X158357400Y-118488900D01*
G75*
G02*
X158219900Y-118626400I-137500J0D01*
G01*
X156494900Y-118626400D01*
G75*
G02*
X156357400Y-118488900I0J137500D01*
G01*
G37*
G36*
G01*
X156357400Y-119758900D02*
X156357400Y-119483900D01*
G75*
G02*
X156494900Y-119346400I137500J0D01*
G01*
X158219900Y-119346400D01*
G75*
G02*
X158357400Y-119483900I0J-137500D01*
G01*
X158357400Y-119758900D01*
G75*
G02*
X158219900Y-119896400I-137500J0D01*
G01*
X156494900Y-119896400D01*
G75*
G02*
X156357400Y-119758900I0J137500D01*
G01*
G37*
G36*
G01*
X156357400Y-121028900D02*
X156357400Y-120753900D01*
G75*
G02*
X156494900Y-120616400I137500J0D01*
G01*
X158219900Y-120616400D01*
G75*
G02*
X158357400Y-120753900I0J-137500D01*
G01*
X158357400Y-121028900D01*
G75*
G02*
X158219900Y-121166400I-137500J0D01*
G01*
X156494900Y-121166400D01*
G75*
G02*
X156357400Y-121028900I0J137500D01*
G01*
G37*
G36*
G01*
X156357400Y-122298900D02*
X156357400Y-122023900D01*
G75*
G02*
X156494900Y-121886400I137500J0D01*
G01*
X158219900Y-121886400D01*
G75*
G02*
X158357400Y-122023900I0J-137500D01*
G01*
X158357400Y-122298900D01*
G75*
G02*
X158219900Y-122436400I-137500J0D01*
G01*
X156494900Y-122436400D01*
G75*
G02*
X156357400Y-122298900I0J137500D01*
G01*
G37*
G36*
G01*
X165657400Y-122298900D02*
X165657400Y-122023900D01*
G75*
G02*
X165794900Y-121886400I137500J0D01*
G01*
X167519900Y-121886400D01*
G75*
G02*
X167657400Y-122023900I0J-137500D01*
G01*
X167657400Y-122298900D01*
G75*
G02*
X167519900Y-122436400I-137500J0D01*
G01*
X165794900Y-122436400D01*
G75*
G02*
X165657400Y-122298900I0J137500D01*
G01*
G37*
G36*
G01*
X165657400Y-121028900D02*
X165657400Y-120753900D01*
G75*
G02*
X165794900Y-120616400I137500J0D01*
G01*
X167519900Y-120616400D01*
G75*
G02*
X167657400Y-120753900I0J-137500D01*
G01*
X167657400Y-121028900D01*
G75*
G02*
X167519900Y-121166400I-137500J0D01*
G01*
X165794900Y-121166400D01*
G75*
G02*
X165657400Y-121028900I0J137500D01*
G01*
G37*
G36*
G01*
X165657400Y-119758900D02*
X165657400Y-119483900D01*
G75*
G02*
X165794900Y-119346400I137500J0D01*
G01*
X167519900Y-119346400D01*
G75*
G02*
X167657400Y-119483900I0J-137500D01*
G01*
X167657400Y-119758900D01*
G75*
G02*
X167519900Y-119896400I-137500J0D01*
G01*
X165794900Y-119896400D01*
G75*
G02*
X165657400Y-119758900I0J137500D01*
G01*
G37*
G36*
G01*
X165657400Y-118488900D02*
X165657400Y-118213900D01*
G75*
G02*
X165794900Y-118076400I137500J0D01*
G01*
X167519900Y-118076400D01*
G75*
G02*
X167657400Y-118213900I0J-137500D01*
G01*
X167657400Y-118488900D01*
G75*
G02*
X167519900Y-118626400I-137500J0D01*
G01*
X165794900Y-118626400D01*
G75*
G02*
X165657400Y-118488900I0J137500D01*
G01*
G37*
G36*
G01*
X165657400Y-117218900D02*
X165657400Y-116943900D01*
G75*
G02*
X165794900Y-116806400I137500J0D01*
G01*
X167519900Y-116806400D01*
G75*
G02*
X167657400Y-116943900I0J-137500D01*
G01*
X167657400Y-117218900D01*
G75*
G02*
X167519900Y-117356400I-137500J0D01*
G01*
X165794900Y-117356400D01*
G75*
G02*
X165657400Y-117218900I0J137500D01*
G01*
G37*
G36*
G01*
X165657400Y-115948900D02*
X165657400Y-115673900D01*
G75*
G02*
X165794900Y-115536400I137500J0D01*
G01*
X167519900Y-115536400D01*
G75*
G02*
X167657400Y-115673900I0J-137500D01*
G01*
X167657400Y-115948900D01*
G75*
G02*
X167519900Y-116086400I-137500J0D01*
G01*
X165794900Y-116086400D01*
G75*
G02*
X165657400Y-115948900I0J137500D01*
G01*
G37*
G36*
G01*
X165657400Y-114678900D02*
X165657400Y-114403900D01*
G75*
G02*
X165794900Y-114266400I137500J0D01*
G01*
X167519900Y-114266400D01*
G75*
G02*
X167657400Y-114403900I0J-137500D01*
G01*
X167657400Y-114678900D01*
G75*
G02*
X167519900Y-114816400I-137500J0D01*
G01*
X165794900Y-114816400D01*
G75*
G02*
X165657400Y-114678900I0J137500D01*
G01*
G37*
G36*
G01*
X165657400Y-113408900D02*
X165657400Y-113133900D01*
G75*
G02*
X165794900Y-112996400I137500J0D01*
G01*
X167519900Y-112996400D01*
G75*
G02*
X167657400Y-113133900I0J-137500D01*
G01*
X167657400Y-113408900D01*
G75*
G02*
X167519900Y-113546400I-137500J0D01*
G01*
X165794900Y-113546400D01*
G75*
G02*
X165657400Y-113408900I0J137500D01*
G01*
G37*
G36*
G01*
X165657400Y-112138900D02*
X165657400Y-111863900D01*
G75*
G02*
X165794900Y-111726400I137500J0D01*
G01*
X167519900Y-111726400D01*
G75*
G02*
X167657400Y-111863900I0J-137500D01*
G01*
X167657400Y-112138900D01*
G75*
G02*
X167519900Y-112276400I-137500J0D01*
G01*
X165794900Y-112276400D01*
G75*
G02*
X165657400Y-112138900I0J137500D01*
G01*
G37*
G36*
G01*
X165657400Y-110868900D02*
X165657400Y-110593900D01*
G75*
G02*
X165794900Y-110456400I137500J0D01*
G01*
X167519900Y-110456400D01*
G75*
G02*
X167657400Y-110593900I0J-137500D01*
G01*
X167657400Y-110868900D01*
G75*
G02*
X167519900Y-111006400I-137500J0D01*
G01*
X165794900Y-111006400D01*
G75*
G02*
X165657400Y-110868900I0J137500D01*
G01*
G37*
G36*
G01*
X165657400Y-109598900D02*
X165657400Y-109323900D01*
G75*
G02*
X165794900Y-109186400I137500J0D01*
G01*
X167519900Y-109186400D01*
G75*
G02*
X167657400Y-109323900I0J-137500D01*
G01*
X167657400Y-109598900D01*
G75*
G02*
X167519900Y-109736400I-137500J0D01*
G01*
X165794900Y-109736400D01*
G75*
G02*
X165657400Y-109598900I0J137500D01*
G01*
G37*
G36*
G01*
X165657400Y-108328900D02*
X165657400Y-108053900D01*
G75*
G02*
X165794900Y-107916400I137500J0D01*
G01*
X167519900Y-107916400D01*
G75*
G02*
X167657400Y-108053900I0J-137500D01*
G01*
X167657400Y-108328900D01*
G75*
G02*
X167519900Y-108466400I-137500J0D01*
G01*
X165794900Y-108466400D01*
G75*
G02*
X165657400Y-108328900I0J137500D01*
G01*
G37*
G36*
G01*
X124357400Y-108328900D02*
X124357400Y-108053900D01*
G75*
G02*
X124494900Y-107916400I137500J0D01*
G01*
X126219900Y-107916400D01*
G75*
G02*
X126357400Y-108053900I0J-137500D01*
G01*
X126357400Y-108328900D01*
G75*
G02*
X126219900Y-108466400I-137500J0D01*
G01*
X124494900Y-108466400D01*
G75*
G02*
X124357400Y-108328900I0J137500D01*
G01*
G37*
G36*
G01*
X124357400Y-109598900D02*
X124357400Y-109323900D01*
G75*
G02*
X124494900Y-109186400I137500J0D01*
G01*
X126219900Y-109186400D01*
G75*
G02*
X126357400Y-109323900I0J-137500D01*
G01*
X126357400Y-109598900D01*
G75*
G02*
X126219900Y-109736400I-137500J0D01*
G01*
X124494900Y-109736400D01*
G75*
G02*
X124357400Y-109598900I0J137500D01*
G01*
G37*
G36*
G01*
X124357400Y-110868900D02*
X124357400Y-110593900D01*
G75*
G02*
X124494900Y-110456400I137500J0D01*
G01*
X126219900Y-110456400D01*
G75*
G02*
X126357400Y-110593900I0J-137500D01*
G01*
X126357400Y-110868900D01*
G75*
G02*
X126219900Y-111006400I-137500J0D01*
G01*
X124494900Y-111006400D01*
G75*
G02*
X124357400Y-110868900I0J137500D01*
G01*
G37*
G36*
G01*
X124357400Y-112138900D02*
X124357400Y-111863900D01*
G75*
G02*
X124494900Y-111726400I137500J0D01*
G01*
X126219900Y-111726400D01*
G75*
G02*
X126357400Y-111863900I0J-137500D01*
G01*
X126357400Y-112138900D01*
G75*
G02*
X126219900Y-112276400I-137500J0D01*
G01*
X124494900Y-112276400D01*
G75*
G02*
X124357400Y-112138900I0J137500D01*
G01*
G37*
G36*
G01*
X124357400Y-113408900D02*
X124357400Y-113133900D01*
G75*
G02*
X124494900Y-112996400I137500J0D01*
G01*
X126219900Y-112996400D01*
G75*
G02*
X126357400Y-113133900I0J-137500D01*
G01*
X126357400Y-113408900D01*
G75*
G02*
X126219900Y-113546400I-137500J0D01*
G01*
X124494900Y-113546400D01*
G75*
G02*
X124357400Y-113408900I0J137500D01*
G01*
G37*
G36*
G01*
X124357400Y-114678900D02*
X124357400Y-114403900D01*
G75*
G02*
X124494900Y-114266400I137500J0D01*
G01*
X126219900Y-114266400D01*
G75*
G02*
X126357400Y-114403900I0J-137500D01*
G01*
X126357400Y-114678900D01*
G75*
G02*
X126219900Y-114816400I-137500J0D01*
G01*
X124494900Y-114816400D01*
G75*
G02*
X124357400Y-114678900I0J137500D01*
G01*
G37*
G36*
G01*
X124357400Y-115948900D02*
X124357400Y-115673900D01*
G75*
G02*
X124494900Y-115536400I137500J0D01*
G01*
X126219900Y-115536400D01*
G75*
G02*
X126357400Y-115673900I0J-137500D01*
G01*
X126357400Y-115948900D01*
G75*
G02*
X126219900Y-116086400I-137500J0D01*
G01*
X124494900Y-116086400D01*
G75*
G02*
X124357400Y-115948900I0J137500D01*
G01*
G37*
G36*
G01*
X124357400Y-117218900D02*
X124357400Y-116943900D01*
G75*
G02*
X124494900Y-116806400I137500J0D01*
G01*
X126219900Y-116806400D01*
G75*
G02*
X126357400Y-116943900I0J-137500D01*
G01*
X126357400Y-117218900D01*
G75*
G02*
X126219900Y-117356400I-137500J0D01*
G01*
X124494900Y-117356400D01*
G75*
G02*
X124357400Y-117218900I0J137500D01*
G01*
G37*
G36*
G01*
X124357400Y-118488900D02*
X124357400Y-118213900D01*
G75*
G02*
X124494900Y-118076400I137500J0D01*
G01*
X126219900Y-118076400D01*
G75*
G02*
X126357400Y-118213900I0J-137500D01*
G01*
X126357400Y-118488900D01*
G75*
G02*
X126219900Y-118626400I-137500J0D01*
G01*
X124494900Y-118626400D01*
G75*
G02*
X124357400Y-118488900I0J137500D01*
G01*
G37*
G36*
G01*
X124357400Y-119758900D02*
X124357400Y-119483900D01*
G75*
G02*
X124494900Y-119346400I137500J0D01*
G01*
X126219900Y-119346400D01*
G75*
G02*
X126357400Y-119483900I0J-137500D01*
G01*
X126357400Y-119758900D01*
G75*
G02*
X126219900Y-119896400I-137500J0D01*
G01*
X124494900Y-119896400D01*
G75*
G02*
X124357400Y-119758900I0J137500D01*
G01*
G37*
G36*
G01*
X124357400Y-121028900D02*
X124357400Y-120753900D01*
G75*
G02*
X124494900Y-120616400I137500J0D01*
G01*
X126219900Y-120616400D01*
G75*
G02*
X126357400Y-120753900I0J-137500D01*
G01*
X126357400Y-121028900D01*
G75*
G02*
X126219900Y-121166400I-137500J0D01*
G01*
X124494900Y-121166400D01*
G75*
G02*
X124357400Y-121028900I0J137500D01*
G01*
G37*
G36*
G01*
X124357400Y-122298900D02*
X124357400Y-122023900D01*
G75*
G02*
X124494900Y-121886400I137500J0D01*
G01*
X126219900Y-121886400D01*
G75*
G02*
X126357400Y-122023900I0J-137500D01*
G01*
X126357400Y-122298900D01*
G75*
G02*
X126219900Y-122436400I-137500J0D01*
G01*
X124494900Y-122436400D01*
G75*
G02*
X124357400Y-122298900I0J137500D01*
G01*
G37*
G36*
G01*
X133657400Y-122298900D02*
X133657400Y-122023900D01*
G75*
G02*
X133794900Y-121886400I137500J0D01*
G01*
X135519900Y-121886400D01*
G75*
G02*
X135657400Y-122023900I0J-137500D01*
G01*
X135657400Y-122298900D01*
G75*
G02*
X135519900Y-122436400I-137500J0D01*
G01*
X133794900Y-122436400D01*
G75*
G02*
X133657400Y-122298900I0J137500D01*
G01*
G37*
G36*
G01*
X133657400Y-121028900D02*
X133657400Y-120753900D01*
G75*
G02*
X133794900Y-120616400I137500J0D01*
G01*
X135519900Y-120616400D01*
G75*
G02*
X135657400Y-120753900I0J-137500D01*
G01*
X135657400Y-121028900D01*
G75*
G02*
X135519900Y-121166400I-137500J0D01*
G01*
X133794900Y-121166400D01*
G75*
G02*
X133657400Y-121028900I0J137500D01*
G01*
G37*
G36*
G01*
X133657400Y-119758900D02*
X133657400Y-119483900D01*
G75*
G02*
X133794900Y-119346400I137500J0D01*
G01*
X135519900Y-119346400D01*
G75*
G02*
X135657400Y-119483900I0J-137500D01*
G01*
X135657400Y-119758900D01*
G75*
G02*
X135519900Y-119896400I-137500J0D01*
G01*
X133794900Y-119896400D01*
G75*
G02*
X133657400Y-119758900I0J137500D01*
G01*
G37*
G36*
G01*
X133657400Y-118488900D02*
X133657400Y-118213900D01*
G75*
G02*
X133794900Y-118076400I137500J0D01*
G01*
X135519900Y-118076400D01*
G75*
G02*
X135657400Y-118213900I0J-137500D01*
G01*
X135657400Y-118488900D01*
G75*
G02*
X135519900Y-118626400I-137500J0D01*
G01*
X133794900Y-118626400D01*
G75*
G02*
X133657400Y-118488900I0J137500D01*
G01*
G37*
G36*
G01*
X133657400Y-117218900D02*
X133657400Y-116943900D01*
G75*
G02*
X133794900Y-116806400I137500J0D01*
G01*
X135519900Y-116806400D01*
G75*
G02*
X135657400Y-116943900I0J-137500D01*
G01*
X135657400Y-117218900D01*
G75*
G02*
X135519900Y-117356400I-137500J0D01*
G01*
X133794900Y-117356400D01*
G75*
G02*
X133657400Y-117218900I0J137500D01*
G01*
G37*
G36*
G01*
X133657400Y-115948900D02*
X133657400Y-115673900D01*
G75*
G02*
X133794900Y-115536400I137500J0D01*
G01*
X135519900Y-115536400D01*
G75*
G02*
X135657400Y-115673900I0J-137500D01*
G01*
X135657400Y-115948900D01*
G75*
G02*
X135519900Y-116086400I-137500J0D01*
G01*
X133794900Y-116086400D01*
G75*
G02*
X133657400Y-115948900I0J137500D01*
G01*
G37*
G36*
G01*
X133657400Y-114678900D02*
X133657400Y-114403900D01*
G75*
G02*
X133794900Y-114266400I137500J0D01*
G01*
X135519900Y-114266400D01*
G75*
G02*
X135657400Y-114403900I0J-137500D01*
G01*
X135657400Y-114678900D01*
G75*
G02*
X135519900Y-114816400I-137500J0D01*
G01*
X133794900Y-114816400D01*
G75*
G02*
X133657400Y-114678900I0J137500D01*
G01*
G37*
G36*
G01*
X133657400Y-113408900D02*
X133657400Y-113133900D01*
G75*
G02*
X133794900Y-112996400I137500J0D01*
G01*
X135519900Y-112996400D01*
G75*
G02*
X135657400Y-113133900I0J-137500D01*
G01*
X135657400Y-113408900D01*
G75*
G02*
X135519900Y-113546400I-137500J0D01*
G01*
X133794900Y-113546400D01*
G75*
G02*
X133657400Y-113408900I0J137500D01*
G01*
G37*
G36*
G01*
X133657400Y-112138900D02*
X133657400Y-111863900D01*
G75*
G02*
X133794900Y-111726400I137500J0D01*
G01*
X135519900Y-111726400D01*
G75*
G02*
X135657400Y-111863900I0J-137500D01*
G01*
X135657400Y-112138900D01*
G75*
G02*
X135519900Y-112276400I-137500J0D01*
G01*
X133794900Y-112276400D01*
G75*
G02*
X133657400Y-112138900I0J137500D01*
G01*
G37*
G36*
G01*
X133657400Y-110868900D02*
X133657400Y-110593900D01*
G75*
G02*
X133794900Y-110456400I137500J0D01*
G01*
X135519900Y-110456400D01*
G75*
G02*
X135657400Y-110593900I0J-137500D01*
G01*
X135657400Y-110868900D01*
G75*
G02*
X135519900Y-111006400I-137500J0D01*
G01*
X133794900Y-111006400D01*
G75*
G02*
X133657400Y-110868900I0J137500D01*
G01*
G37*
G36*
G01*
X133657400Y-109598900D02*
X133657400Y-109323900D01*
G75*
G02*
X133794900Y-109186400I137500J0D01*
G01*
X135519900Y-109186400D01*
G75*
G02*
X135657400Y-109323900I0J-137500D01*
G01*
X135657400Y-109598900D01*
G75*
G02*
X135519900Y-109736400I-137500J0D01*
G01*
X133794900Y-109736400D01*
G75*
G02*
X133657400Y-109598900I0J137500D01*
G01*
G37*
G36*
G01*
X133657400Y-108328900D02*
X133657400Y-108053900D01*
G75*
G02*
X133794900Y-107916400I137500J0D01*
G01*
X135519900Y-107916400D01*
G75*
G02*
X135657400Y-108053900I0J-137500D01*
G01*
X135657400Y-108328900D01*
G75*
G02*
X135519900Y-108466400I-137500J0D01*
G01*
X133794900Y-108466400D01*
G75*
G02*
X133657400Y-108328900I0J137500D01*
G01*
G37*
G36*
G01*
X119262500Y-77600000D02*
X119737500Y-77600000D01*
G75*
G02*
X119975000Y-77837500I0J-237500D01*
G01*
X119975000Y-78437500D01*
G75*
G02*
X119737500Y-78675000I-237500J0D01*
G01*
X119262500Y-78675000D01*
G75*
G02*
X119025000Y-78437500I0J237500D01*
G01*
X119025000Y-77837500D01*
G75*
G02*
X119262500Y-77600000I237500J0D01*
G01*
G37*
G36*
G01*
X119262500Y-79325000D02*
X119737500Y-79325000D01*
G75*
G02*
X119975000Y-79562500I0J-237500D01*
G01*
X119975000Y-80162500D01*
G75*
G02*
X119737500Y-80400000I-237500J0D01*
G01*
X119262500Y-80400000D01*
G75*
G02*
X119025000Y-80162500I0J237500D01*
G01*
X119025000Y-79562500D01*
G75*
G02*
X119262500Y-79325000I237500J0D01*
G01*
G37*
G36*
G01*
X137162500Y-113900000D02*
X137637500Y-113900000D01*
G75*
G02*
X137875000Y-114137500I0J-237500D01*
G01*
X137875000Y-114712500D01*
G75*
G02*
X137637500Y-114950000I-237500J0D01*
G01*
X137162500Y-114950000D01*
G75*
G02*
X136925000Y-114712500I0J237500D01*
G01*
X136925000Y-114137500D01*
G75*
G02*
X137162500Y-113900000I237500J0D01*
G01*
G37*
G36*
G01*
X137162500Y-115650000D02*
X137637500Y-115650000D01*
G75*
G02*
X137875000Y-115887500I0J-237500D01*
G01*
X137875000Y-116462500D01*
G75*
G02*
X137637500Y-116700000I-237500J0D01*
G01*
X137162500Y-116700000D01*
G75*
G02*
X136925000Y-116462500I0J237500D01*
G01*
X136925000Y-115887500D01*
G75*
G02*
X137162500Y-115650000I237500J0D01*
G01*
G37*
G36*
G01*
X169462500Y-81575000D02*
X169937500Y-81575000D01*
G75*
G02*
X170175000Y-81812500I0J-237500D01*
G01*
X170175000Y-82387500D01*
G75*
G02*
X169937500Y-82625000I-237500J0D01*
G01*
X169462500Y-82625000D01*
G75*
G02*
X169225000Y-82387500I0J237500D01*
G01*
X169225000Y-81812500D01*
G75*
G02*
X169462500Y-81575000I237500J0D01*
G01*
G37*
G36*
G01*
X169462500Y-83325000D02*
X169937500Y-83325000D01*
G75*
G02*
X170175000Y-83562500I0J-237500D01*
G01*
X170175000Y-84137500D01*
G75*
G02*
X169937500Y-84375000I-237500J0D01*
G01*
X169462500Y-84375000D01*
G75*
G02*
X169225000Y-84137500I0J237500D01*
G01*
X169225000Y-83562500D01*
G75*
G02*
X169462500Y-83325000I237500J0D01*
G01*
G37*
G36*
G01*
X156657400Y-76028900D02*
X156657400Y-75753900D01*
G75*
G02*
X156794900Y-75616400I137500J0D01*
G01*
X158519900Y-75616400D01*
G75*
G02*
X158657400Y-75753900I0J-137500D01*
G01*
X158657400Y-76028900D01*
G75*
G02*
X158519900Y-76166400I-137500J0D01*
G01*
X156794900Y-76166400D01*
G75*
G02*
X156657400Y-76028900I0J137500D01*
G01*
G37*
G36*
G01*
X156657400Y-77298900D02*
X156657400Y-77023900D01*
G75*
G02*
X156794900Y-76886400I137500J0D01*
G01*
X158519900Y-76886400D01*
G75*
G02*
X158657400Y-77023900I0J-137500D01*
G01*
X158657400Y-77298900D01*
G75*
G02*
X158519900Y-77436400I-137500J0D01*
G01*
X156794900Y-77436400D01*
G75*
G02*
X156657400Y-77298900I0J137500D01*
G01*
G37*
G36*
G01*
X156657400Y-78568900D02*
X156657400Y-78293900D01*
G75*
G02*
X156794900Y-78156400I137500J0D01*
G01*
X158519900Y-78156400D01*
G75*
G02*
X158657400Y-78293900I0J-137500D01*
G01*
X158657400Y-78568900D01*
G75*
G02*
X158519900Y-78706400I-137500J0D01*
G01*
X156794900Y-78706400D01*
G75*
G02*
X156657400Y-78568900I0J137500D01*
G01*
G37*
G36*
G01*
X156657400Y-79838900D02*
X156657400Y-79563900D01*
G75*
G02*
X156794900Y-79426400I137500J0D01*
G01*
X158519900Y-79426400D01*
G75*
G02*
X158657400Y-79563900I0J-137500D01*
G01*
X158657400Y-79838900D01*
G75*
G02*
X158519900Y-79976400I-137500J0D01*
G01*
X156794900Y-79976400D01*
G75*
G02*
X156657400Y-79838900I0J137500D01*
G01*
G37*
G36*
G01*
X156657400Y-81108900D02*
X156657400Y-80833900D01*
G75*
G02*
X156794900Y-80696400I137500J0D01*
G01*
X158519900Y-80696400D01*
G75*
G02*
X158657400Y-80833900I0J-137500D01*
G01*
X158657400Y-81108900D01*
G75*
G02*
X158519900Y-81246400I-137500J0D01*
G01*
X156794900Y-81246400D01*
G75*
G02*
X156657400Y-81108900I0J137500D01*
G01*
G37*
G36*
G01*
X156657400Y-82378900D02*
X156657400Y-82103900D01*
G75*
G02*
X156794900Y-81966400I137500J0D01*
G01*
X158519900Y-81966400D01*
G75*
G02*
X158657400Y-82103900I0J-137500D01*
G01*
X158657400Y-82378900D01*
G75*
G02*
X158519900Y-82516400I-137500J0D01*
G01*
X156794900Y-82516400D01*
G75*
G02*
X156657400Y-82378900I0J137500D01*
G01*
G37*
G36*
G01*
X156657400Y-83648900D02*
X156657400Y-83373900D01*
G75*
G02*
X156794900Y-83236400I137500J0D01*
G01*
X158519900Y-83236400D01*
G75*
G02*
X158657400Y-83373900I0J-137500D01*
G01*
X158657400Y-83648900D01*
G75*
G02*
X158519900Y-83786400I-137500J0D01*
G01*
X156794900Y-83786400D01*
G75*
G02*
X156657400Y-83648900I0J137500D01*
G01*
G37*
G36*
G01*
X156657400Y-84918900D02*
X156657400Y-84643900D01*
G75*
G02*
X156794900Y-84506400I137500J0D01*
G01*
X158519900Y-84506400D01*
G75*
G02*
X158657400Y-84643900I0J-137500D01*
G01*
X158657400Y-84918900D01*
G75*
G02*
X158519900Y-85056400I-137500J0D01*
G01*
X156794900Y-85056400D01*
G75*
G02*
X156657400Y-84918900I0J137500D01*
G01*
G37*
G36*
G01*
X156657400Y-86188900D02*
X156657400Y-85913900D01*
G75*
G02*
X156794900Y-85776400I137500J0D01*
G01*
X158519900Y-85776400D01*
G75*
G02*
X158657400Y-85913900I0J-137500D01*
G01*
X158657400Y-86188900D01*
G75*
G02*
X158519900Y-86326400I-137500J0D01*
G01*
X156794900Y-86326400D01*
G75*
G02*
X156657400Y-86188900I0J137500D01*
G01*
G37*
G36*
G01*
X156657400Y-87458900D02*
X156657400Y-87183900D01*
G75*
G02*
X156794900Y-87046400I137500J0D01*
G01*
X158519900Y-87046400D01*
G75*
G02*
X158657400Y-87183900I0J-137500D01*
G01*
X158657400Y-87458900D01*
G75*
G02*
X158519900Y-87596400I-137500J0D01*
G01*
X156794900Y-87596400D01*
G75*
G02*
X156657400Y-87458900I0J137500D01*
G01*
G37*
G36*
G01*
X156657400Y-88728900D02*
X156657400Y-88453900D01*
G75*
G02*
X156794900Y-88316400I137500J0D01*
G01*
X158519900Y-88316400D01*
G75*
G02*
X158657400Y-88453900I0J-137500D01*
G01*
X158657400Y-88728900D01*
G75*
G02*
X158519900Y-88866400I-137500J0D01*
G01*
X156794900Y-88866400D01*
G75*
G02*
X156657400Y-88728900I0J137500D01*
G01*
G37*
G36*
G01*
X156657400Y-89998900D02*
X156657400Y-89723900D01*
G75*
G02*
X156794900Y-89586400I137500J0D01*
G01*
X158519900Y-89586400D01*
G75*
G02*
X158657400Y-89723900I0J-137500D01*
G01*
X158657400Y-89998900D01*
G75*
G02*
X158519900Y-90136400I-137500J0D01*
G01*
X156794900Y-90136400D01*
G75*
G02*
X156657400Y-89998900I0J137500D01*
G01*
G37*
G36*
G01*
X165957400Y-89998900D02*
X165957400Y-89723900D01*
G75*
G02*
X166094900Y-89586400I137500J0D01*
G01*
X167819900Y-89586400D01*
G75*
G02*
X167957400Y-89723900I0J-137500D01*
G01*
X167957400Y-89998900D01*
G75*
G02*
X167819900Y-90136400I-137500J0D01*
G01*
X166094900Y-90136400D01*
G75*
G02*
X165957400Y-89998900I0J137500D01*
G01*
G37*
G36*
G01*
X165957400Y-88728900D02*
X165957400Y-88453900D01*
G75*
G02*
X166094900Y-88316400I137500J0D01*
G01*
X167819900Y-88316400D01*
G75*
G02*
X167957400Y-88453900I0J-137500D01*
G01*
X167957400Y-88728900D01*
G75*
G02*
X167819900Y-88866400I-137500J0D01*
G01*
X166094900Y-88866400D01*
G75*
G02*
X165957400Y-88728900I0J137500D01*
G01*
G37*
G36*
G01*
X165957400Y-87458900D02*
X165957400Y-87183900D01*
G75*
G02*
X166094900Y-87046400I137500J0D01*
G01*
X167819900Y-87046400D01*
G75*
G02*
X167957400Y-87183900I0J-137500D01*
G01*
X167957400Y-87458900D01*
G75*
G02*
X167819900Y-87596400I-137500J0D01*
G01*
X166094900Y-87596400D01*
G75*
G02*
X165957400Y-87458900I0J137500D01*
G01*
G37*
G36*
G01*
X165957400Y-86188900D02*
X165957400Y-85913900D01*
G75*
G02*
X166094900Y-85776400I137500J0D01*
G01*
X167819900Y-85776400D01*
G75*
G02*
X167957400Y-85913900I0J-137500D01*
G01*
X167957400Y-86188900D01*
G75*
G02*
X167819900Y-86326400I-137500J0D01*
G01*
X166094900Y-86326400D01*
G75*
G02*
X165957400Y-86188900I0J137500D01*
G01*
G37*
G36*
G01*
X165957400Y-84918900D02*
X165957400Y-84643900D01*
G75*
G02*
X166094900Y-84506400I137500J0D01*
G01*
X167819900Y-84506400D01*
G75*
G02*
X167957400Y-84643900I0J-137500D01*
G01*
X167957400Y-84918900D01*
G75*
G02*
X167819900Y-85056400I-137500J0D01*
G01*
X166094900Y-85056400D01*
G75*
G02*
X165957400Y-84918900I0J137500D01*
G01*
G37*
G36*
G01*
X165957400Y-83648900D02*
X165957400Y-83373900D01*
G75*
G02*
X166094900Y-83236400I137500J0D01*
G01*
X167819900Y-83236400D01*
G75*
G02*
X167957400Y-83373900I0J-137500D01*
G01*
X167957400Y-83648900D01*
G75*
G02*
X167819900Y-83786400I-137500J0D01*
G01*
X166094900Y-83786400D01*
G75*
G02*
X165957400Y-83648900I0J137500D01*
G01*
G37*
G36*
G01*
X165957400Y-82378900D02*
X165957400Y-82103900D01*
G75*
G02*
X166094900Y-81966400I137500J0D01*
G01*
X167819900Y-81966400D01*
G75*
G02*
X167957400Y-82103900I0J-137500D01*
G01*
X167957400Y-82378900D01*
G75*
G02*
X167819900Y-82516400I-137500J0D01*
G01*
X166094900Y-82516400D01*
G75*
G02*
X165957400Y-82378900I0J137500D01*
G01*
G37*
G36*
G01*
X165957400Y-81108900D02*
X165957400Y-80833900D01*
G75*
G02*
X166094900Y-80696400I137500J0D01*
G01*
X167819900Y-80696400D01*
G75*
G02*
X167957400Y-80833900I0J-137500D01*
G01*
X167957400Y-81108900D01*
G75*
G02*
X167819900Y-81246400I-137500J0D01*
G01*
X166094900Y-81246400D01*
G75*
G02*
X165957400Y-81108900I0J137500D01*
G01*
G37*
G36*
G01*
X165957400Y-79838900D02*
X165957400Y-79563900D01*
G75*
G02*
X166094900Y-79426400I137500J0D01*
G01*
X167819900Y-79426400D01*
G75*
G02*
X167957400Y-79563900I0J-137500D01*
G01*
X167957400Y-79838900D01*
G75*
G02*
X167819900Y-79976400I-137500J0D01*
G01*
X166094900Y-79976400D01*
G75*
G02*
X165957400Y-79838900I0J137500D01*
G01*
G37*
G36*
G01*
X165957400Y-78568900D02*
X165957400Y-78293900D01*
G75*
G02*
X166094900Y-78156400I137500J0D01*
G01*
X167819900Y-78156400D01*
G75*
G02*
X167957400Y-78293900I0J-137500D01*
G01*
X167957400Y-78568900D01*
G75*
G02*
X167819900Y-78706400I-137500J0D01*
G01*
X166094900Y-78706400D01*
G75*
G02*
X165957400Y-78568900I0J137500D01*
G01*
G37*
G36*
G01*
X165957400Y-77298900D02*
X165957400Y-77023900D01*
G75*
G02*
X166094900Y-76886400I137500J0D01*
G01*
X167819900Y-76886400D01*
G75*
G02*
X167957400Y-77023900I0J-137500D01*
G01*
X167957400Y-77298900D01*
G75*
G02*
X167819900Y-77436400I-137500J0D01*
G01*
X166094900Y-77436400D01*
G75*
G02*
X165957400Y-77298900I0J137500D01*
G01*
G37*
G36*
G01*
X165957400Y-76028900D02*
X165957400Y-75753900D01*
G75*
G02*
X166094900Y-75616400I137500J0D01*
G01*
X167819900Y-75616400D01*
G75*
G02*
X167957400Y-75753900I0J-137500D01*
G01*
X167957400Y-76028900D01*
G75*
G02*
X167819900Y-76166400I-137500J0D01*
G01*
X166094900Y-76166400D01*
G75*
G02*
X165957400Y-76028900I0J137500D01*
G01*
G37*
G36*
G01*
X119262500Y-110000000D02*
X119737500Y-110000000D01*
G75*
G02*
X119975000Y-110237500I0J-237500D01*
G01*
X119975000Y-110837500D01*
G75*
G02*
X119737500Y-111075000I-237500J0D01*
G01*
X119262500Y-111075000D01*
G75*
G02*
X119025000Y-110837500I0J237500D01*
G01*
X119025000Y-110237500D01*
G75*
G02*
X119262500Y-110000000I237500J0D01*
G01*
G37*
G36*
G01*
X119262500Y-111725000D02*
X119737500Y-111725000D01*
G75*
G02*
X119975000Y-111962500I0J-237500D01*
G01*
X119975000Y-112562500D01*
G75*
G02*
X119737500Y-112800000I-237500J0D01*
G01*
X119262500Y-112800000D01*
G75*
G02*
X119025000Y-112562500I0J237500D01*
G01*
X119025000Y-111962500D01*
G75*
G02*
X119262500Y-111725000I237500J0D01*
G01*
G37*
M02*
