%!PS-Adobe-3.0
%%Creator: PCBNEW
%%CreationDate: Tue Apr 27 14:56:52 2021
%%Title: ()
%%Pages: 1
%%PageOrder: Ascend
%%BoundingBox: 0 0 596 842
%%DocumentMedia: A4 595 842 0 () ()
%%Orientation: Landscape
%%EndComments
%%BeginProlog
/line { newpath moveto lineto stroke } bind def
/cir0 { newpath 0 360 arc stroke } bind def
/cir1 { newpath 0 360 arc gsave fill grestore stroke } bind def
/cir2 { newpath 0 360 arc gsave fill grestore stroke } bind def
/arc0 { newpath arc stroke } bind def
/arc1 { newpath 4 index 4 index moveto arc closepath gsave fill
    grestore stroke } bind def
/arc2 { newpath 4 index 4 index moveto arc closepath gsave fill
    grestore stroke } bind def
/poly0 { stroke } bind def
/poly1 { closepath gsave fill grestore stroke } bind def
/poly2 { closepath gsave fill grestore stroke } bind def
/rect0 { rectstroke } bind def
/rect1 { rectfill } bind def
/rect2 { rectfill } bind def
/linemode0 { 0 setlinecap 0 setlinejoin 0 setlinewidth } bind def
/linemode1 { 1 setlinecap 1 setlinejoin } bind def
/dashedline { [200] 100 setdash } bind def
/solidline { [] 0 setdash } bind def
/phantomshow { moveto
    /KicadFont findfont 0.000001 scalefont setfont
    show } bind def
/textshow { gsave
    findfont exch scalefont setfont concat 1 scale 0 0 moveto show
    } bind def
/reencodefont {
  findfont dup length dict begin
  { 1 index /FID ne
    { def }
    { pop pop } ifelse
  } forall
  /Encoding ISOLatin1Encoding def
  currentdict
  end } bind def
/KicadFont /Helvetica reencodefont definefont pop
/KicadFont-Bold /Helvetica-Bold reencodefont definefont pop
/KicadFont-Oblique /Helvetica-Oblique reencodefont definefont pop
/KicadFont-BoldOblique /Helvetica-BoldOblique reencodefont definefont pop
%%EndProlog
%%Page: 1 1
%%BeginPageSetup
gsave
0.0072 0.0072 scale
linemode1
82680 0 translate 90 rotate
141.178 setlinewidth
%%EndPageSetup
0 0 0 setrgbcolor
70.5889 setlinewidth
newpath
81265.2 35075.8 moveto
35664.8 35075.8 lineto
stroke
0 0 0 setrgbcolor
newpath
81265.2 80676.2 moveto
81265.2 35075.8 lineto
stroke
0 0 0 setrgbcolor
newpath
35664.8 80676.2 moveto
81265.2 80676.2 lineto
stroke
0 0 0 setrgbcolor
newpath
35664.8 35075.8 moveto
35664.8 80676.2 lineto
stroke
141.178 setlinewidth
28.2355 setlinewidth
newpath
40856.9 43972 moveto
41139.2 43689.6 lineto
stroke
newpath
41139.2 43972 moveto
40856.9 43689.6 lineto
stroke
newpath
42453 48839.5 moveto
42735.4 48557.1 lineto
stroke
newpath
42735.4 48839.5 moveto
42453 48557.1 lineto
stroke
newpath
44623.7 43974.5 moveto
44906 43692.2 lineto
stroke
newpath
44906 43974.5 moveto
44623.7 43692.2 lineto
stroke
newpath
44738 72304.2 moveto
45020.4 72021.9 lineto
stroke
newpath
45020.4 72304.2 moveto
44738 72021.9 lineto
stroke
newpath
44944.8 66742.5 moveto
45227.2 66460.2 lineto
stroke
newpath
45227.2 66742.5 moveto
44944.8 66460.2 lineto
stroke
newpath
47108.4 47556.9 moveto
47390.7 47274.5 lineto
stroke
newpath
47390.7 47556.9 moveto
47108.4 47274.5 lineto
stroke
newpath
47204 68714.8 moveto
47486.3 68432.4 lineto
stroke
newpath
47486.3 68714.8 moveto
47204 68432.4 lineto
stroke
newpath
47239.8 67137 moveto
47522.2 66854.6 lineto
stroke
newpath
47522.2 67137 moveto
47239.8 66854.6 lineto
stroke
newpath
47744.6 65812.9 moveto
48026.9 65530.5 lineto
stroke
newpath
48026.9 65812.9 moveto
47744.6 65530.5 lineto
stroke
newpath
48794.7 47465.8 moveto
49077.1 47183.5 lineto
stroke
newpath
49077.1 47465.8 moveto
48794.7 47183.5 lineto
stroke
newpath
49097.6 68503.9 moveto
49379.9 68221.5 lineto
stroke
newpath
49379.9 68503.9 moveto
49097.6 68221.5 lineto
stroke
newpath
51179.2 68543.2 moveto
51461.6 68260.8 lineto
stroke
newpath
51461.6 68543.2 moveto
51179.2 68260.8 lineto
stroke
newpath
52886.1 47465.8 moveto
53168.4 47183.5 lineto
stroke
newpath
53168.4 47465.8 moveto
52886.1 47183.5 lineto
stroke
newpath
58248 77977.2 moveto
58530.4 77694.8 lineto
stroke
newpath
58530.4 77977.2 moveto
58248 77694.8 lineto
stroke
newpath
58248.6 71189.1 moveto
58530.9 70906.7 lineto
stroke
newpath
58530.9 71189.1 moveto
58248.6 70906.7 lineto
stroke
newpath
58248.6 48382.6 moveto
58530.9 48100.3 lineto
stroke
newpath
58530.9 48382.6 moveto
58248.6 48100.3 lineto
stroke
newpath
58248.6 44904.3 moveto
58530.9 44622 lineto
stroke
newpath
58530.9 44904.3 moveto
58248.6 44622 lineto
stroke
newpath
58302.4 58046.7 moveto
58584.7 57764.3 lineto
stroke
newpath
58584.7 58046.7 moveto
58302.4 57764.3 lineto
stroke
newpath
63233 72193.1 moveto
63515.4 71910.8 lineto
stroke
newpath
63515.4 72193.1 moveto
63233 71910.8 lineto
stroke
newpath
65061.8 70866.3 moveto
65344.2 70584 lineto
stroke
newpath
65344.2 70866.3 moveto
65061.8 70584 lineto
stroke
newpath
65063.4 48893.9 moveto
65345.7 48611.5 lineto
stroke
newpath
65345.7 48893.9 moveto
65063.4 48611.5 lineto
stroke
newpath
67234.7 43973.1 moveto
67517 43690.7 lineto
stroke
newpath
67517 43973.1 moveto
67234.7 43690.7 lineto
stroke
newpath
67426 66764.7 moveto
67708.3 66482.3 lineto
stroke
newpath
67708.3 66764.7 moveto
67426 66482.3 lineto
stroke
newpath
67541 71693.8 moveto
67823.4 71411.4 lineto
stroke
newpath
67823.4 71693.8 moveto
67541 71411.4 lineto
stroke
newpath
68755.3 45908.4 moveto
69037.7 45626 lineto
stroke
newpath
69037.7 45908.4 moveto
68755.3 45626 lineto
stroke
newpath
68970.5 44007.8 moveto
69252.8 43725.5 lineto
stroke
newpath
69252.8 44007.8 moveto
68970.5 43725.5 lineto
stroke
newpath
69262 69089.3 moveto
69544.3 68806.9 lineto
stroke
newpath
69544.3 69089.3 moveto
69262 68806.9 lineto
stroke
newpath
71756.6 65905.6 moveto
72039 65623.2 lineto
stroke
newpath
72039 65905.6 moveto
71756.6 65623.2 lineto
stroke
newpath
71806 74012.7 moveto
72088.4 73730.3 lineto
stroke
newpath
72088.4 74012.7 moveto
71806 73730.3 lineto
stroke
newpath
73990 47945.1 moveto
74272.4 47662.8 lineto
stroke
newpath
74272.4 47945.1 moveto
73990 47662.8 lineto
stroke
45.8828 setlinewidth
40754.3 77782.1 229.414 cir0
40754.3 60840.7 229.414 cir0
40754.3 54981.9 229.414 cir0
40754.3 38040.5 229.414 cir0
42547.2 77782.1 229.414 cir0
42547.2 60840.7 229.414 cir0
42547.2 54981.9 229.414 cir0
42547.2 38040.5 229.414 cir0
44340.2 77782.1 229.414 cir0
44340.2 60840.7 229.414 cir0
44340.2 54981.9 229.414 cir0
44340.2 38040.5 229.414 cir0
46133.1 77782.1 229.414 cir0
46133.1 60840.7 229.414 cir0
46133.1 54981.9 229.414 cir0
46133.1 38040.5 229.414 cir0
47926.1 77782.1 229.414 cir0
47926.1 60840.7 229.414 cir0
47926.1 54981.9 229.414 cir0
47926.1 38040.5 229.414 cir0
49719 77782.1 229.414 cir0
49719 60840.7 229.414 cir0
49719 54981.9 229.414 cir0
49719 38040.5 229.414 cir0
51512 77782.1 229.414 cir0
51512 60840.7 229.414 cir0
51512 54981.9 229.414 cir0
51512 38040.5 229.414 cir0
53305 77782.1 229.414 cir0
53305 60840.7 229.414 cir0
53305 54981.9 229.414 cir0
53305 38040.5 229.414 cir0
63554.5 77782.1 229.414 cir0
63554.5 60840.7 229.414 cir0
63554.5 54981.9 229.414 cir0
63554.5 38040.5 229.414 cir0
65347.4 77782.1 229.414 cir0
65347.4 60840.7 229.414 cir0
65347.4 54981.9 229.414 cir0
65347.4 38040.5 229.414 cir0
67140.4 77782.1 229.414 cir0
67140.4 60840.7 229.414 cir0
67140.4 54981.9 229.414 cir0
67140.4 38040.5 229.414 cir0
68933.3 77782.1 229.414 cir0
68933.3 60840.7 229.414 cir0
68933.3 54981.9 229.414 cir0
68933.3 38040.5 229.414 cir0
70726.3 77782.1 229.414 cir0
70726.3 60840.7 229.414 cir0
70726.3 54981.9 229.414 cir0
70726.3 38040.5 229.414 cir0
72519.2 77782.1 229.414 cir0
72519.2 60840.7 229.414 cir0
72519.2 54981.9 229.414 cir0
72519.2 38040.5 229.414 cir0
74312.2 77782.1 229.414 cir0
74312.2 60840.7 229.414 cir0
74312.2 54981.9 229.414 cir0
74312.2 38040.5 229.414 cir0
76105.2 77782.1 229.414 cir0
76105.2 60840.7 229.414 cir0
76105.2 54981.9 229.414 cir0
76105.2 38040.5 229.414 cir0
70.5889 setlinewidth
newpath
37711.9 73253.8 moveto
37711.9 72547.9 lineto
stroke
newpath
37358.9 72900.8 moveto
38064.8 72900.8 lineto
stroke
newpath
37711.9 71460.8 moveto
37711.9 70754.9 lineto
stroke
newpath
37358.9 71107.9 moveto
38064.8 71107.9 lineto
stroke
newpath
37711.9 69667.9 moveto
37711.9 68962 lineto
stroke
newpath
37358.9 69314.9 moveto
38064.8 69314.9 lineto
stroke
newpath
37711.9 67874.9 moveto
37711.9 67169 lineto
stroke
newpath
37358.9 67522 moveto
38064.8 67522 lineto
stroke
newpath
37711.9 66082 moveto
37711.9 65376.1 lineto
stroke
newpath
37358.9 65729 moveto
38064.8 65729 lineto
stroke
newpath
37711.9 50453.6 moveto
37711.9 49747.7 lineto
stroke
newpath
37358.9 50100.6 moveto
38064.8 50100.6 lineto
stroke
newpath
37711.9 48660.6 moveto
37711.9 47954.7 lineto
stroke
newpath
37358.9 48307.7 moveto
38064.8 48307.7 lineto
stroke
newpath
37711.9 46867.7 moveto
37711.9 46161.8 lineto
stroke
newpath
37358.9 46514.7 moveto
38064.8 46514.7 lineto
stroke
newpath
37711.9 45074.7 moveto
37711.9 44368.8 lineto
stroke
newpath
37358.9 44721.8 moveto
38064.8 44721.8 lineto
stroke
newpath
37711.9 43281.8 moveto
37711.9 42575.9 lineto
stroke
newpath
37358.9 42928.8 moveto
38064.8 42928.8 lineto
stroke
newpath
56347.3 73292.6 moveto
56347.3 72586.7 lineto
stroke
newpath
55994.4 72939.7 moveto
56700.3 72939.7 lineto
stroke
newpath
56347.3 71499.7 moveto
56347.3 70793.8 lineto
stroke
newpath
55994.4 71146.7 moveto
56700.3 71146.7 lineto
stroke
newpath
56347.3 69706.7 moveto
56347.3 69000.8 lineto
stroke
newpath
55994.4 69353.7 moveto
56700.3 69353.7 lineto
stroke
newpath
56347.3 67913.7 moveto
56347.3 67207.8 lineto
stroke
newpath
55994.4 67560.8 moveto
56700.3 67560.8 lineto
stroke
newpath
56347.3 66120.8 moveto
56347.3 65414.9 lineto
stroke
newpath
55994.4 65767.8 moveto
56700.3 65767.8 lineto
stroke
newpath
56347.3 50383 moveto
56347.3 49677.1 lineto
stroke
newpath
55994.4 50030 moveto
56700.3 50030 lineto
stroke
newpath
56347.3 48590 moveto
56347.3 47884.1 lineto
stroke
newpath
55994.4 48237.1 moveto
56700.3 48237.1 lineto
stroke
newpath
56347.3 46797.1 moveto
56347.3 46091.2 lineto
stroke
newpath
55994.4 46444.1 moveto
56700.3 46444.1 lineto
stroke
newpath
56347.3 45004.1 moveto
56347.3 44298.2 lineto
stroke
newpath
55994.4 44651.2 moveto
56700.3 44651.2 lineto
stroke
newpath
56347.3 43211.2 moveto
56347.3 42505.3 lineto
stroke
newpath
55994.4 42858.2 moveto
56700.3 42858.2 lineto
stroke
newpath
60512.1 73253.8 moveto
60512.1 72547.9 lineto
stroke
newpath
60159.1 72900.8 moveto
60865 72900.8 lineto
stroke
newpath
60512.1 71460.8 moveto
60512.1 70754.9 lineto
stroke
newpath
60159.1 71107.9 moveto
60865 71107.9 lineto
stroke
newpath
60512.1 69667.9 moveto
60512.1 68962 lineto
stroke
newpath
60159.1 69314.9 moveto
60865 69314.9 lineto
stroke
newpath
60512.1 67874.9 moveto
60512.1 67169 lineto
stroke
newpath
60159.1 67522 moveto
60865 67522 lineto
stroke
newpath
60512.1 66082 moveto
60512.1 65376.1 lineto
stroke
newpath
60159.1 65729 moveto
60865 65729 lineto
stroke
newpath
60512.1 50453.6 moveto
60512.1 49747.7 lineto
stroke
newpath
60159.1 50100.6 moveto
60865 50100.6 lineto
stroke
newpath
60512.1 48660.6 moveto
60512.1 47954.7 lineto
stroke
newpath
60159.1 48307.7 moveto
60865 48307.7 lineto
stroke
newpath
60512.1 46867.7 moveto
60512.1 46161.8 lineto
stroke
newpath
60159.1 46514.7 moveto
60865 46514.7 lineto
stroke
newpath
60512.1 45074.7 moveto
60512.1 44368.8 lineto
stroke
newpath
60159.1 44721.8 moveto
60865 44721.8 lineto
stroke
newpath
60512.1 43281.8 moveto
60512.1 42575.9 lineto
stroke
newpath
60159.1 42928.8 moveto
60865 42928.8 lineto
stroke
newpath
79147.5 73253.8 moveto
79147.5 72547.9 lineto
stroke
newpath
78794.6 72900.8 moveto
79500.5 72900.8 lineto
stroke
newpath
79147.5 71460.8 moveto
79147.5 70754.9 lineto
stroke
newpath
78794.6 71107.9 moveto
79500.5 71107.9 lineto
stroke
newpath
79147.5 69667.9 moveto
79147.5 68962 lineto
stroke
newpath
78794.6 69314.9 moveto
79500.5 69314.9 lineto
stroke
newpath
79147.5 67874.9 moveto
79147.5 67169 lineto
stroke
newpath
78794.6 67522 moveto
79500.5 67522 lineto
stroke
newpath
79147.5 66082 moveto
79147.5 65376.1 lineto
stroke
newpath
78794.6 65729 moveto
79500.5 65729 lineto
stroke
newpath
79147.5 50453.6 moveto
79147.5 49747.7 lineto
stroke
newpath
78794.6 50100.6 moveto
79500.5 50100.6 lineto
stroke
newpath
79147.5 48660.6 moveto
79147.5 47954.7 lineto
stroke
newpath
78794.6 48307.7 moveto
79500.5 48307.7 lineto
stroke
newpath
79147.5 46867.7 moveto
79147.5 46161.8 lineto
stroke
newpath
78794.6 46514.7 moveto
79500.5 46514.7 lineto
stroke
newpath
79147.5 45074.7 moveto
79147.5 44368.8 lineto
stroke
newpath
78794.6 44721.8 moveto
79500.5 44721.8 lineto
stroke
newpath
79147.5 43281.8 moveto
79147.5 42575.9 lineto
stroke
newpath
78794.6 42928.8 moveto
79500.5 42928.8 lineto
stroke
141.178 setlinewidth
78.7405 setlinewidth
0 0 0 setrgbcolor
0 0 0 setrgbcolor
newpath
36643.8 33818.2 moveto
36643.8 34605.6 lineto
36831.2 34605.6 lineto
36943.7 34568.1 lineto
37018.7 34493.1 lineto
37056.2 34418.1 lineto
37093.7 34268.1 lineto
37093.7 34155.6 lineto
37056.2 34005.6 lineto
37018.7 33930.6 lineto
36943.7 33855.7 lineto
36831.2 33818.2 lineto
36643.8 33818.2 lineto
stroke
newpath
37431.2 33818.2 moveto
37431.2 34343.1 lineto
stroke
newpath
37431.2 34193.1 moveto
37468.6 34268.1 lineto
37506.1 34305.6 lineto
37581.1 34343.1 lineto
37656.1 34343.1 lineto
stroke
newpath
37918.6 33818.2 moveto
37918.6 34343.1 lineto
stroke
newpath
37918.6 34605.6 moveto
37881.1 34568.1 lineto
37918.6 34530.6 lineto
37956.1 34568.1 lineto
37918.6 34605.6 lineto
37918.6 34530.6 lineto
stroke
newpath
38406 33818.2 moveto
38331 33855.7 lineto
38293.5 33930.6 lineto
38293.5 34605.6 lineto
stroke
newpath
38818.5 33818.2 moveto
38743.5 33855.7 lineto
38706 33930.6 lineto
38706 34605.6 lineto
stroke
newpath
39718.4 33818.2 moveto
39718.4 34605.6 lineto
39980.8 34043.1 lineto
40243.3 34605.6 lineto
40243.3 33818.2 lineto
stroke
newpath
40955.7 33818.2 moveto
40955.7 34230.6 lineto
40918.2 34305.6 lineto
40843.2 34343.1 lineto
40693.2 34343.1 lineto
40618.3 34305.6 lineto
stroke
newpath
40955.7 33855.7 moveto
40880.7 33818.2 lineto
40693.2 33818.2 lineto
40618.3 33855.7 lineto
40580.8 33930.6 lineto
40580.8 34005.6 lineto
40618.3 34080.6 lineto
40693.2 34118.1 lineto
40880.7 34118.1 lineto
40955.7 34155.6 lineto
stroke
newpath
41330.7 34343.1 moveto
41330.7 33555.7 lineto
stroke
newpath
41330.7 34305.6 moveto
41405.7 34343.1 lineto
41555.6 34343.1 lineto
41630.6 34305.6 lineto
41668.1 34268.1 lineto
41705.6 34193.1 lineto
41705.6 33968.1 lineto
41668.1 33893.1 lineto
41630.6 33855.7 lineto
41555.6 33818.2 lineto
41405.7 33818.2 lineto
41330.7 33855.7 lineto
stroke
newpath
42043.1 33893.1 moveto
42080.6 33855.7 lineto
42043.1 33818.2 lineto
42005.6 33855.7 lineto
42043.1 33893.1 lineto
42043.1 33818.2 lineto
stroke
newpath
42043.1 34305.6 moveto
42080.6 34268.1 lineto
42043.1 34230.6 lineto
42005.6 34268.1 lineto
42043.1 34305.6 lineto
42043.1 34230.6 lineto
stroke
28.2355 setlinewidth
newpath
35347.1 32662 moveto
35629.5 32379.6 lineto
stroke
newpath
35629.5 32662 moveto
35347.1 32379.6 lineto
stroke
141.178 setlinewidth
78.7405 setlinewidth
0 0 0 setrgbcolor
0 0 0 setrgbcolor
newpath
36793.7 32952 moveto
36868.7 32952 lineto
36943.7 32914.5 lineto
36981.2 32877 lineto
37018.7 32802 lineto
37056.2 32652.1 lineto
37056.2 32464.6 lineto
37018.7 32314.6 lineto
36981.2 32239.6 lineto
36943.7 32202.1 lineto
36868.7 32164.6 lineto
36793.7 32164.6 lineto
36718.7 32202.1 lineto
36681.2 32239.6 lineto
36643.8 32314.6 lineto
36606.3 32464.6 lineto
36606.3 32652.1 lineto
36643.8 32802 lineto
36681.2 32877 lineto
36718.7 32914.5 lineto
36793.7 32952 lineto
stroke
newpath
37393.7 32239.6 moveto
37431.2 32202.1 lineto
37393.7 32164.6 lineto
37356.2 32202.1 lineto
37393.7 32239.6 lineto
37393.7 32164.6 lineto
stroke
newpath
38106.1 32689.5 moveto
38106.1 32164.6 lineto
stroke
newpath
37918.6 32989.5 moveto
37731.1 32427.1 lineto
38218.6 32427.1 lineto
stroke
newpath
38668.5 32952 moveto
38743.5 32952 lineto
38818.5 32914.5 lineto
38856 32877 lineto
38893.5 32802 lineto
38931 32652.1 lineto
38931 32464.6 lineto
38893.5 32314.6 lineto
38856 32239.6 lineto
38818.5 32202.1 lineto
38743.5 32164.6 lineto
38668.5 32164.6 lineto
38593.5 32202.1 lineto
38556 32239.6 lineto
38518.5 32314.6 lineto
38481 32464.6 lineto
38481 32652.1 lineto
38518.5 32802 lineto
38556 32877 lineto
38593.5 32914.5 lineto
38668.5 32952 lineto
stroke
newpath
39418.4 32952 moveto
39493.4 32952 lineto
39568.4 32914.5 lineto
39605.9 32877 lineto
39643.4 32802 lineto
39680.9 32652.1 lineto
39680.9 32464.6 lineto
39643.4 32314.6 lineto
39605.9 32239.6 lineto
39568.4 32202.1 lineto
39493.4 32164.6 lineto
39418.4 32164.6 lineto
39343.4 32202.1 lineto
39305.9 32239.6 lineto
39268.4 32314.6 lineto
39230.9 32464.6 lineto
39230.9 32652.1 lineto
39268.4 32802 lineto
39305.9 32877 lineto
39343.4 32914.5 lineto
39418.4 32952 lineto
stroke
newpath
40018.3 32164.6 moveto
40018.3 32689.5 lineto
stroke
newpath
40018.3 32614.6 moveto
40055.8 32652.1 lineto
40130.8 32689.5 lineto
40243.3 32689.5 lineto
40318.3 32652.1 lineto
40355.8 32577.1 lineto
40355.8 32164.6 lineto
stroke
newpath
40355.8 32577.1 moveto
40393.3 32652.1 lineto
40468.3 32689.5 lineto
40580.8 32689.5 lineto
40655.8 32652.1 lineto
40693.2 32577.1 lineto
40693.2 32164.6 lineto
stroke
newpath
41068.2 32164.6 moveto
41068.2 32689.5 lineto
stroke
newpath
41068.2 32614.6 moveto
41105.7 32652.1 lineto
41180.7 32689.5 lineto
41293.2 32689.5 lineto
41368.2 32652.1 lineto
41405.7 32577.1 lineto
41405.7 32164.6 lineto
stroke
newpath
41405.7 32577.1 moveto
41443.2 32652.1 lineto
41518.1 32689.5 lineto
41630.6 32689.5 lineto
41705.6 32652.1 lineto
41743.1 32577.1 lineto
41743.1 32164.6 lineto
stroke
newpath
43280.4 32989.5 moveto
42605.5 31977.1 lineto
stroke
newpath
44292.8 32952 moveto
44367.8 32952 lineto
44442.8 32914.5 lineto
44480.3 32877 lineto
44517.8 32802 lineto
44555.3 32652.1 lineto
44555.3 32464.6 lineto
44517.8 32314.6 lineto
44480.3 32239.6 lineto
44442.8 32202.1 lineto
44367.8 32164.6 lineto
44292.8 32164.6 lineto
44217.8 32202.1 lineto
44180.3 32239.6 lineto
44142.8 32314.6 lineto
44105.3 32464.6 lineto
44105.3 32652.1 lineto
44142.8 32802 lineto
44180.3 32877 lineto
44217.8 32914.5 lineto
44292.8 32952 lineto
stroke
newpath
44892.7 32239.6 moveto
44930.2 32202.1 lineto
44892.7 32164.6 lineto
44855.2 32202.1 lineto
44892.7 32239.6 lineto
44892.7 32164.6 lineto
stroke
newpath
45417.7 32952 moveto
45492.6 32952 lineto
45567.6 32914.5 lineto
45605.1 32877 lineto
45642.6 32802 lineto
45680.1 32652.1 lineto
45680.1 32464.6 lineto
45642.6 32314.6 lineto
45605.1 32239.6 lineto
45567.6 32202.1 lineto
45492.6 32164.6 lineto
45417.7 32164.6 lineto
45342.7 32202.1 lineto
45305.2 32239.6 lineto
45267.7 32314.6 lineto
45230.2 32464.6 lineto
45230.2 32652.1 lineto
45267.7 32802 lineto
45305.2 32877 lineto
45342.7 32914.5 lineto
45417.7 32952 lineto
stroke
newpath
46430 32164.6 moveto
45980.1 32164.6 lineto
stroke
newpath
46205.1 32164.6 moveto
46205.1 32952 lineto
46130.1 32839.5 lineto
46055.1 32764.5 lineto
45980.1 32727 lineto
stroke
newpath
47142.4 32952 moveto
46767.5 32952 lineto
46730 32577.1 lineto
46767.5 32614.6 lineto
46842.5 32652.1 lineto
47030 32652.1 lineto
47104.9 32614.6 lineto
47142.4 32577.1 lineto
47179.9 32502.1 lineto
47179.9 32314.6 lineto
47142.4 32239.6 lineto
47104.9 32202.1 lineto
47030 32164.6 lineto
46842.5 32164.6 lineto
46767.5 32202.1 lineto
46730 32239.6 lineto
stroke
newpath
47442.4 32952 moveto
47967.3 32952 lineto
47629.9 32164.6 lineto
stroke
newpath
48229.8 32952 moveto
48229.8 32802 lineto
stroke
newpath
48529.8 32952 moveto
48529.8 32802 lineto
stroke
newpath
49692.1 31864.6 moveto
49654.6 31902.1 lineto
49579.6 32014.6 lineto
49542.1 32089.6 lineto
49504.6 32202.1 lineto
49467.2 32389.6 lineto
49467.2 32539.6 lineto
49504.6 32727 lineto
49542.1 32839.5 lineto
49579.6 32914.5 lineto
49654.6 33027 lineto
49692.1 33064.5 lineto
stroke
newpath
49917.1 32952 moveto
50404.5 32952 lineto
50142.1 32652.1 lineto
50254.6 32652.1 lineto
50329.5 32614.6 lineto
50367 32577.1 lineto
50404.5 32502.1 lineto
50404.5 32314.6 lineto
50367 32239.6 lineto
50329.5 32202.1 lineto
50254.6 32164.6 lineto
50029.6 32164.6 lineto
49954.6 32202.1 lineto
49917.1 32239.6 lineto
stroke
newpath
50892 32952 moveto
50967 32952 lineto
51042 32914.5 lineto
51079.5 32877 lineto
51116.9 32802 lineto
51154.4 32652.1 lineto
51154.4 32464.6 lineto
51116.9 32314.6 lineto
51079.5 32239.6 lineto
51042 32202.1 lineto
50967 32164.6 lineto
50892 32164.6 lineto
50817 32202.1 lineto
50779.5 32239.6 lineto
50742 32314.6 lineto
50704.5 32464.6 lineto
50704.5 32652.1 lineto
50742 32802 lineto
50779.5 32877 lineto
50817 32914.5 lineto
50892 32952 lineto
stroke
newpath
52091.8 32164.6 moveto
52091.8 32952 lineto
stroke
newpath
52429.3 32164.6 moveto
52429.3 32577.1 lineto
52391.8 32652.1 lineto
52316.8 32689.5 lineto
52204.3 32689.5 lineto
52129.3 32652.1 lineto
52091.8 32614.6 lineto
stroke
newpath
52916.7 32164.6 moveto
52841.7 32202.1 lineto
52804.2 32239.6 lineto
52766.7 32314.6 lineto
52766.7 32539.6 lineto
52804.2 32614.6 lineto
52841.7 32652.1 lineto
52916.7 32689.5 lineto
53029.2 32689.5 lineto
53104.2 32652.1 lineto
53141.7 32614.6 lineto
53179.2 32539.6 lineto
53179.2 32314.6 lineto
53141.7 32239.6 lineto
53104.2 32202.1 lineto
53029.2 32164.6 lineto
52916.7 32164.6 lineto
stroke
newpath
53629.1 32164.6 moveto
53554.1 32202.1 lineto
53516.6 32277.1 lineto
53516.6 32952 lineto
stroke
newpath
54229.1 32202.1 moveto
54154.1 32164.6 lineto
54004.1 32164.6 lineto
53929.1 32202.1 lineto
53891.6 32277.1 lineto
53891.6 32577.1 lineto
53929.1 32652.1 lineto
54004.1 32689.5 lineto
54154.1 32689.5 lineto
54229.1 32652.1 lineto
54266.6 32577.1 lineto
54266.6 32502.1 lineto
53891.6 32427.1 lineto
stroke
newpath
54566.5 32202.1 moveto
54641.5 32164.6 lineto
54791.5 32164.6 lineto
54866.5 32202.1 lineto
54904 32277.1 lineto
54904 32314.6 lineto
54866.5 32389.6 lineto
54791.5 32427.1 lineto
54679 32427.1 lineto
54604 32464.6 lineto
54566.5 32539.6 lineto
54566.5 32577.1 lineto
54604 32652.1 lineto
54679 32689.5 lineto
54791.5 32689.5 lineto
54866.5 32652.1 lineto
stroke
newpath
55166.4 31864.6 moveto
55203.9 31902.1 lineto
55278.9 32014.6 lineto
55316.4 32089.6 lineto
55353.9 32202.1 lineto
55391.4 32389.6 lineto
55391.4 32539.6 lineto
55353.9 32727 lineto
55316.4 32839.5 lineto
55278.9 32914.5 lineto
55203.9 33027 lineto
55166.4 33064.5 lineto
stroke
45.8828 setlinewidth
35400.1 31481.4 229.414 cir0
141.178 setlinewidth
78.7405 setlinewidth
0 0 0 setrgbcolor
0 0 0 setrgbcolor
newpath
36793.7 31912.6 moveto
36868.7 31912.6 lineto
36943.7 31875.1 lineto
36981.2 31837.7 lineto
37018.7 31762.7 lineto
37056.2 31612.7 lineto
37056.2 31425.2 lineto
37018.7 31275.2 lineto
36981.2 31200.2 lineto
36943.7 31162.7 lineto
36868.7 31125.2 lineto
36793.7 31125.2 lineto
36718.7 31162.7 lineto
36681.2 31200.2 lineto
36643.8 31275.2 lineto
36606.3 31425.2 lineto
36606.3 31612.7 lineto
36643.8 31762.7 lineto
36681.2 31837.7 lineto
36718.7 31875.1 lineto
36793.7 31912.6 lineto
stroke
newpath
37393.7 31200.2 moveto
37431.2 31162.7 lineto
37393.7 31125.2 lineto
37356.2 31162.7 lineto
37393.7 31200.2 lineto
37393.7 31125.2 lineto
stroke
newpath
38106.1 31912.6 moveto
37956.1 31912.6 lineto
37881.1 31875.1 lineto
37843.6 31837.7 lineto
37768.6 31725.2 lineto
37731.1 31575.2 lineto
37731.1 31275.2 lineto
37768.6 31200.2 lineto
37806.1 31162.7 lineto
37881.1 31125.2 lineto
38031.1 31125.2 lineto
38106.1 31162.7 lineto
38143.6 31200.2 lineto
38181.1 31275.2 lineto
38181.1 31462.7 lineto
38143.6 31537.7 lineto
38106.1 31575.2 lineto
38031.1 31612.7 lineto
37881.1 31612.7 lineto
37806.1 31575.2 lineto
37768.6 31537.7 lineto
37731.1 31462.7 lineto
stroke
newpath
38893.5 31912.6 moveto
38518.5 31912.6 lineto
38481 31537.7 lineto
38518.5 31575.2 lineto
38593.5 31612.7 lineto
38781 31612.7 lineto
38856 31575.2 lineto
38893.5 31537.7 lineto
38931 31462.7 lineto
38931 31275.2 lineto
38893.5 31200.2 lineto
38856 31162.7 lineto
38781 31125.2 lineto
38593.5 31125.2 lineto
38518.5 31162.7 lineto
38481 31200.2 lineto
stroke
newpath
39418.4 31912.6 moveto
39493.4 31912.6 lineto
39568.4 31875.1 lineto
39605.9 31837.7 lineto
39643.4 31762.7 lineto
39680.9 31612.7 lineto
39680.9 31425.2 lineto
39643.4 31275.2 lineto
39605.9 31200.2 lineto
39568.4 31162.7 lineto
39493.4 31125.2 lineto
39418.4 31125.2 lineto
39343.4 31162.7 lineto
39305.9 31200.2 lineto
39268.4 31275.2 lineto
39230.9 31425.2 lineto
39230.9 31612.7 lineto
39268.4 31762.7 lineto
39305.9 31837.7 lineto
39343.4 31875.1 lineto
39418.4 31912.6 lineto
stroke
newpath
40018.3 31125.2 moveto
40018.3 31650.2 lineto
stroke
newpath
40018.3 31575.2 moveto
40055.8 31612.7 lineto
40130.8 31650.2 lineto
40243.3 31650.2 lineto
40318.3 31612.7 lineto
40355.8 31537.7 lineto
40355.8 31125.2 lineto
stroke
newpath
40355.8 31537.7 moveto
40393.3 31612.7 lineto
40468.3 31650.2 lineto
40580.8 31650.2 lineto
40655.8 31612.7 lineto
40693.2 31537.7 lineto
40693.2 31125.2 lineto
stroke
newpath
41068.2 31125.2 moveto
41068.2 31650.2 lineto
stroke
newpath
41068.2 31575.2 moveto
41105.7 31612.7 lineto
41180.7 31650.2 lineto
41293.2 31650.2 lineto
41368.2 31612.7 lineto
41405.7 31537.7 lineto
41405.7 31125.2 lineto
stroke
newpath
41405.7 31537.7 moveto
41443.2 31612.7 lineto
41518.1 31650.2 lineto
41630.6 31650.2 lineto
41705.6 31612.7 lineto
41743.1 31537.7 lineto
41743.1 31125.2 lineto
stroke
newpath
43280.4 31950.1 moveto
42605.5 30937.8 lineto
stroke
newpath
44292.8 31912.6 moveto
44367.8 31912.6 lineto
44442.8 31875.1 lineto
44480.3 31837.7 lineto
44517.8 31762.7 lineto
44555.3 31612.7 lineto
44555.3 31425.2 lineto
44517.8 31275.2 lineto
44480.3 31200.2 lineto
44442.8 31162.7 lineto
44367.8 31125.2 lineto
44292.8 31125.2 lineto
44217.8 31162.7 lineto
44180.3 31200.2 lineto
44142.8 31275.2 lineto
44105.3 31425.2 lineto
44105.3 31612.7 lineto
44142.8 31762.7 lineto
44180.3 31837.7 lineto
44217.8 31875.1 lineto
44292.8 31912.6 lineto
stroke
newpath
44892.7 31200.2 moveto
44930.2 31162.7 lineto
44892.7 31125.2 lineto
44855.2 31162.7 lineto
44892.7 31200.2 lineto
44892.7 31125.2 lineto
stroke
newpath
45417.7 31912.6 moveto
45492.6 31912.6 lineto
45567.6 31875.1 lineto
45605.1 31837.7 lineto
45642.6 31762.7 lineto
45680.1 31612.7 lineto
45680.1 31425.2 lineto
45642.6 31275.2 lineto
45605.1 31200.2 lineto
45567.6 31162.7 lineto
45492.6 31125.2 lineto
45417.7 31125.2 lineto
45342.7 31162.7 lineto
45305.2 31200.2 lineto
45267.7 31275.2 lineto
45230.2 31425.2 lineto
45230.2 31612.7 lineto
45267.7 31762.7 lineto
45305.2 31837.7 lineto
45342.7 31875.1 lineto
45417.7 31912.6 lineto
stroke
newpath
45980.1 31837.7 moveto
46017.6 31875.1 lineto
46092.6 31912.6 lineto
46280.1 31912.6 lineto
46355 31875.1 lineto
46392.5 31837.7 lineto
46430 31762.7 lineto
46430 31687.7 lineto
46392.5 31575.2 lineto
45942.6 31125.2 lineto
46430 31125.2 lineto
stroke
newpath
47142.4 31912.6 moveto
46767.5 31912.6 lineto
46730 31537.7 lineto
46767.5 31575.2 lineto
46842.5 31612.7 lineto
47030 31612.7 lineto
47104.9 31575.2 lineto
47142.4 31537.7 lineto
47179.9 31462.7 lineto
47179.9 31275.2 lineto
47142.4 31200.2 lineto
47104.9 31162.7 lineto
47030 31125.2 lineto
46842.5 31125.2 lineto
46767.5 31162.7 lineto
46730 31200.2 lineto
stroke
newpath
47854.9 31912.6 moveto
47704.9 31912.6 lineto
47629.9 31875.1 lineto
47592.4 31837.7 lineto
47517.4 31725.2 lineto
47479.9 31575.2 lineto
47479.9 31275.2 lineto
47517.4 31200.2 lineto
47554.9 31162.7 lineto
47629.9 31125.2 lineto
47779.9 31125.2 lineto
47854.9 31162.7 lineto
47892.3 31200.2 lineto
47929.8 31275.2 lineto
47929.8 31462.7 lineto
47892.3 31537.7 lineto
47854.9 31575.2 lineto
47779.9 31612.7 lineto
47629.9 31612.7 lineto
47554.9 31575.2 lineto
47517.4 31537.7 lineto
47479.9 31462.7 lineto
stroke
newpath
48229.8 31912.6 moveto
48229.8 31762.7 lineto
stroke
newpath
48529.8 31912.6 moveto
48529.8 31762.7 lineto
stroke
newpath
49692.1 30825.3 moveto
49654.6 30862.8 lineto
49579.6 30975.3 lineto
49542.1 31050.3 lineto
49504.6 31162.7 lineto
49467.2 31350.2 lineto
49467.2 31500.2 lineto
49504.6 31687.7 lineto
49542.1 31800.2 lineto
49579.6 31875.1 lineto
49654.6 31987.6 lineto
49692.1 32025.1 lineto
stroke
newpath
50329.5 31912.6 moveto
50179.6 31912.6 lineto
50104.6 31875.1 lineto
50067.1 31837.7 lineto
49992.1 31725.2 lineto
49954.6 31575.2 lineto
49954.6 31275.2 lineto
49992.1 31200.2 lineto
50029.6 31162.7 lineto
50104.6 31125.2 lineto
50254.6 31125.2 lineto
50329.5 31162.7 lineto
50367 31200.2 lineto
50404.5 31275.2 lineto
50404.5 31462.7 lineto
50367 31537.7 lineto
50329.5 31575.2 lineto
50254.6 31612.7 lineto
50104.6 31612.7 lineto
50029.6 31575.2 lineto
49992.1 31537.7 lineto
49954.6 31462.7 lineto
stroke
newpath
51079.5 31650.2 moveto
51079.5 31125.2 lineto
stroke
newpath
50892 31950.1 moveto
50704.5 31387.7 lineto
51191.9 31387.7 lineto
stroke
newpath
52091.8 31125.2 moveto
52091.8 31912.6 lineto
stroke
newpath
52429.3 31125.2 moveto
52429.3 31537.7 lineto
52391.8 31612.7 lineto
52316.8 31650.2 lineto
52204.3 31650.2 lineto
52129.3 31612.7 lineto
52091.8 31575.2 lineto
stroke
newpath
52916.7 31125.2 moveto
52841.7 31162.7 lineto
52804.2 31200.2 lineto
52766.7 31275.2 lineto
52766.7 31500.2 lineto
52804.2 31575.2 lineto
52841.7 31612.7 lineto
52916.7 31650.2 lineto
53029.2 31650.2 lineto
53104.2 31612.7 lineto
53141.7 31575.2 lineto
53179.2 31500.2 lineto
53179.2 31275.2 lineto
53141.7 31200.2 lineto
53104.2 31162.7 lineto
53029.2 31125.2 lineto
52916.7 31125.2 lineto
stroke
newpath
53629.1 31125.2 moveto
53554.1 31162.7 lineto
53516.6 31237.7 lineto
53516.6 31912.6 lineto
stroke
newpath
54229.1 31162.7 moveto
54154.1 31125.2 lineto
54004.1 31125.2 lineto
53929.1 31162.7 lineto
53891.6 31237.7 lineto
53891.6 31537.7 lineto
53929.1 31612.7 lineto
54004.1 31650.2 lineto
54154.1 31650.2 lineto
54229.1 31612.7 lineto
54266.6 31537.7 lineto
54266.6 31462.7 lineto
53891.6 31387.7 lineto
stroke
newpath
54566.5 31162.7 moveto
54641.5 31125.2 lineto
54791.5 31125.2 lineto
54866.5 31162.7 lineto
54904 31237.7 lineto
54904 31275.2 lineto
54866.5 31350.2 lineto
54791.5 31387.7 lineto
54679 31387.7 lineto
54604 31425.2 lineto
54566.5 31500.2 lineto
54566.5 31537.7 lineto
54604 31612.7 lineto
54679 31650.2 lineto
54791.5 31650.2 lineto
54866.5 31612.7 lineto
stroke
newpath
55166.4 30825.3 moveto
55203.9 30862.8 lineto
55278.9 30975.3 lineto
55316.4 31050.3 lineto
55353.9 31162.7 lineto
55391.4 31350.2 lineto
55391.4 31500.2 lineto
55353.9 31687.7 lineto
55316.4 31800.2 lineto
55278.9 31875.1 lineto
55203.9 31987.6 lineto
55166.4 32025.1 lineto
stroke
70.5889 setlinewidth
newpath
35276.6 30795 moveto
35276.6 30089.1 lineto
stroke
newpath
34923.6 30442.1 moveto
35629.5 30442.1 lineto
stroke
141.178 setlinewidth
78.7405 setlinewidth
0 0 0 setrgbcolor
0 0 0 setrgbcolor
newpath
37056.2 30085.9 moveto
36606.3 30085.9 lineto
stroke
newpath
36831.2 30085.9 moveto
36831.2 30873.3 lineto
36756.2 30760.8 lineto
36681.2 30685.8 lineto
36606.3 30648.3 lineto
stroke
newpath
37393.7 30160.9 moveto
37431.2 30123.4 lineto
37393.7 30085.9 lineto
37356.2 30123.4 lineto
37393.7 30160.9 lineto
37393.7 30085.9 lineto
stroke
newpath
37918.6 30873.3 moveto
37993.6 30873.3 lineto
38068.6 30835.8 lineto
38106.1 30798.3 lineto
38143.6 30723.3 lineto
38181.1 30573.3 lineto
38181.1 30385.8 lineto
38143.6 30235.9 lineto
38106.1 30160.9 lineto
38068.6 30123.4 lineto
37993.6 30085.9 lineto
37918.6 30085.9 lineto
37843.6 30123.4 lineto
37806.1 30160.9 lineto
37768.6 30235.9 lineto
37731.1 30385.8 lineto
37731.1 30573.3 lineto
37768.6 30723.3 lineto
37806.1 30798.3 lineto
37843.6 30835.8 lineto
37918.6 30873.3 lineto
stroke
newpath
38668.5 30873.3 moveto
38743.5 30873.3 lineto
38818.5 30835.8 lineto
38856 30798.3 lineto
38893.5 30723.3 lineto
38931 30573.3 lineto
38931 30385.8 lineto
38893.5 30235.9 lineto
38856 30160.9 lineto
38818.5 30123.4 lineto
38743.5 30085.9 lineto
38668.5 30085.9 lineto
38593.5 30123.4 lineto
38556 30160.9 lineto
38518.5 30235.9 lineto
38481 30385.8 lineto
38481 30573.3 lineto
38518.5 30723.3 lineto
38556 30798.3 lineto
38593.5 30835.8 lineto
38668.5 30873.3 lineto
stroke
newpath
39418.4 30873.3 moveto
39493.4 30873.3 lineto
39568.4 30835.8 lineto
39605.9 30798.3 lineto
39643.4 30723.3 lineto
39680.9 30573.3 lineto
39680.9 30385.8 lineto
39643.4 30235.9 lineto
39605.9 30160.9 lineto
39568.4 30123.4 lineto
39493.4 30085.9 lineto
39418.4 30085.9 lineto
39343.4 30123.4 lineto
39305.9 30160.9 lineto
39268.4 30235.9 lineto
39230.9 30385.8 lineto
39230.9 30573.3 lineto
39268.4 30723.3 lineto
39305.9 30798.3 lineto
39343.4 30835.8 lineto
39418.4 30873.3 lineto
stroke
newpath
40018.3 30085.9 moveto
40018.3 30610.8 lineto
stroke
newpath
40018.3 30535.8 moveto
40055.8 30573.3 lineto
40130.8 30610.8 lineto
40243.3 30610.8 lineto
40318.3 30573.3 lineto
40355.8 30498.3 lineto
40355.8 30085.9 lineto
stroke
newpath
40355.8 30498.3 moveto
40393.3 30573.3 lineto
40468.3 30610.8 lineto
40580.8 30610.8 lineto
40655.8 30573.3 lineto
40693.2 30498.3 lineto
40693.2 30085.9 lineto
stroke
newpath
41068.2 30085.9 moveto
41068.2 30610.8 lineto
stroke
newpath
41068.2 30535.8 moveto
41105.7 30573.3 lineto
41180.7 30610.8 lineto
41293.2 30610.8 lineto
41368.2 30573.3 lineto
41405.7 30498.3 lineto
41405.7 30085.9 lineto
stroke
newpath
41405.7 30498.3 moveto
41443.2 30573.3 lineto
41518.1 30610.8 lineto
41630.6 30610.8 lineto
41705.6 30573.3 lineto
41743.1 30498.3 lineto
41743.1 30085.9 lineto
stroke
newpath
43280.4 30910.8 moveto
42605.5 29898.4 lineto
stroke
newpath
44292.8 30873.3 moveto
44367.8 30873.3 lineto
44442.8 30835.8 lineto
44480.3 30798.3 lineto
44517.8 30723.3 lineto
44555.3 30573.3 lineto
44555.3 30385.8 lineto
44517.8 30235.9 lineto
44480.3 30160.9 lineto
44442.8 30123.4 lineto
44367.8 30085.9 lineto
44292.8 30085.9 lineto
44217.8 30123.4 lineto
44180.3 30160.9 lineto
44142.8 30235.9 lineto
44105.3 30385.8 lineto
44105.3 30573.3 lineto
44142.8 30723.3 lineto
44180.3 30798.3 lineto
44217.8 30835.8 lineto
44292.8 30873.3 lineto
stroke
newpath
44892.7 30160.9 moveto
44930.2 30123.4 lineto
44892.7 30085.9 lineto
44855.2 30123.4 lineto
44892.7 30160.9 lineto
44892.7 30085.9 lineto
stroke
newpath
45417.7 30873.3 moveto
45492.6 30873.3 lineto
45567.6 30835.8 lineto
45605.1 30798.3 lineto
45642.6 30723.3 lineto
45680.1 30573.3 lineto
45680.1 30385.8 lineto
45642.6 30235.9 lineto
45605.1 30160.9 lineto
45567.6 30123.4 lineto
45492.6 30085.9 lineto
45417.7 30085.9 lineto
45342.7 30123.4 lineto
45305.2 30160.9 lineto
45267.7 30235.9 lineto
45230.2 30385.8 lineto
45230.2 30573.3 lineto
45267.7 30723.3 lineto
45305.2 30798.3 lineto
45342.7 30835.8 lineto
45417.7 30873.3 lineto
stroke
newpath
45942.6 30873.3 moveto
46430 30873.3 lineto
46167.6 30573.3 lineto
46280.1 30573.3 lineto
46355 30535.8 lineto
46392.5 30498.3 lineto
46430 30423.3 lineto
46430 30235.9 lineto
46392.5 30160.9 lineto
46355 30123.4 lineto
46280.1 30085.9 lineto
46055.1 30085.9 lineto
45980.1 30123.4 lineto
45942.6 30160.9 lineto
stroke
newpath
46805 30085.9 moveto
46955 30085.9 lineto
47030 30123.4 lineto
47067.5 30160.9 lineto
47142.4 30273.3 lineto
47179.9 30423.3 lineto
47179.9 30723.3 lineto
47142.4 30798.3 lineto
47104.9 30835.8 lineto
47030 30873.3 lineto
46880 30873.3 lineto
46805 30835.8 lineto
46767.5 30798.3 lineto
46730 30723.3 lineto
46730 30535.8 lineto
46767.5 30460.8 lineto
46805 30423.3 lineto
46880 30385.8 lineto
47030 30385.8 lineto
47104.9 30423.3 lineto
47142.4 30460.8 lineto
47179.9 30535.8 lineto
stroke
newpath
47854.9 30610.8 moveto
47854.9 30085.9 lineto
stroke
newpath
47667.4 30910.8 moveto
47479.9 30348.3 lineto
47967.3 30348.3 lineto
stroke
newpath
48229.8 30873.3 moveto
48229.8 30723.3 lineto
stroke
newpath
48529.8 30873.3 moveto
48529.8 30723.3 lineto
stroke
newpath
49692.1 29785.9 moveto
49654.6 29823.4 lineto
49579.6 29935.9 lineto
49542.1 30010.9 lineto
49504.6 30123.4 lineto
49467.2 30310.8 lineto
49467.2 30460.8 lineto
49504.6 30648.3 lineto
49542.1 30760.8 lineto
49579.6 30835.8 lineto
49654.6 30948.3 lineto
49692.1 30985.8 lineto
stroke
newpath
50329.5 30610.8 moveto
50329.5 30085.9 lineto
stroke
newpath
50142.1 30910.8 moveto
49954.6 30348.3 lineto
50442 30348.3 lineto
stroke
newpath
50892 30873.3 moveto
50967 30873.3 lineto
51042 30835.8 lineto
51079.5 30798.3 lineto
51116.9 30723.3 lineto
51154.4 30573.3 lineto
51154.4 30385.8 lineto
51116.9 30235.9 lineto
51079.5 30160.9 lineto
51042 30123.4 lineto
50967 30085.9 lineto
50892 30085.9 lineto
50817 30123.4 lineto
50779.5 30160.9 lineto
50742 30235.9 lineto
50704.5 30385.8 lineto
50704.5 30573.3 lineto
50742 30723.3 lineto
50779.5 30798.3 lineto
50817 30835.8 lineto
50892 30873.3 lineto
stroke
newpath
52091.8 30085.9 moveto
52091.8 30873.3 lineto
stroke
newpath
52429.3 30085.9 moveto
52429.3 30498.3 lineto
52391.8 30573.3 lineto
52316.8 30610.8 lineto
52204.3 30610.8 lineto
52129.3 30573.3 lineto
52091.8 30535.8 lineto
stroke
newpath
52916.7 30085.9 moveto
52841.7 30123.4 lineto
52804.2 30160.9 lineto
52766.7 30235.9 lineto
52766.7 30460.8 lineto
52804.2 30535.8 lineto
52841.7 30573.3 lineto
52916.7 30610.8 lineto
53029.2 30610.8 lineto
53104.2 30573.3 lineto
53141.7 30535.8 lineto
53179.2 30460.8 lineto
53179.2 30235.9 lineto
53141.7 30160.9 lineto
53104.2 30123.4 lineto
53029.2 30085.9 lineto
52916.7 30085.9 lineto
stroke
newpath
53629.1 30085.9 moveto
53554.1 30123.4 lineto
53516.6 30198.4 lineto
53516.6 30873.3 lineto
stroke
newpath
54229.1 30123.4 moveto
54154.1 30085.9 lineto
54004.1 30085.9 lineto
53929.1 30123.4 lineto
53891.6 30198.4 lineto
53891.6 30498.3 lineto
53929.1 30573.3 lineto
54004.1 30610.8 lineto
54154.1 30610.8 lineto
54229.1 30573.3 lineto
54266.6 30498.3 lineto
54266.6 30423.3 lineto
53891.6 30348.3 lineto
stroke
newpath
54566.5 30123.4 moveto
54641.5 30085.9 lineto
54791.5 30085.9 lineto
54866.5 30123.4 lineto
54904 30198.4 lineto
54904 30235.9 lineto
54866.5 30310.8 lineto
54791.5 30348.3 lineto
54679 30348.3 lineto
54604 30385.8 lineto
54566.5 30460.8 lineto
54566.5 30498.3 lineto
54604 30573.3 lineto
54679 30610.8 lineto
54791.5 30610.8 lineto
54866.5 30573.3 lineto
stroke
newpath
55166.4 29785.9 moveto
55203.9 29823.4 lineto
55278.9 29935.9 lineto
55316.4 30010.9 lineto
55353.9 30123.4 lineto
55391.4 30310.8 lineto
55391.4 30460.8 lineto
55353.9 30648.3 lineto
55316.4 30760.8 lineto
55278.9 30835.8 lineto
55203.9 30948.3 lineto
55166.4 30985.8 lineto
stroke
showpage
grestore
%%EOF
