G04 #@! TF.GenerationSoftware,KiCad,Pcbnew,5.99.0-unknown-1e8b23402c~127~ubuntu20.04.1*
G04 #@! TF.CreationDate,2021-04-27T14:56:58-05:00*
G04 #@! TF.ProjectId,16x16matrix,31367831-366d-4617-9472-69782e6b6963,1.0*
G04 #@! TF.SameCoordinates,Original*
G04 #@! TF.FileFunction,Soldermask,Bot*
G04 #@! TF.FilePolarity,Negative*
%FSLAX46Y46*%
G04 Gerber Fmt 4.6, Leading zero omitted, Abs format (unit mm)*
G04 Created by KiCad (PCBNEW 5.99.0-unknown-1e8b23402c~127~ubuntu20.04.1) date 2021-04-27 14:56:58*
%MOMM*%
%LPD*%
G01*
G04 APERTURE LIST*
%ADD10R,1.700000X1.700000*%
%ADD11O,1.700000X1.700000*%
%ADD12C,1.500000*%
%ADD13C,2.200000*%
G04 APERTURE END LIST*
D10*
X175507400Y-87951400D03*
D11*
X175507400Y-85411400D03*
X175507400Y-82871400D03*
X175507400Y-80331400D03*
X175507400Y-77791400D03*
D12*
X153417400Y-94876400D03*
X155957400Y-94876400D03*
X158497400Y-94876400D03*
X161037400Y-94876400D03*
X163577400Y-94876400D03*
X166117400Y-94876400D03*
X168657400Y-94876400D03*
X171197400Y-94876400D03*
X171197400Y-70876400D03*
X168657400Y-70876400D03*
X166117400Y-70876400D03*
X163577400Y-70876400D03*
X161037400Y-70876400D03*
X158497400Y-70876400D03*
X155957400Y-70876400D03*
X153417400Y-70876400D03*
D13*
X116800000Y-70900000D03*
D10*
X116807400Y-87951400D03*
D11*
X116807400Y-85411400D03*
X116807400Y-82871400D03*
X116807400Y-80331400D03*
X116807400Y-77791400D03*
D12*
X121117400Y-127176400D03*
X123657400Y-127176400D03*
X126197400Y-127176400D03*
X128737400Y-127176400D03*
X131277400Y-127176400D03*
X133817400Y-127176400D03*
X136357400Y-127176400D03*
X138897400Y-127176400D03*
X138897400Y-103176400D03*
X136357400Y-103176400D03*
X133817400Y-103176400D03*
X131277400Y-103176400D03*
X128737400Y-103176400D03*
X126197400Y-103176400D03*
X123657400Y-103176400D03*
X121117400Y-103176400D03*
D10*
X143207400Y-87896400D03*
D11*
X143207400Y-85356400D03*
X143207400Y-82816400D03*
X143207400Y-80276400D03*
X143207400Y-77736400D03*
D10*
X175507400Y-120251400D03*
D11*
X175507400Y-117711400D03*
X175507400Y-115171400D03*
X175507400Y-112631400D03*
X175507400Y-110091400D03*
D13*
X175500000Y-127200000D03*
D10*
X116807400Y-120251400D03*
D11*
X116807400Y-117711400D03*
X116807400Y-115171400D03*
X116807400Y-112631400D03*
X116807400Y-110091400D03*
D10*
X149107400Y-120251400D03*
D11*
X149107400Y-117711400D03*
X149107400Y-115171400D03*
X149107400Y-112631400D03*
X149107400Y-110091400D03*
D13*
X175500000Y-70900000D03*
X116800000Y-127200000D03*
D10*
X143207400Y-120351400D03*
D11*
X143207400Y-117811400D03*
X143207400Y-115271400D03*
X143207400Y-112731400D03*
X143207400Y-110191400D03*
D10*
X149107400Y-87951400D03*
D11*
X149107400Y-85411400D03*
X149107400Y-82871400D03*
X149107400Y-80331400D03*
X149107400Y-77791400D03*
D12*
X153417400Y-127176400D03*
X155957400Y-127176400D03*
X158497400Y-127176400D03*
X161037400Y-127176400D03*
X163577400Y-127176400D03*
X166117400Y-127176400D03*
X168657400Y-127176400D03*
X171197400Y-127176400D03*
X171197400Y-103176400D03*
X168657400Y-103176400D03*
X166117400Y-103176400D03*
X163577400Y-103176400D03*
X161037400Y-103176400D03*
X158497400Y-103176400D03*
X155957400Y-103176400D03*
X153417400Y-103176400D03*
X121117400Y-94876400D03*
X123657400Y-94876400D03*
X126197400Y-94876400D03*
X128737400Y-94876400D03*
X131277400Y-94876400D03*
X133817400Y-94876400D03*
X136357400Y-94876400D03*
X138897400Y-94876400D03*
X138897400Y-70876400D03*
X136357400Y-70876400D03*
X133817400Y-70876400D03*
X131277400Y-70876400D03*
X128737400Y-70876400D03*
X126197400Y-70876400D03*
X123657400Y-70876400D03*
X121117400Y-70876400D03*
M02*
