M48
; DRILL file {KiCad 5.99.0-unknown-1e8b23402c~127~ubuntu20.04.1} date Tue Apr 27 14:56:52 2021
; FORMAT={-:-/ absolute / inch / decimal}
; #@! TF.CreationDate,2021-04-27T14:56:52-05:00
; #@! TF.GenerationSoftware,Kicad,Pcbnew,5.99.0-unknown-1e8b23402c~127~ubuntu20.04.1
; #@! TF.FileFunction,Plated,1,2,PTH
FMAT,2
INCH
; #@! TA.AperFunction,Plated,PTH,ViaDrill
T1C0.0157
; #@! TA.AperFunction,Plated,PTH,ComponentDrill
T2C0.0256
; #@! TA.AperFunction,Plated,PTH,ComponentDrill
T3C0.0394
%
G90
G05
T1
X4.782Y-4.684
X4.871Y-4.4125
X4.9921Y-4.6839
X4.9985Y-3.1038
X5.01Y-3.414
X5.1307Y-4.4841
X5.136Y-3.304
X5.138Y-3.392
X5.1662Y-3.4658
X5.2247Y-4.4891
X5.2416Y-3.3158
X5.3577Y-3.3136
X5.4529Y-4.4891
X5.752Y-2.7874
X5.752Y-3.166
X5.752Y-4.438
X5.752Y-4.632
X5.755Y-3.899
X6.03Y-3.11
X6.132Y-3.184
X6.1321Y-4.4095
X6.2532Y-4.6839
X6.2639Y-3.4128
X6.2703Y-3.1379
X6.338Y-4.576
X6.35Y-4.682
X6.3663Y-3.2831
X6.5054Y-3.4607
X6.5081Y-3.0085
X6.63Y-4.4624
T2
X4.7684Y-2.7904
X4.7684Y-3.7353
X4.7684Y-4.0621
X4.7684Y-5.0069
X4.8684Y-2.7904
X4.8684Y-3.7353
X4.8684Y-4.0621
X4.8684Y-5.0069
X4.9684Y-2.7904
X4.9684Y-3.7353
X4.9684Y-4.0621
X4.9684Y-5.0069
X5.0684Y-2.7904
X5.0684Y-3.7353
X5.0684Y-4.0621
X5.0684Y-5.0069
X5.1684Y-2.7904
X5.1684Y-3.7353
X5.1684Y-4.0621
X5.1684Y-5.0069
X5.2684Y-2.7904
X5.2684Y-3.7353
X5.2684Y-4.0621
X5.2684Y-5.0069
X5.3684Y-2.7904
X5.3684Y-3.7353
X5.3684Y-4.0621
X5.3684Y-5.0069
X5.4684Y-2.7904
X5.4684Y-3.7353
X5.4684Y-4.0621
X5.4684Y-5.0069
X6.0401Y-2.7904
X6.0401Y-3.7353
X6.0401Y-4.0621
X6.0401Y-5.0069
X6.1401Y-2.7904
X6.1401Y-3.7353
X6.1401Y-4.0621
X6.1401Y-5.0069
X6.2401Y-2.7904
X6.2401Y-3.7353
X6.2401Y-4.0621
X6.2401Y-5.0069
X6.3401Y-2.7904
X6.3401Y-3.7353
X6.3401Y-4.0621
X6.3401Y-5.0069
X6.4401Y-2.7904
X6.4401Y-3.7353
X6.4401Y-4.0621
X6.4401Y-5.0069
X6.5401Y-2.7904
X6.5401Y-3.7353
X6.5401Y-4.0621
X6.5401Y-5.0069
X6.6401Y-2.7904
X6.6401Y-3.7353
X6.6401Y-4.0621
X6.6401Y-5.0069
X6.7401Y-2.7904
X6.7401Y-3.7353
X6.7401Y-4.0621
X6.7401Y-5.0069
T3
X4.5987Y-3.0627
X4.5987Y-3.1627
X4.5987Y-3.2627
X4.5987Y-3.3627
X4.5987Y-3.4627
X4.5987Y-4.3343
X4.5987Y-4.4343
X4.5987Y-4.5343
X4.5987Y-4.6343
X4.5987Y-4.7343
X5.6381Y-3.0605
X5.6381Y-3.1605
X5.6381Y-3.2605
X5.6381Y-3.3605
X5.6381Y-3.4605
X5.6381Y-4.3382
X5.6381Y-4.4382
X5.6381Y-4.5382
X5.6381Y-4.6382
X5.6381Y-4.7382
X5.8704Y-3.0627
X5.8704Y-3.1627
X5.8704Y-3.2627
X5.8704Y-3.3627
X5.8704Y-3.4627
X5.8704Y-4.3343
X5.8704Y-4.4343
X5.8704Y-4.5343
X5.8704Y-4.6343
X5.8704Y-4.7343
X6.9097Y-3.0627
X6.9097Y-3.1627
X6.9097Y-3.2627
X6.9097Y-3.3627
X6.9097Y-3.4627
X6.9097Y-4.3343
X6.9097Y-4.4343
X6.9097Y-4.5343
X6.9097Y-4.6343
X6.9097Y-4.7343
T0
M30
