G04 #@! TF.GenerationSoftware,KiCad,Pcbnew,5.99.0-unknown-1e8b23402c~127~ubuntu20.04.1*
G04 #@! TF.CreationDate,2021-04-27T14:56:57-05:00*
G04 #@! TF.ProjectId,16x16matrix,31367831-366d-4617-9472-69782e6b6963,1.0*
G04 #@! TF.SameCoordinates,Original*
G04 #@! TF.FileFunction,Paste,Bot*
G04 #@! TF.FilePolarity,Positive*
%FSLAX46Y46*%
G04 Gerber Fmt 4.6, Leading zero omitted, Abs format (unit mm)*
G04 Created by KiCad (PCBNEW 5.99.0-unknown-1e8b23402c~127~ubuntu20.04.1) date 2021-04-27 14:56:57*
%MOMM*%
%LPD*%
G01*
G04 APERTURE LIST*
G04 APERTURE END LIST*
M02*
